<svg xmlns="http://www.w3.org/2000/svg" viewBox="0 0 28 28">
  <defs>
    <style>
      .cls-1 {
        fill: #7ed119;
      }

      .cls-2 {
        fill: #fff;
        stroke: #fff;
        stroke-width: 0.2px;
      }
    </style>
  </defs>
  <g id="Group_12034" data-name="Group 12034" transform="translate(181 -774)">
    <circle id="Ellipse_1" data-name="Ellipse 1" class="cls-1" cx="14" cy="14" r="14" transform="translate(-181 774)"/>
    <g id="edit-user" transform="translate(-176 778)">
      <g id="Group_12033" data-name="Group 12033" transform="translate(0)">
        <path id="Path_16917" data-name="Path 16917" class="cls-2" d="M1.233,16.763a.378.378,0,0,1-.108-.268,4.493,4.493,0,0,1,.943-2.76A11.425,11.425,0,0,1,4.6,12.25a12.322,12.322,0,0,0,2.437-1.4l.759-.717-.659-.81A6.51,6.51,0,0,1,5.5,5.458a6.219,6.219,0,0,1,.431-2.8A3.115,3.115,0,0,1,9,1.125a3.115,3.115,0,0,1,3.069,1.538,6.221,6.221,0,0,1,.431,2.8,6.51,6.51,0,0,1-1.635,3.865l-.659.81.759.718a5.575,5.575,0,0,0,1.1.709l.831-.831a7.046,7.046,0,0,1-1.155-.7,7.608,7.608,0,0,0,1.887-4.575,7.192,7.192,0,0,0-.551-3.3C12.577,1.173,11.467,0,9,0S5.423,1.173,4.926,2.156a7.184,7.184,0,0,0-.552,3.3,7.606,7.606,0,0,0,1.887,4.575,15.253,15.253,0,0,1-2.167,1.21,11.546,11.546,0,0,0-2.822,1.7A5.53,5.53,0,0,0,0,16.477,1.5,1.5,0,0,0,1.5,18H7.87V16.875H1.5A.375.375,0,0,1,1.233,16.763Zm15.814-3.438-.808.808a4.973,4.973,0,0,1,.636,2.361.374.374,0,0,1-.375.381h-3L12.371,18H16.5A1.5,1.5,0,0,0,18,16.477,5.964,5.964,0,0,0,17.047,13.325Zm.621-1.609a1.124,1.124,0,0,0,0-1.591l-.8-.8a1.125,1.125,0,0,0-1.591,0l-4.831,4.83a4.024,4.024,0,0,0-.892,1.357L9,18l2.483-.562a13.682,13.682,0,0,0,1.358-.892Zm-5.781,4.811L10.43,15.07a5.04,5.04,0,0,1,.418-.513l3.638-3.636,1.591,1.591-3.636,3.635A5.583,5.583,0,0,1,11.887,16.527Z" transform="translate(0)"/>
      </g>
    </g>
  </g>
</svg>
