<svg xmlns="http://www.w3.org/2000/svg" xmlns:xlink="http://www.w3.org/1999/xlink" viewBox="0 0 23.148 12">
  <defs>
    <style>
      .cls-1 {
        fill: #53b847;
      }

      .cls-2 {
        clip-path: url(#clip-path);
      }
    </style>
    <clipPath id="clip-path">
      <rect id="Rectangle_1" data-name="Rectangle 1" class="cls-1" width="23.149" height="12" transform="translate(-14506.546 825)"/>
    </clipPath>
  </defs>
  <g id="Mask_Group_1" data-name="Mask Group 1" class="cls-2" transform="translate(14506.546 -825)">
    <g id="correct-mark" transform="translate(-14502.833 825)">
      <g id="Group_1" data-name="Group 1" transform="translate(0 0)">
        <path id="Path_1" data-name="Path 1" class="cls-1" d="M15.723,82.743a.366.366,0,0,1-.113.267L5.4,93.222a.324.324,0,0,1-.259.113H5.106a.357.357,0,0,1-.259-.113L.113,88.505a.391.391,0,0,1,0-.551L2.14,85.928a.373.373,0,0,1,.551,0l2.431,2.448,7.91-7.926a.391.391,0,0,1,.551,0l2.026,2.026A.366.366,0,0,1,15.723,82.743Z" transform="translate(0 -80.336)"/>
      </g>
    </g>
  </g>
</svg>
