{
   "draftNo": "D030000000001",
   "jsonForm": {
      "rdForm": {
         "branchTypeNameTh":"",
         "docDetail": {
            "code": "PND3",
            "version": "1.0.0"
         },
         "taxPayerInfo": {
            "id13": "3102201809589",
            "id10": "1114085631",
            "titleCode": "2220,4111",
            "titleName": "คุณหญิง พ.อ.",
            "firstName": "หญิงกชกร",
            "middleName": "",
            "surname": "แสนฤทธิ์",
            "name": "คุณหญิง พ.อ.หญิงกชกร แสนฤทธิ์",
            "lastsynUserInfoDate": "2019-03-25 16:07:46.226",
            "addressInfo": {
               "building": "",
               "roomNo": "",
               "floorNo": "",
               "village": "หมู่บ้าน A",
               "houseNo": "792/40-42",
               "moo": "",
               "junction": "",
               "soi": "ริมคลองบางกอกน้อย",
               "road": "",
               "subdistrict": "อรุณอมรินทร์",
               "district": "บางกอกน้อย",
               "province": "กรุงเทพมหานคร",
               "postalCode": "10700",
               "telNo": "029538800"
            },
            "taCode": ""
         },
         "formDetail": {
            "refNo": "",
            "month": 2,
            "year": "2562",
            "filingType": "0",
            "filingNo": 0,
            "whtRmtUnder": [
               1,
               2,
               3
            ],
            "homeOffice": "03016200",
            "branchType": "V",
            "branchNo": 0,
            "lto": 0,
            "totIncome": 159035.00,
            "tolWHT": 4830.70,
            "surcharge": 0.00,
            "netAmt": 4830.70,
            "roundFlag": "",
            "taxAmt": 0.00,
            "criminal": 0.00,
            "totaAmt": 0.00,
            "createDate": "2019-01-01 13:00:30.123",
            "inTimeFlag": "",
            "formDueDate": "",
            "payment": {
               "dueDate": "",
               "payAmt": 0
            }
         },
         "processing": {
            "receiptNo": "",
            "criminalReceiptNo": "",
            "receiptDate": "",
            "paidAmount": "",
            "paidAmountTxt": "",
            "uid": "",
            "dln": ""
         },
         "isInstallment": "N"
      }
   },
   "jsonAttach": {
      "rdForm": {
         "docDetail": {
            "code": "PND3",
            "version": "1.0.0"
         },
         "attachDetail": {
            "taxPayerInfo": {
               "id13": "3102201809589",
               "branchNo": 0
            },
            "taxDetail": {
               "refNo": "D030000000001"
            },
            "printDetail": {
               "numPerPage": 6
            }
         },
         "formAttach": {
            "numberOfId13": 1,
            "totalIncomeAmt": 159035.00,
            "totalWhtTax": 4830.70,
            "attDet": [
               {
                  "seq": 1,
                  "id13": "1987633542784",
                  "id10": "7633542784",
                  "titleCode": 4,
                  "titleName": "นางสาว",
                  "middleName": "",
                  "surname": "เด็กดี",
                  "addressInfo": {
                     "building": "SG Tower",
                     "roomNo": "",
                     "floorNo": "",
                     "houseNo": "161/1",
                     "moo": "",
                     "subdistrictCode": "",
                     "subdistrict": "ลุมพินี",
                     "districtCode": "",
                     "district": "ปทุมวัน",
                     "provinceCode": "",
                     "province": "กรุงเทพมหานคร",
                     "postalCode": "10330",
                     "taxDetail": [
                        {
                           "seq": 1,
                           "date": "2019-07-15",
                           "incomeTaxCode": "3",
                           "incomeTaxType": "การรับเหมาลงทุกจัดหาสัมภาระ ค่าจ้างทำของ",
                           "incomeTaxDesc": "",
                           "taxRateCode": 5,
                           "taxRateName": "5",
                           "taxRateValue": 0.05,
                           "incomeAmt": 55000.00,
                           "whtAmt": 2750.00,
                           "conditionCode": "1",
                           "conditionName": "หัก ณ ที่จ่าย"
                        },
                        {
                           "seq": 2,
                           "date": "2019-07-19",
                           "incomeTaxCode": 6,
                           "incomeTaxType": "ค่าโฆษณา",
                           "incomeTaxDesc": "",
                           "taxRateCode": 3,
                           "taxRateName": "2",
                           "taxRateValue": 0.02,
                           "incomeAmt": 104035.00,
                           "whtAmt": 2080.70,
                           "conditionCode": "1",
                           "conditionName": "หัก ณ ที่จ่าย"
                        }
                     ]
                  }
               }
            ]
         }
      }
   },
   "listFilingNo": [
      {
         "refNo": "",
         "id13": "3102201809589",
         "taxMonth": "2",
         "taxYear": "2562",
         "brachType": "V",
         "branchNo": "0",
         "filingType": "0",
         "filingNo": 0
      }
   ],
   "listWhtRmtUnder": [
      {
         "whtRmtUndeId": 1,
         "whtRmtUnder": "มาตรา 3 เตรส"
      },
      {
         "whtRmtUndeId": 2,
         "whtRmtUnder": "มาตรา 48 ทวิ"
      },
      {
         "whtRmtUndeId": 3,
         "whtRmtUnder": "มาตรา 50 (3) (4) (5)"
      }
   ]
}