<svg xmlns="http://www.w3.org/2000/svg" width="19.333" height="11" viewBox="0 0 19.333 11">
  <g id="next" transform="translate(0.585 64.613) rotate(-90)">
    <path id="Chevron_Right_1_" d="M63.847,8.433,55.68.268a.917.917,0,0,0-1.3,1.3L61.9,9.081,54.383,16.6a.917.917,0,1,0,1.3,1.3l8.167-8.165A.925.925,0,0,0,63.847,8.433Z" fill="#706f72" stroke="#706f72" stroke-width="1"/>
  </g>
</svg>
