<svg xmlns="http://www.w3.org/2000/svg" width="8" height="13.851" viewBox="0 0 8 13.851">
  <g id="next" transform="translate(-53.613 0.569)">
    <path id="Chevron_Right_1_" d="M60.927,5.9,55.21.188a.642.642,0,0,0-.909.907l5.264,5.262L54.3,11.618a.642.642,0,0,0,.909.908L60.928,6.81A.648.648,0,0,0,60.927,5.9Z" transform="translate(0 0)" fill="#706f72" stroke="#706f72" stroke-width="1"/>
  </g>
</svg>
