<svg xmlns="http://www.w3.org/2000/svg" width="31.245" height="31.239" viewBox="0 0 31.245 31.239">
  <g id="magnifying-glass_1_" data-name="magnifying-glass (1)" transform="translate(0)">
    <path id="Path_19430" data-name="Path 19430" d="M27.76,3.485A11.9,11.9,0,0,0,10.371,19.7L9.151,20.924a2.746,2.746,0,0,0-3.121.532L.8,26.552a2.745,2.745,0,0,0,3.878,3.887l5.226-5.1a2.75,2.75,0,0,0,.536-3.124l1.23-1.23A11.9,11.9,0,0,0,27.76,3.485ZM8.618,24.045,3.393,29.14A.915.915,0,0,1,2.1,27.85L7.32,22.755a.915.915,0,0,1,1.3,1.291Zm17.848-5.03a10.067,10.067,0,1,1,0-14.236,10.062,10.062,0,0,1,0,14.236Zm0,0" transform="translate(0)" fill="#a8a8a8"/>
    <path id="Path_19431" data-name="Path 19431" d="M196.193,62.371a8.237,8.237,0,1,0,0,11.648,8.234,8.234,0,0,0,0-11.648ZM194.9,72.725a6.364,6.364,0,0,1-4.229,1.869.915.915,0,0,0,.547-.837v-.983a2.745,2.745,0,0,0-.867-5.35.915.915,0,1,1,.793-1.372.915.915,0,0,0,1.584-.917,2.755,2.755,0,0,0-1.51-1.23V62.7a.915.915,0,1,0-1.831,0v1.233a2.745,2.745,0,0,0,.963,5.316.915.915,0,1,1-.793,1.372.915.915,0,1,0-1.585.917,2.754,2.754,0,0,0,1.415,1.195v1.019a.915.915,0,0,0,.528.829,6.406,6.406,0,1,1,4.984-1.86Zm0,0" transform="translate(-171.022 -56.298)" fill="#a8a8a8"/>
  </g>
</svg>
