<svg xmlns="http://www.w3.org/2000/svg" xmlns:xlink="http://www.w3.org/1999/xlink" width="16" height="18" viewBox="0 0 16 18">
  <defs>
    <filter id="Circle" x="0" y="0" width="16" height="18" filterUnits="userSpaceOnUse">
      <feOffset dy="2" input="SourceAlpha"/>
      <feGaussianBlur result="blur"/>
      <feFlood flood-color="#f1f1f1"/>
      <feComposite operator="in" in2="blur"/>
      <feComposite in="SourceGraphic"/>
    </filter>
  </defs>
  <g id="Group_1" data-name="Group 1" transform="translate(-12 -11)">
    <g transform="matrix(1, 0, 0, 1, 12, 11)" filter="url(#Circle)">
      <circle id="Circle-2" data-name="Circle" cx="8" cy="8" r="8" fill="#23d5d8"/>
    </g>
    <path id="Check" d="M7.333,0,2.667,4.668l-2-2L0,3.335l2,2L2.667,6l.667-.667L8,.668Z" transform="translate(16.364 16.09)" fill="#23d5d8" stroke="#fff" stroke-width="1" fill-rule="evenodd"/>
  </g>
</svg>
