<svg xmlns="http://www.w3.org/2000/svg" viewBox="0 0 25.781 18">
  <defs>
    <style>
      .cls-1 {
        fill: #fff;
      }
    </style>
  </defs>
  <path id="Exclusion_1" data-name="Exclusion 1" class="cls-1" d="M21.412,18H4.7a4.151,4.151,0,0,1-3.571-1.723A7.106,7.106,0,0,1,0,12.111V5.891A7.356,7.356,0,0,1,1.068,1.724,3.992,3.992,0,0,1,4.562,0H21.55a3.636,3.636,0,0,1,3.337,1.724,8.076,8.076,0,0,1,.894,4.167v6.22C25.781,14.8,25.023,18,21.412,18ZM10.3,5.48v7.333L16.4,9.63l.006.007.916-.489L10.3,5.48Z"/>
</svg>
