<svg xmlns="http://www.w3.org/2000/svg" xmlns:xlink="http://www.w3.org/1999/xlink" width="70.832" height="70.832" viewBox="0 0 70.832 70.832">
  <defs>
    <clipPath id="clip-path">
      <rect id="Rectangle_4131" data-name="Rectangle 4131" width="56.757" height="31.873" fill="#fff" stroke="#53b847" stroke-width="4"/>
    </clipPath>
  </defs>
  <g id="Group_1" data-name="Group 1" transform="translate(-107 -509)">
    <rect id="Rectangle_4130" data-name="Rectangle 4130" width="70.832" height="70.832" rx="35.416" transform="translate(107 509)" fill="#53b847"/>
    <g id="Mask_Group_441" data-name="Mask Group 441" transform="translate(114.083 526.798)" clip-path="url(#clip-path)">
      <g id="correct-mark" transform="translate(9.103 0)">
        <g id="Group_15933" data-name="Group 15933">
          <path id="Path_19348" data-name="Path 19348" d="M38.55,86.729a1.014,1.014,0,0,1-.278.71L13.234,114.564a.77.77,0,0,1-.636.3h-.079a.845.845,0,0,1-.636-.3L.278,102.035a1.1,1.1,0,0,1,0-1.464L5.246,95.19a.868.868,0,0,1,1.351,0l5.961,6.5L31.953,80.637a.908.908,0,0,1,1.351,0l4.968,5.382A1.013,1.013,0,0,1,38.55,86.729Z" transform="translate(0 -80.336)" fill="#fff" stroke="#53b847" stroke-width="4"/>
        </g>
      </g>
    </g>
  </g>
</svg>
