<svg id="folder_1_" data-name="folder (1)" xmlns="http://www.w3.org/2000/svg" width="22" height="22" viewBox="0 0 22 22">
  <g id="Group_11730" data-name="Group 11730" transform="translate(10.542 2.75)">
    <g id="Group_11729" data-name="Group 11729">
      <path id="Path_16149" data-name="Path 16149" d="M254.5,64.906q0-.019,0-.039a.891.891,0,0,0-.911-.872h-8.256v.917l8.25.008c0,.458.006,1.37.006,1.37l.917-.006S254.5,65.357,254.5,64.906Z" transform="translate(-245.333 -63.995)"/>
    </g>
  </g>
  <g id="Group_11732" data-name="Group 11732">
    <g id="Group_11731" data-name="Group 11731">
      <path id="Path_16150" data-name="Path 16150" d="M20.625,4.583H11V1.375A1.375,1.375,0,0,0,9.625,0H1.375A1.375,1.375,0,0,0,0,1.375v19.25A1.375,1.375,0,0,0,1.375,22h19.25A1.375,1.375,0,0,0,22,20.625V5.958A1.375,1.375,0,0,0,20.625,4.583Zm.458,16.042a.458.458,0,0,1-.458.458H1.375a.458.458,0,0,1-.458-.458V1.375A.458.458,0,0,1,1.375.917h8.25a.458.458,0,0,1,.458.458V5.042a.458.458,0,0,0,.458.458H20.625a.458.458,0,0,1,.458.458Z"/>
    </g>
  </g>
  <g id="Group_11734" data-name="Group 11734" transform="translate(4.125 4.583)">
    <g id="Group_11733" data-name="Group 11733">
      <rect id="Rectangle_3139" data-name="Rectangle 3139" width="6.417" height="0.917"/>
    </g>
  </g>
  <g id="Group_11736" data-name="Group 11736" transform="translate(3.208 6.875)">
    <g id="Group_11735" data-name="Group 11735">
      <path id="Path_16151" data-name="Path 16151" d="M89.334,160H75.584a.917.917,0,0,0-.917.917v1.833a.917.917,0,0,0,.917.917h5.958v-.917H75.584v-1.833h13.75v1.833h-.458v.917h.458a.917.917,0,0,0,.917-.917v-1.833A.917.917,0,0,0,89.334,160Z" transform="translate(-74.667 -160)"/>
    </g>
  </g>
  <g id="Group_11738" data-name="Group 11738" transform="translate(3.208 11.917)">
    <g id="Group_11737" data-name="Group 11737">
      <path id="Path_16152" data-name="Path 16152" d="M80.167,278.251v-.917H75.584a.917.917,0,0,0-.917.917v1.833a.917.917,0,0,0,.917.917h3.208v-.917H75.584v-1.833Z" transform="translate(-74.667 -277.334)"/>
    </g>
  </g>
  <g id="Group_11740" data-name="Group 11740" transform="translate(9.625 12.833)">
    <g id="Group_11739" data-name="Group 11739">
      <path id="Path_16153" data-name="Path 16153" d="M231.792,298.667h-7.333a.458.458,0,0,0-.458.458v5.042a1.375,1.375,0,0,0,1.375,1.375h5.5a1.375,1.375,0,0,0,1.375-1.375v-5.042A.458.458,0,0,0,231.792,298.667Zm-.458,5.5a.458.458,0,0,1-.458.458h-5.5a.458.458,0,0,1-.458-.458v-4.583h6.417v4.583Z" transform="translate(-224 -298.667)"/>
    </g>
  </g>
  <g id="Group_11742" data-name="Group 11742" transform="translate(11 9.625)">
    <g id="Group_11741" data-name="Group 11741">
      <path id="Path_16154" data-name="Path 16154" d="M260.584,224h-3.667a.937.937,0,0,0-.917.917v2.75h.917v-2.714c0-.016.008-.033,0-.037h3.634s.023.007.028,0v2.747h.917v-2.75A.924.924,0,0,0,260.584,224Z" transform="translate(-256.001 -224)"/>
    </g>
  </g>
  <g id="Group_11744" data-name="Group 11744" transform="translate(8.708 14.667)">
    <g id="Group_11743" data-name="Group 11743">
      <rect id="Rectangle_3140" data-name="Rectangle 3140" width="10.083" height="0.917"/>
    </g>
  </g>
  <g id="Group_11746" data-name="Group 11746" transform="translate(13.292 16.5)">
    <g id="Group_11745" data-name="Group 11745">
      <rect id="Rectangle_3141" data-name="Rectangle 3141" width="0.917" height="0.917"/>
    </g>
  </g>
  <g id="Group_11748" data-name="Group 11748" transform="translate(3.208 16.5)">
    <g id="Group_11747" data-name="Group 11747">
      <rect id="Rectangle_3142" data-name="Rectangle 3142" width="0.917" height="0.917"/>
    </g>
  </g>
  <g id="Group_11750" data-name="Group 11750" transform="translate(5.042 16.5)">
    <g id="Group_11749" data-name="Group 11749">
      <rect id="Rectangle_3143" data-name="Rectangle 3143" width="0.917" height="0.917"/>
    </g>
  </g>
  <g id="Group_11752" data-name="Group 11752" transform="translate(3.208 18.333)">
    <g id="Group_11751" data-name="Group 11751">
      <rect id="Rectangle_3144" data-name="Rectangle 3144" width="4.583" height="0.917"/>
    </g>
  </g>
</svg>
