<svg xmlns="http://www.w3.org/2000/svg" viewBox="0 0 5.5 9.666">
  <defs>
    <style>
      .cls-1 {
        fill: #706f72;
        stroke: #706f72;
        stroke-width: 0.5px;
      }
    </style>
  </defs>
  <g id="next" transform="translate(-53.863 0.293)">
    <path id="Chevron_Right_1_" class="cls-1" d="M58.98,4.216,54.9.134a.459.459,0,0,0-.649.648l3.76,3.758L54.248,8.3a.459.459,0,1,0,.649.648l4.084-4.082A.463.463,0,0,0,58.98,4.216Z" transform="translate(0 0)"/>
  </g>
</svg>
