<svg xmlns="http://www.w3.org/2000/svg" xmlns:xlink="http://www.w3.org/1999/xlink" width="16.75" height="18" viewBox="0 0 16.75 18">
  <defs>
    <filter id="Union_3" x="0" y="0" width="16.75" height="18" filterUnits="userSpaceOnUse">
      <feOffset dy="1" input="SourceAlpha"/>
      <feGaussianBlur stdDeviation="0.5" result="blur"/>
      <feFlood flood-opacity="0.161"/>
      <feComposite operator="in" in2="blur"/>
      <feComposite in="SourceGraphic"/>
    </filter>
  </defs>
  <g id="trash" transform="translate(-16.769 0.5)">
    <g id="Group_2444" data-name="Group 2444" transform="translate(18.269 0)">
      <g transform="matrix(1, 0, 0, 1, -1.5, -0.5)" filter="url(#Union_3)">
        <path id="Union_3-2" data-name="Union 3" d="M2.813,15a1.377,1.377,0,0,1-1.1-.571,2.139,2.139,0,0,1-.458-1.382V3.75H.312A.3.3,0,0,1,0,3.437V2.812a.3.3,0,0,1,.088-.224A.3.3,0,0,1,.312,2.5H3.33L4.014.869A1.354,1.354,0,0,1,4.541.254,1.38,1.38,0,0,1,5.312,0H8.438a1.377,1.377,0,0,1,.771.254,1.353,1.353,0,0,1,.527.615L10.42,2.5h3.018a.3.3,0,0,1,.312.313v.625a.3.3,0,0,1-.312.313H12.5v9.258a2.219,2.219,0,0,1-.458,1.4,1.363,1.363,0,0,1-1.1.591ZM2.5,13.008a1.107,1.107,0,0,0,.069.4.863.863,0,0,0,.142.263c.049.055.083.083.1.083h8.125c.02,0,.053-.028.1-.083a.88.88,0,0,0,.142-.263,1.12,1.12,0,0,0,.068-.4V3.75H2.5ZM5.166,1.357,4.687,2.5H9.063L8.594,1.357a.282.282,0,0,0-.167-.107h-3.1A.281.281,0,0,0,5.166,1.357Zm3.9,10.519a.3.3,0,0,1-.313-.312V5.937a.307.307,0,0,1,.088-.225.3.3,0,0,1,.225-.088h.625A.3.3,0,0,1,10,5.937v5.626a.3.3,0,0,1-.313.313Zm-2.5,0a.3.3,0,0,1-.313-.312V5.937a.3.3,0,0,1,.313-.313h.625a.307.307,0,0,1,.225.088.3.3,0,0,1,.088.225v5.626a.3.3,0,0,1-.313.313Zm-2.5,0a.3.3,0,0,1-.312-.312V5.937a.3.3,0,0,1,.312-.313h.625A.3.3,0,0,1,5,5.937v5.626a.3.3,0,0,1-.313.313Z" transform="translate(1.5 0.5)" fill="#505050"/>
      </g>
    </g>
  </g>
</svg>
