<svg xmlns="http://www.w3.org/2000/svg" width="46" height="45.999" viewBox="0 0 46 45.999">
  <path id="Union_2" data-name="Union 2" d="M14382.045,581.192A23.063,23.063,0,1,1,14391,583,22.9,22.9,0,0,1,14382.045,581.192Zm1.074-39.842a20.34,20.34,0,1,0,7.879-1.588A20.184,20.184,0,0,0,14383.119,541.349Zm-5.2,31.729A18.5,18.5,0,1,1,14391,578.5,18.372,18.372,0,0,1,14377.921,573.078Zm13.171-5.9a5.745,5.745,0,1,0,5.745-5.737A5.751,5.751,0,0,0,14391.092,567.182Zm-10.624,2.778a2.325,2.325,0,0,0,2.322,2.322h10.23a6.3,6.3,0,0,1-3.082-4.75h-.029l0,.007h-4.753a.74.74,0,0,1,0-1.479h4.789a6.279,6.279,0,0,1,3.474-4.847h-8.263a.734.734,0,0,1,0-1.469h9.485a.735.735,0,0,1,.737.734.5.5,0,0,1-.015.148,6.373,6.373,0,0,1,.807-.051,6.292,6.292,0,0,1,3.169.854V549.406a2.324,2.324,0,0,0-2.322-2.319h-9.539v4.692a2.322,2.322,0,0,1-2.322,2.319h-4.685Zm4.96-22.656-4.746,4.742a.749.749,0,0,0-.214.521v.058h4.691a.844.844,0,0,0,.84-.846v-4.692h-.047A.735.735,0,0,0,14385.428,547.3Zm10.2,22.743-1.834-1.834a1.036,1.036,0,0,1-.314-.742,1.063,1.063,0,0,1,.314-.756,1.084,1.084,0,0,1,.753-.311,1.046,1.046,0,0,1,.741.311l.974.973,2.018-2.695a1.06,1.06,0,0,1,1.7,1.27l-2.753,3.668a1.1,1.1,0,0,1-.861.427A1.029,1.029,0,0,1,14395.632,570.047Zm-10.479-5.676a.731.731,0,0,1-.73-.731.745.745,0,0,1,.73-.742h4.742a.753.753,0,0,1,.742.742.738.738,0,0,1-.742.731Zm0-6.312a.739.739,0,0,1-.73-.749.731.731,0,0,1,.73-.734h9.485a.735.735,0,0,1,.737.734.743.743,0,0,1-.737.749Z" transform="translate(-14367.998 -537.001)" fill="#65cc59"/>
</svg>
