<svg xmlns="http://www.w3.org/2000/svg" width="45.997" height="46.001" viewBox="0 0 45.997 46.001">
  <g id="Group_1" data-name="Group 1" transform="translate(22745 17292.999)">
    <path id="Exclusion_1" data-name="Exclusion 1" d="M23,46A23.006,23.006,0,0,1,14.046,1.808,23,23,0,0,1,39.262,39.266,22.929,22.929,0,0,1,23,46ZM23,2.76A20.244,20.244,0,0,0,15.12,41.647a20.245,20.245,0,0,0,15.758-37.3A20.13,20.13,0,0,0,23,2.76ZM23,41.5a18.5,18.5,0,1,1,0-37,18.5,18.5,0,0,1,7.2,35.546A18.383,18.383,0,0,1,23,41.5Zm.045-8.987h0a5.309,5.309,0,0,0,4.608,2.829,5.552,5.552,0,0,0,5.341-5.73,5.552,5.552,0,0,0-5.341-5.73,5.455,5.455,0,0,0-5.25,4.67l-1.1-.588a1.637,1.637,0,0,1-.84-1.457V24.832a5.951,5.951,0,0,0,.376-.519,10.16,10.16,0,0,0,1.238-2.677,1.324,1.324,0,0,0,.887-1.276V18.571a1.371,1.371,0,0,0-.417-.992V14.992A3.759,3.759,0,0,0,21.7,12.3a4.765,4.765,0,0,0-3.736-1.331A4.766,4.766,0,0,0,14.232,12.3a3.764,3.764,0,0,0-.85,2.694v2.587a1.37,1.37,0,0,0-.417.992V20.36a1.366,1.366,0,0,0,.577,1.126,9.2,9.2,0,0,0,1.507,3.346v1.635a1.651,1.651,0,0,1-.792,1.429l-3.719,2.176a3.373,3.373,0,0,0-.6.455,11.97,11.97,0,0,0,8.024,3.145,11.647,11.647,0,0,0,5.078-1.158Zm8.979-14.093a3.823,3.823,0,0,0-3.677,3.946.251.251,0,0,0,0,.031.252.252,0,0,1,0,.031A6.759,6.759,0,0,1,33.467,26,3.958,3.958,0,0,0,35.7,22.367,3.823,3.823,0,0,0,32.025,18.421Zm-4.416,15.11c-.085,0-.169,0-.255,0a.215.215,0,0,1-.221-.248c0-.122,0-.248,0-.368-.005-.277-.013-.286-.255-.328a3.061,3.061,0,0,1-.909-.279c-.217-.109-.242-.169-.176-.427l.021-.081c.042-.159.085-.324.131-.482s.081-.2.147-.2a.364.364,0,0,1,.157.056,2.782,2.782,0,0,0,1.006.321,1.3,1.3,0,0,0,.178.013,1.09,1.09,0,0,0,.48-.107.567.567,0,0,0,.333-.436.587.587,0,0,0-.21-.528,1.574,1.574,0,0,0-.374-.237c-.111-.053-.225-.1-.335-.15a4.743,4.743,0,0,1-.7-.346,1.574,1.574,0,0,1-.825-1.49,1.627,1.627,0,0,1,1.12-1.521c.274-.106.274-.106.28-.411v-.31c0-.232.043-.274.256-.28h.2c.456,0,.456,0,.462.491,0,.347,0,.347.324.4a2.831,2.831,0,0,1,.712.227.228.228,0,0,1,.137.3c-.02.072-.04.145-.059.219-.037.138-.075.28-.117.418s-.079.186-.147.186a.373.373,0,0,1-.153-.049,2.172,2.172,0,0,0-1-.246c-.041,0-.084,0-.125,0a.741.741,0,0,0-.3.068.482.482,0,0,0-.291.367.5.5,0,0,0,.183.449,1.938,1.938,0,0,0,.49.294l.163.073a7.065,7.065,0,0,1,.731.359,1.8,1.8,0,0,1,.847,1.208,1.761,1.761,0,0,1-.331,1.41,1.694,1.694,0,0,1-.889.611.265.265,0,0,0-.215.305c0,.112,0,.226,0,.336,0,.057,0,.113,0,.17,0,.152-.071.231-.212.237C27.777,33.53,27.694,33.531,27.609,33.531Z" transform="translate(-22745 -17293)" fill="#65cc59"/>
  </g>
</svg>
