<svg xmlns="http://www.w3.org/2000/svg" xmlns:xlink="http://www.w3.org/1999/xlink" viewBox="0 0 267.084 257">
  <defs>
    <style>
      .cls-1 {
        fill: url(#linear-gradient);
      }

      .cls-2 {
        fill: url(#linear-gradient-2);
      }

      .cls-3 {
        fill: #ffb82b;
      }

      .cls-4 {
        fill: #f5d5a4;
      }

      .cls-5 {
        fill: url(#linear-gradient-3);
      }

      .cls-6 {
        fill: #ffd336;
      }

      .cls-7 {
        fill: url(#linear-gradient-4);
      }

      .cls-8 {
        fill: url(#linear-gradient-5);
      }

      .cls-9 {
        fill: url(#linear-gradient-6);
      }

      .cls-10 {
        fill: url(#linear-gradient-7);
      }

      .cls-11 {
        fill: url(#linear-gradient-8);
      }

      .cls-12 {
        fill: #9fcbd6;
      }

      .cls-13 {
        fill: #284080;
      }

      .cls-14 {
        fill: url(#linear-gradient-9);
      }

      .cls-15 {
        fill: #e6ab6e;
      }

      .cls-16 {
        fill: url(#linear-gradient-10);
      }

      .cls-17 {
        fill: url(#linear-gradient-11);
      }

      .cls-18 {
        fill: url(#linear-gradient-12);
      }

      .cls-19 {
        fill: url(#linear-gradient-13);
      }

      .cls-20 {
        fill: url(#linear-gradient-14);
      }

      .cls-21 {
        fill: url(#linear-gradient-15);
      }

      .cls-22 {
        fill: url(#linear-gradient-16);
      }

      .cls-23 {
        fill: url(#linear-gradient-17);
      }

      .cls-24 {
        fill: url(#linear-gradient-18);
      }

      .cls-25 {
        fill: url(#linear-gradient-19);
      }

      .cls-26 {
        fill: url(#linear-gradient-20);
      }

      .cls-27 {
        fill: url(#linear-gradient-21);
      }

      .cls-28 {
        fill: url(#linear-gradient-22);
      }

      .cls-29 {
        fill: url(#linear-gradient-23);
      }

      .cls-30 {
        fill: #f4c297;
      }

      .cls-31 {
        fill: url(#linear-gradient-24);
      }

      .cls-32 {
        fill: #582d11;
      }

      .cls-33 {
        fill: url(#linear-gradient-25);
      }

      .cls-34 {
        fill: url(#linear-gradient-26);
      }

      .cls-35 {
        fill: url(#linear-gradient-27);
      }

      .cls-36 {
        fill: url(#linear-gradient-28);
      }

      .cls-37 {
        fill: url(#linear-gradient-29);
      }

      .cls-38 {
        fill: url(#linear-gradient-30);
      }

      .cls-39 {
        fill: url(#linear-gradient-31);
      }

      .cls-40 {
        fill: #fff;
      }

      .cls-41 {
        fill: url(#linear-gradient-32);
      }

      .cls-42 {
        fill: url(#linear-gradient-33);
      }

      .cls-43 {
        fill: url(#linear-gradient-34);
      }

      .cls-44 {
        fill: url(#linear-gradient-35);
      }

      .cls-45 {
        fill: #e66409;
      }

      .cls-46 {
        fill: url(#linear-gradient-36);
      }

      .cls-47 {
        fill: #ff700a;
      }

      .cls-48 {
        fill: url(#linear-gradient-37);
      }

      .cls-49 {
        fill: url(#linear-gradient-38);
      }

      .cls-50 {
        fill: url(#linear-gradient-39);
      }

      .cls-51 {
        fill: url(#linear-gradient-40);
      }

      .cls-52 {
        fill: url(#linear-gradient-41);
      }

      .cls-53 {
        fill: url(#linear-gradient-42);
      }

      .cls-54 {
        fill: #d1e8ee;
      }

      .cls-55 {
        fill: url(#linear-gradient-43);
      }

      .cls-56 {
        fill: url(#linear-gradient-44);
      }

      .cls-57 {
        fill: #299fbb;
      }

      .cls-58 {
        fill: url(#linear-gradient-45);
      }

      .cls-59 {
        fill: #f5ce93;
      }

      .cls-60 {
        fill: #ff832b;
      }

      .cls-61 {
        fill: url(#linear-gradient-46);
      }

      .cls-62 {
        fill: url(#linear-gradient-47);
      }

      .cls-63 {
        fill: #8ccee0;
      }

      .cls-64 {
        fill: #8fd7ff;
        opacity: 0.1;
      }

      .cls-65 {
        filter: url(#Path_19312);
      }
    </style>
    <linearGradient id="linear-gradient" x1="0.165" y1="0.166" x2="0.896" y2="0.765" gradientUnits="objectBoundingBox">
      <stop offset="0" stop-color="#c4eebe"/>
      <stop offset="1" stop-color="#d3ffce"/>
    </linearGradient>
    <filter id="Path_19312" x="0" y="13.206" width="204.299" height="238.896" filterUnits="userSpaceOnUse">
      <feOffset dy="3" input="SourceAlpha"/>
      <feGaussianBlur result="blur"/>
      <feFlood flood-color="#b6ddb1"/>
      <feComposite operator="in" in2="blur"/>
      <feComposite in="SourceGraphic"/>
    </filter>
    <linearGradient id="linear-gradient-2" x1="-0.589" y1="0.5" x2="0.411" y2="0.5" gradientUnits="objectBoundingBox">
      <stop offset="0" stop-color="#dd3f18"/>
      <stop offset="0.416" stop-color="#e74a1b"/>
      <stop offset="1" stop-color="#fd6120"/>
    </linearGradient>
    <linearGradient id="linear-gradient-3" x1="-32.71" y1="1.007" x2="-32.71" y2="0.003" gradientUnits="objectBoundingBox">
      <stop offset="0" stop-color="#ff7b00"/>
      <stop offset="0.024" stop-color="#ff7d01"/>
      <stop offset="0.674" stop-color="#ffab0f"/>
      <stop offset="1" stop-color="#ffbd14"/>
    </linearGradient>
    <linearGradient id="linear-gradient-4" x1="-133.588" y1="0.979" x2="-133.588" y2="-0.009" xlink:href="#linear-gradient-3"/>
    <linearGradient id="linear-gradient-5" x1="0.822" y1="0.498" x2="1.817" y2="0.498" xlink:href="#linear-gradient-2"/>
    <linearGradient id="linear-gradient-6" x1="-37.18" y1="0.996" x2="-37.18" y2="-0.001" xlink:href="#linear-gradient-3"/>
    <linearGradient id="linear-gradient-7" x1="-161.623" y1="1.016" x2="-161.623" y2="0.018" xlink:href="#linear-gradient-3"/>
    <linearGradient id="linear-gradient-8" x1="-28.108" y1="1.01" x2="-28.108" y2="0.006" gradientUnits="objectBoundingBox">
      <stop offset="0" stop-color="#062a54"/>
      <stop offset="0.272" stop-color="#072c58"/>
      <stop offset="0.518" stop-color="#083263"/>
      <stop offset="0.754" stop-color="#0b3c75"/>
      <stop offset="0.983" stop-color="#104b8f"/>
      <stop offset="1" stop-color="#104c91"/>
    </linearGradient>
    <linearGradient id="linear-gradient-9" x1="-29.469" y1="2.042" x2="-29.469" y2="1.076" xlink:href="#linear-gradient-8"/>
    <linearGradient id="linear-gradient-10" x1="-0.001" y1="0.498" x2="0.998" y2="0.498" xlink:href="#linear-gradient-2"/>
    <linearGradient id="linear-gradient-11" x1="-16.014" y1="0.999" x2="-16.014" y2="0.003" xlink:href="#linear-gradient-3"/>
    <linearGradient id="linear-gradient-12" x1="-69.522" y1="0.984" x2="-69.522" y2="-0.001" xlink:href="#linear-gradient-3"/>
    <linearGradient id="linear-gradient-13" x1="0.5" y1="0.995" x2="0.5" y2="0.009" gradientUnits="objectBoundingBox">
      <stop offset="0.024" stop-color="#f7bb7c"/>
      <stop offset="1" stop-color="#ffd1a1"/>
    </linearGradient>
    <linearGradient id="linear-gradient-14" x1="0.494" y1="0.999" x2="0.494" y2="-0.001" gradientUnits="objectBoundingBox">
      <stop offset="0" stop-color="#cdeffa"/>
      <stop offset="1" stop-color="#fafafa"/>
    </linearGradient>
    <linearGradient id="linear-gradient-15" x1="0.505" y1="1.001" x2="0.505" y2="0" xlink:href="#linear-gradient-8"/>
    <linearGradient id="linear-gradient-16" x1="0.001" y1="0.499" x2="1" y2="0.499" xlink:href="#linear-gradient-2"/>
    <linearGradient id="linear-gradient-17" x1="-18.571" y1="0.999" x2="-18.571" y2="-0.002" xlink:href="#linear-gradient-3"/>
    <linearGradient id="linear-gradient-18" x1="-80.192" y1="0.981" x2="-80.192" y2="-0.004" xlink:href="#linear-gradient-3"/>
    <linearGradient id="linear-gradient-19" x1="0.499" y1="0.992" x2="0.499" y2="0.005" xlink:href="#linear-gradient-13"/>
    <linearGradient id="linear-gradient-20" x1="0.501" y1="1.001" x2="0.501" y2="0.001" xlink:href="#linear-gradient-14"/>
    <linearGradient id="linear-gradient-21" x1="0.499" y1="1" x2="0.499" y2="-0.001" xlink:href="#linear-gradient-8"/>
    <linearGradient id="linear-gradient-22" x1="0.498" y1="1.001" x2="0.498" y2="0.004" gradientUnits="objectBoundingBox">
      <stop offset="0" stop-color="#9ddef2"/>
      <stop offset="0.186" stop-color="#a2dff2"/>
      <stop offset="0.406" stop-color="#b0e4f4"/>
      <stop offset="0.643" stop-color="#c8ebf6"/>
      <stop offset="0.89" stop-color="#e9f5f9"/>
      <stop offset="1" stop-color="#fafafa"/>
    </linearGradient>
    <linearGradient id="linear-gradient-23" x1="0.501" y1="0.995" x2="0.501" y2="-0.002" xlink:href="#linear-gradient-22"/>
    <linearGradient id="linear-gradient-24" x1="0.501" y1="0.996" x2="0.501" y2="0" xlink:href="#linear-gradient-13"/>
    <linearGradient id="linear-gradient-25" x1="0.513" y1="0.994" x2="0.513" y2="-0.007" xlink:href="#linear-gradient-22"/>
    <linearGradient id="linear-gradient-26" x1="0.502" y1="0.994" x2="0.502" y2="-0.007" xlink:href="#linear-gradient-22"/>
    <linearGradient id="linear-gradient-27" x1="0.513" y1="0.998" x2="0.513" y2="-0.004" gradientUnits="objectBoundingBox">
      <stop offset="0" stop-color="#5ea814"/>
      <stop offset="0.351" stop-color="#62a914"/>
      <stop offset="0.669" stop-color="#6dad12"/>
      <stop offset="0.972" stop-color="#7fb410"/>
      <stop offset="1" stop-color="#81b510"/>
    </linearGradient>
    <linearGradient id="linear-gradient-28" x1="0.497" y1="1.002" x2="0.497" y2="0.001" xlink:href="#linear-gradient-8"/>
    <linearGradient id="linear-gradient-29" x1="0.503" y1="1.002" x2="0.503" y2="0.001" xlink:href="#linear-gradient-8"/>
    <linearGradient id="linear-gradient-30" x1="-0.002" y1="0.502" x2="0.999" y2="0.502" xlink:href="#linear-gradient-3"/>
    <linearGradient id="linear-gradient-31" x1="0.501" y1="0.999" x2="0.501" y2="0.003" gradientUnits="objectBoundingBox">
      <stop offset="0" stop-color="#9ddef2"/>
      <stop offset="0.359" stop-color="#c1eaf7"/>
      <stop offset="1" stop-color="#fff"/>
    </linearGradient>
    <linearGradient id="linear-gradient-32" x1="8.038" y1="1.004" x2="8.038" gradientUnits="objectBoundingBox">
      <stop offset="0" stop-color="#ff7b00"/>
      <stop offset="1" stop-color="#ffbd14"/>
    </linearGradient>
    <linearGradient id="linear-gradient-33" x1="9.985" y1="0.999" x2="9.985" y2="0.005" xlink:href="#linear-gradient-3"/>
    <linearGradient id="linear-gradient-34" x1="40.531" y1="1.016" x2="40.531" y2="-0.013" xlink:href="#linear-gradient-3"/>
    <linearGradient id="linear-gradient-35" x1="8.04" y1="0.997" x2="8.04" y2="-0.001" xlink:href="#linear-gradient-32"/>
    <linearGradient id="linear-gradient-36" x1="0.503" y1="0.998" x2="0.503" y2="0" xlink:href="#linear-gradient-32"/>
    <linearGradient id="linear-gradient-37" x1="0.506" y1="0.996" x2="0.506" y2="-0.002" xlink:href="#linear-gradient-32"/>
    <linearGradient id="linear-gradient-38" x1="0" y1="0.499" x2="1.005" y2="0.499" xlink:href="#linear-gradient-2"/>
    <linearGradient id="linear-gradient-39" x1="12.248" y1="0.999" x2="12.248" y2="-0.002" xlink:href="#linear-gradient-3"/>
    <linearGradient id="linear-gradient-40" x1="51.66" y1="0.993" x2="51.66" y2="0" xlink:href="#linear-gradient-3"/>
    <linearGradient id="linear-gradient-41" x1="0.503" y1="0.997" x2="0.503" y2="-0.006" xlink:href="#linear-gradient-32"/>
    <linearGradient id="linear-gradient-42" x1="11.852" y1="-6.072" x2="11.224" y2="-6.89" xlink:href="#linear-gradient-27"/>
    <linearGradient id="linear-gradient-43" x1="7.399" y1="-1.502" x2="6.581" y2="-2.355" xlink:href="#linear-gradient-27"/>
    <linearGradient id="linear-gradient-44" x1="22.347" y1="-9.587" x2="21.767" y2="-10.441" xlink:href="#linear-gradient-3"/>
    <linearGradient id="linear-gradient-45" x1="17.077" y1="-11.497" x2="16.675" y2="-12.354" xlink:href="#linear-gradient-3"/>
    <linearGradient id="linear-gradient-46" x1="62.296" y1="-28.107" x2="61.719" y2="-28.949" xlink:href="#linear-gradient-8"/>
    <linearGradient id="linear-gradient-47" x1="87.917" y1="-27.743" x2="87.102" y2="-28.576" xlink:href="#linear-gradient-8"/>
  </defs>
  <g id="Group_16144" data-name="Group 16144" transform="translate(-378 -138)">
    <g id="Group_1" data-name="Group 1" transform="translate(378 138.102)">
      <g class="cls-65" transform="matrix(1, 0, 0, 1, 0, -0.1)">
        <path id="Path_19312-2" data-name="Path 19312" class="cls-1" d="M204.3,183.03,102.149,241.9,0,183.03V65.082L102.149,6,204.3,65.082Z" transform="translate(0 7.21)"/>
      </g>
      <g id="Group_16098" data-name="Group 16098" transform="translate(63.411 -0.102)">
        <g id="Group_16086" data-name="Group 16086" transform="translate(25.105)">
          <path id="Path_19313" data-name="Path 19313" class="cls-2" d="M56.915,0A15.616,15.616,0,0,0,40.9,15.585,16.265,16.265,0,0,0,56.7,31.816,15.616,15.616,0,0,0,72.713,16.234,16.265,16.265,0,0,0,56.915,0Z" transform="translate(-40.9 0.219)"/>
          <g id="Group_16082" data-name="Group 16082" transform="translate(0 0.216)">
            <path id="Path_19314" data-name="Path 19314" class="cls-3" d="M72.713,16.234A15.484,15.484,0,0,1,56.7,31.816,16.12,16.12,0,0,1,40.9,15.585,15.484,15.484,0,0,1,56.915,0,16.265,16.265,0,0,1,72.713,16.234Z" transform="translate(-40.9 0.002)"/>
          </g>
          <path id="Path_19315" data-name="Path 19315" class="cls-4" d="M56.7,22.8A16.178,16.178,0,0,1,40.9,7v.433A16.265,16.265,0,0,0,56.7,23.664,15.616,15.616,0,0,0,72.713,8.082V7.649A15.659,15.659,0,0,1,56.7,22.8Z" transform="translate(-40.9 8.37)"/>
          <path id="Path_19316" data-name="Path 19316" class="cls-3" d="M56.915.985a16.139,16.139,0,0,1,15.8,15.582v-.433A16.265,16.265,0,0,0,56.915-.1,15.616,15.616,0,0,0,40.9,15.485v.433C41.116,7.694,48.258.985,56.915.985Z" transform="translate(-40.9 0.102)"/>
          <g id="Group_16083" data-name="Group 16083" transform="translate(3.03 3.461)">
            <path id="Path_19317" data-name="Path 19317" class="cls-5" d="M67.621,14.272A12.3,12.3,0,0,1,54.852,26.608,12.891,12.891,0,0,1,42.3,13.839,12.244,12.244,0,0,1,54.852,1.5C62.21,1.72,67.837,7.347,67.621,14.272Z" transform="translate(-42.3 -1.497)"/>
          </g>
          <path id="Path_19318" data-name="Path 19318" class="cls-4" d="M54.952,19.652A12.85,12.85,0,0,1,42.4,7.1v.433a12.663,12.663,0,0,0,25.321.433V7.749A12.631,12.631,0,0,1,54.952,19.652Z" transform="translate(-39.154 8.487)"/>
          <g id="Group_16084" data-name="Group 16084" transform="translate(6.709 6.714)">
            <path id="Path_19319" data-name="Path 19319" class="cls-4" d="M53.09,21.828a8.9,8.9,0,0,1-8.007-4.978A10.8,10.8,0,0,1,44,12.306,9.057,9.057,0,0,1,53.09,3,9.475,9.475,0,0,1,62.4,12.739a9.192,9.192,0,0,1-9.306,9.09Z" transform="translate(-44 -3)"/>
            <path id="Path_19320" data-name="Path 19320" class="cls-6" d="M61.73,12.173a8.731,8.731,0,0,1-8.873,8.657A8.87,8.87,0,0,1,44.2,11.957,8.731,8.731,0,0,1,53.073,3.3,8.87,8.87,0,0,1,61.73,12.173Z" transform="translate(-43.767 -2.651)"/>
          </g>
          <path id="Path_19321" data-name="Path 19321" class="cls-4" d="M61.73,7.716h0c-.216,4.112-4.112,7.358-8.873,7.358S44.416,11.612,44.2,7.5h0a8.941,8.941,0,0,0,8.657,8.44A8.789,8.789,0,0,0,61.73,7.716Z" transform="translate(-37.058 8.953)"/>
          <path id="Path_19322" data-name="Path 19322" class="cls-3" d="M52.973,3.833A8.826,8.826,0,0,1,61.63,12.49v-.216A8.87,8.87,0,0,0,52.973,3.4,8.728,8.728,0,0,0,44.1,12.057v.433A9.161,9.161,0,0,1,52.973,3.833Z" transform="translate(-37.175 4.179)"/>
          <g id="Group_16085" data-name="Group 16085" transform="translate(12.552 9.094)">
            <path id="Path_19323" data-name="Path 19323" class="cls-7" d="M49.064,16.869c-.433,0-.866-.216-1.3-.216a1.124,1.124,0,0,1-.866-.433l.433-1.515c.216.216.433.216.649.433a9.373,9.373,0,0,0,1.082.216V11.891a2.988,2.988,0,0,0-.866-.649l-.649-.649a1.641,1.641,0,0,1-.433-.866,2.343,2.343,0,0,1-.216-1.3,2.645,2.645,0,0,1,.649-1.948,2.249,2.249,0,0,1,1.731-.866V4.1H50.8V5.4a1.951,1.951,0,0,1,1.082.216c.216,0,.649.216.866.216L52.31,7.563c-.216,0-.433-.216-.649-.216s-.433-.216-.649-.216v3.246c.216.216.649.433.866.649l.649.649a1.641,1.641,0,0,1,.433.866,2.343,2.343,0,0,1,.216,1.3A3.231,3.231,0,0,1,52.527,16,3.415,3.415,0,0,1,50.8,17.085V18.6H49.281Zm.649-9.739a1.124,1.124,0,0,0-.866.433.8.8,0,0,0-.216.649c0,.433,0,.649.216.866l.649.649Zm.216,8.007A1.124,1.124,0,0,0,50.8,14.7c.216-.216.216-.433.216-.866s0-.649-.216-.866l-.649-.649Z" transform="translate(-46.467 -4.1)"/>
            <path id="Path_19324" data-name="Path 19324" class="cls-4" d="M52.76,12.54c-.216-.433-.216-.649-.433-.866l-.649-.649c-.216-.216-.649-.433-.866-.649V7.13a.8.8,0,0,1,.649.216c.216,0,.433.216.649.216l.433-1.731c-.216-.216-.433-.216-.866-.216A9.373,9.373,0,0,0,50.6,5.4V4.1H49.081V5.615a4.35,4.35,0,0,0-1.731.866A2.645,2.645,0,0,0,46.7,8.428a2.745,2.745,0,0,0,.216,1.3,2.988,2.988,0,0,1,.866.649l.649.649a2.988,2.988,0,0,0,.866.649v3.463c-.433,0-.649-.216-1.082-.216-.216,0-.433-.216-.649-.433l-.649,1.731c.216.216.433.216.866.433.433,0,.866.216,1.3.216v1.3H50.6V16.652a2.974,2.974,0,0,0,1.731-1.082,3.231,3.231,0,0,0,.649-2.164A1.3,1.3,0,0,0,52.76,12.54Zm-.649,2.6A2.191,2.191,0,0,1,50.6,16h-.433v1.3h-.649V16h-.433a2.745,2.745,0,0,1-1.3-.216c-.216,0-.216,0-.433-.216l.216-.433c.216,0,.216.216.433.216a9.373,9.373,0,0,0,1.082.216h.433V10.809a6.943,6.943,0,0,1-1.082-.649l-.649-.649c-.216-.216-.216-.433-.433-.649V8.212a2.32,2.32,0,0,1,.433-1.3A3.488,3.488,0,0,1,49.3,6.048h.433v-1.3h.649v1.3h.433c.433,0,.649,0,.866.216h.216v.216a.212.212,0,0,1-.216-.216c-.216,0-.433-.216-.649-.216H50.6v4.545l.216.216a2.988,2.988,0,0,0,.866.649l.649.649c.216.216.433.433.433.649s.216.433.216.649C52.543,14.272,52.543,14.7,52.11,15.137Z" transform="translate(-46.7 -4.1)"/>
          </g>
        </g>
        <g id="Group_16091" data-name="Group 16091" transform="translate(1.299 33.761)">
          <path id="Path_19325" data-name="Path 19325" class="cls-8" d="M43.851,15.6A13.625,13.625,0,0,0,30,29.237a13.961,13.961,0,0,0,27.918.433A14.323,14.323,0,0,0,43.851,15.6Z" transform="translate(-29.784 -15.381)"/>
          <g id="Group_16087" data-name="Group 16087" transform="translate(0 0.216)">
            <path id="Path_19326" data-name="Path 19326" class="cls-3" d="M57.818,29.67A13.677,13.677,0,0,1,43.751,43.3,14.282,14.282,0,0,1,29.9,29.237,13.625,13.625,0,0,1,43.751,15.6,14.039,14.039,0,0,1,57.818,29.67Z" transform="translate(-29.9 -15.597)"/>
          </g>
          <path id="Path_19327" data-name="Path 19327" class="cls-4" d="M43.751,35.551A14.092,14.092,0,0,1,29.9,21.7v.433a13.961,13.961,0,0,0,27.918.433v-.433A13.91,13.91,0,0,1,43.751,35.551Z" transform="translate(-29.9 -8.277)"/>
          <path id="Path_19328" data-name="Path 19328" class="cls-3" d="M43.851,16.369A14.2,14.2,0,0,1,57.7,30V29.57A13.993,13.993,0,0,0,43.851,15.5,13.625,13.625,0,0,0,30,29.137v.433A13.681,13.681,0,0,1,43.851,16.369Z" transform="translate(-29.784 -15.497)"/>
          <g id="Group_16088" data-name="Group 16088" transform="translate(3.03 3.035)">
            <path id="Path_19329" data-name="Path 19329" class="cls-9" d="M53.375,28.154A10.9,10.9,0,0,1,42.337,38.975,11.272,11.272,0,0,1,31.3,27.721,10.9,10.9,0,0,1,42.337,16.9,11.131,11.131,0,0,1,53.375,28.154Z" transform="translate(-31.3 -16.9)"/>
          </g>
          <path id="Path_19330" data-name="Path 19330" class="cls-4" d="M42.237,32.621A11.187,11.187,0,0,1,31.2,21.8v.216A11.417,11.417,0,0,0,42.237,33.27,10.9,10.9,0,0,0,53.275,22.449v-.216C53.275,28.076,48.3,32.621,42.237,32.621Z" transform="translate(-28.387 -8.16)"/>
          <g id="Group_16089" data-name="Group 16089" transform="translate(6.276 5.632)">
            <path id="Path_19331" data-name="Path 19331" class="cls-4" d="M40.591,34.764a7.71,7.71,0,0,1-6.925-4.328,8.783,8.783,0,0,1-.866-4.112,7.911,7.911,0,1,1,15.8.216,8.038,8.038,0,0,1-8.007,8.224Z" transform="translate(-32.8 -18.1)"/>
            <path id="Path_19332" data-name="Path 19332" class="cls-6" d="M48.166,26.191A7.684,7.684,0,1,1,40.591,18.4,8.011,8.011,0,0,1,48.166,26.191Z" transform="translate(-32.8 -17.751)"/>
          </g>
          <path id="Path_19333" data-name="Path 19333" class="cls-4" d="M48.049,22.316h0c-.216,3.679-3.463,6.493-7.575,6.276-4.112,0-7.358-3.03-7.575-6.493h0a7.583,7.583,0,0,0,15.149.216Z" transform="translate(-26.407 -7.811)"/>
          <path id="Path_19334" data-name="Path 19334" class="cls-3" d="M40.591,19.049a7.781,7.781,0,0,1,7.575,7.358v-.216A7.684,7.684,0,1,0,32.8,25.975v.216A7.8,7.8,0,0,1,40.591,19.049Z" transform="translate(-26.524 -12.118)"/>
          <g id="Group_16090" data-name="Group 16090" transform="translate(10.605 6.931)">
            <path id="Path_19335" data-name="Path 19335" class="cls-10" d="M36.748,29.954a1.622,1.622,0,0,1-1.082-.216,2.18,2.18,0,0,1-.649-.216l.433-1.515c.216.216.216.216.649.216.216,0,.433.216.866.216v-3.03c-.216-.216-.433-.216-.649-.433l-.649-.649c-.433,0-.433-.216-.649-.649A1.622,1.622,0,0,1,34.8,22.6a4.077,4.077,0,0,1,.433-1.731,4.527,4.527,0,0,1,1.3-.866V18.7h1.3V20a1.3,1.3,0,0,1,.866.216c.216,0,.433.216.649.216l-.433,1.515c-.216,0-.216-.216-.433-.216a.8.8,0,0,1-.649-.216v2.6c.216.216.433.216.649.433l.649.649a1.124,1.124,0,0,1,.433.866,1.622,1.622,0,0,1,.216,1.082,2.13,2.13,0,0,1-.649,1.731,3.488,3.488,0,0,1-1.515.866v1.3h-1.3Zm.649-8.44c-.433,0-.649.216-.649.433a.8.8,0,0,0-.216.649c0,.216,0,.649.216.649l.649.649Zm0,6.925c.216,0,.433-.216.649-.433s.216-.433.216-.866a1.3,1.3,0,0,0-.216-.866l-.649-.649Z" transform="translate(-34.8 -18.7)"/>
            <path id="Path_19336" data-name="Path 19336" class="cls-4" d="M39.661,26.158c-.216-.216-.216-.649-.433-.866l-.649-.649c-.216-.216-.433-.433-.649-.433v-2.6a.8.8,0,0,1,.649.216.756.756,0,0,1,.433.216l.433-1.515c-.216,0-.433-.216-.649-.216s-.433-.216-.866-.216V18.8h-1.3v1.3a1.987,1.987,0,0,0-1.3.866c-.433.433-.433.866-.433,1.731a1.622,1.622,0,0,0,.216,1.082,1.641,1.641,0,0,0,.433.866l.649.649c.216.216.433.216.649.433v3.03a1.3,1.3,0,0,1-.866-.216c-.216,0-.433-.216-.649-.216L34.9,29.837a.8.8,0,0,0,.649.216,9.373,9.373,0,0,0,1.082.216v1.082h1.3v-1.3a3.488,3.488,0,0,0,1.515-.866c.433-.433.433-1.082.649-1.731C39.878,26.807,39.878,26.375,39.661,26.158Zm-.433,2.164c-.216.433-.866.649-1.3.866h-.216v1.3h-.649V29.4h-.216a1.622,1.622,0,0,1-1.082-.216h-.216v-.216a.67.67,0,0,1,.433.216c.216,0,.433.216.866.216h.433V25.293a8.63,8.63,0,0,1-.866-.649l-.649-.649-.649-.649c0-.216-.216-.433-.216-.649a1.653,1.653,0,0,1,.433-1.082,1.309,1.309,0,0,1,1.3-.649h.216V19.882H37.5v1.082h.216a1.3,1.3,0,0,1,.866.216H38.8V21.4h-.216a.8.8,0,0,1-.649-.216H37.5v3.9l.216.216c.216.216.433.216.649.433s.433.433.649.433c.216.216.216.433.433.649,0,.216.216.433.216.649A1.641,1.641,0,0,1,39.228,28.322Z" transform="translate(-34.684 -18.584)"/>
          </g>
        </g>
        <g id="Group_16094" data-name="Group 16094" transform="translate(0 1.736)">
          <path id="Path_19337" data-name="Path 19337" class="cls-11" d="M29.3,26.021a23.936,23.936,0,0,1,1.948-9.306,32.405,32.405,0,0,1,5.627-7.791A26.923,26.923,0,0,1,43.8,3.946L43.151.7,53.539,3.946,45.531,11.3l-.649-3.03a22.451,22.451,0,0,0-5.41,3.246A26,26,0,0,0,33.845,17.8a25.555,25.555,0,0,0-3.03,8.007,40.031,40.031,0,0,0-.433,8.873A36.449,36.449,0,0,1,29.3,26.021Z" transform="translate(-29.3 -0.7)"/>
          <g id="Group_16092" data-name="Group 16092" transform="translate(0.216 0.216)">
            <path id="Path_19338" data-name="Path 19338" class="cls-12" d="M36.349,3.613,35.7.8h0l.649,2.813Z" transform="translate(-22.066 -0.8)"/>
            <path id="Path_19339" data-name="Path 19339" class="cls-12" d="M29.4,28.487c.216,1.3.433,2.813.649,4.112a30.216,30.216,0,0,1,.433-8.873,19.9,19.9,0,0,1,3.03-8.007,26,26,0,0,1,5.627-6.276A27.593,27.593,0,0,1,44.549,6.2l.649,3.03L52.773,2.3l.433.216L45.2,9.875l-.649-3.03a22.451,22.451,0,0,0-5.41,3.246,26,26,0,0,0-5.627,6.276,25.555,25.555,0,0,0-3.03,8.007,40.032,40.032,0,0,0-.433,8.873C29.833,31.733,29.616,30.218,29.4,28.487Z" transform="translate(-29.4 0.946)"/>
          </g>
          <g id="Group_16093" data-name="Group 16093" transform="translate(0.216 0.216)">
            <path id="Path_19340" data-name="Path 19340" class="cls-13" d="M43.684,2.833A22.614,22.614,0,0,0,36.758,7.81,32.405,32.405,0,0,0,31.131,15.6,19.238,19.238,0,0,0,29.4,22.31a18.645,18.645,0,0,1,1.948-7.358,32.406,32.406,0,0,1,5.627-7.791A29.07,29.07,0,0,1,43.684,2.4Z" transform="translate(-29.4 1.063)"/>
            <path id="Path_19341" data-name="Path 19341" class="cls-13" d="M29.7,19.327a48.915,48.915,0,0,1,.216-5.627,30.416,30.416,0,0,0,0,6.276A.8.8,0,0,0,29.7,19.327Z" transform="translate(-29.051 14.218)"/>
            <path id="Path_19342" data-name="Path 19342" class="cls-13" d="M35.916,1.449,35.7.8,46.088,4.046l-.433.433Z" transform="translate(-22.066 -0.8)"/>
          </g>
        </g>
        <g id="Group_16097" data-name="Group 16097" transform="translate(32.896 27.273)">
          <path id="Path_19343" data-name="Path 19343" class="cls-14" d="M44.5,42.033l7.575-7.791.866,3.03a28.236,28.236,0,0,0,5.627-3.03,25.014,25.014,0,0,0,6.06-5.627,24.062,24.062,0,0,0,3.9-7.358A38.161,38.161,0,0,0,70.037,12.6a24.478,24.478,0,0,1-.216,8.873,25.859,25.859,0,0,1-3.03,8.657,30.981,30.981,0,0,1-6.06,6.925A36.522,36.522,0,0,1,54.022,41.6l.866,3.246Z" transform="translate(-44.5 -12.384)"/>
          <g id="Group_16095" data-name="Group 16095" transform="translate(0 0.216)">
            <path id="Path_19344" data-name="Path 19344" class="cls-12" d="M54.888,28.6l.216.649L44.5,26.433,44.933,26Z" transform="translate(-44.5 3)"/>
            <path id="Path_19345" data-name="Path 19345" class="cls-12" d="M48.9,41.167a36.522,36.522,0,0,0,6.709-4.545,36.629,36.629,0,0,0,6.06-6.925A24.3,24.3,0,0,0,64.7,21.04a34.88,34.88,0,0,0,.216-8.224V12.6a24.478,24.478,0,0,1-.216,8.873,25.859,25.859,0,0,1-3.03,8.657,30.981,30.981,0,0,1-6.06,6.925A36.522,36.522,0,0,1,48.9,41.6Z" transform="translate(-39.378 -12.6)"/>
          </g>
          <g id="Group_16096" data-name="Group 16096">
            <path id="Path_19346" data-name="Path 19346" class="cls-13" d="M70.254,13.366a23.543,23.543,0,0,1-1.515,8.657,21.814,21.814,0,0,1-3.9,7.358,29.732,29.732,0,0,1-6.06,5.627,28.236,28.236,0,0,1-5.627,3.03l-1.082-3.03-7.142,7.142-.433-.216,7.575-7.791.866,3.03a28.236,28.236,0,0,0,5.627-3.03,25.014,25.014,0,0,0,6.06-5.627,24.062,24.062,0,0,0,3.9-7.358A38.161,38.161,0,0,0,70.037,12.5a36.681,36.681,0,0,1,.216,4.978A26.083,26.083,0,0,0,70.254,13.366Z" transform="translate(-44.5 -12.5)"/>
          </g>
        </g>
      </g>
      <g id="Group_16125" data-name="Group 16125" transform="translate(11.66 83.873)">
        <g id="Group_16101" data-name="Group 16101" transform="translate(37.683 98.552)">
          <path id="Path_19374" data-name="Path 19374" class="cls-15" d="M114.778,85.455c-1.948-1.3-4.545-.649-7.142.866-5.843-1.948-19.261,11.9-19.261,11.9-4.761-1.082-14.933.216-14.933.216-2.381-1.731-9.306-1.731-16.015-1.515-1.948-.216-3.03-.433-3.03-.433l-.433.649c-1.082,0-2.164.216-3.246.216-1.515-.216-2.6-.433-2.6-.433l-.649.649a55.453,55.453,0,0,0-5.843.649L22.8,118.35s4.545-.433,10.388-.649c9.09,1.082,30.731,3.679,35.709,4.545a17.843,17.843,0,0,0,6.925-.433,16.2,16.2,0,0,0,10.172-2.164s6.925-3.9,14.284-7.791,12.985-11.9,12.985-11.9,12.552-11.47,8.007-14.933C119.539,83.723,117.158,84.156,114.778,85.455Z" transform="translate(-22.8 -84.238)"/>
        </g>
        <g id="Group_16102" data-name="Group 16102" transform="translate(4.878 2.851)">
          <path id="Path_19375" data-name="Path 19375" class="cls-15" d="M22.268,76.122c5.843,1.948,19.261-11.9,19.261-11.9C46.29,65.3,56.462,64,56.462,64c2.381,1.731,9.306,1.948,16.015,1.515,1.948.216,3.03.433,3.03.433l.433-.649c1.082,0,2.164-.216,3.246-.216,1.515.216,2.6.433,2.6.433l.649-.649a55.457,55.457,0,0,0,5.843-.649L107.1,44.092s-4.545.433-10.388.649c-9.09-1.082-30.731-3.679-35.709-4.545a17.842,17.842,0,0,0-6.925.433A16.2,16.2,0,0,0,43.91,42.793s-6.925,3.9-14.284,7.791-12.985,11.9-12.985,11.9S4.089,73.958,8.633,77.42c1.731,1.3,4.112.866,6.493-.433C17.074,78.286,19.671,77.853,22.268,76.122Z" transform="translate(-7.642 -40.017)"/>
        </g>
        <g id="Group_16107" data-name="Group 16107" transform="translate(12.579 16.662)">
          <path id="Path_19376" data-name="Path 19376" class="cls-16" d="M40.3,46.5a28.455,28.455,0,0,0-29,28.351,29.472,29.472,0,0,0,28.784,29.433,28.32,28.32,0,0,0,29-28.351A29.475,29.475,0,0,0,40.3,46.5Z" transform="translate(-11.084 -46.282)"/>
          <g id="Group_16103" data-name="Group 16103" transform="translate(0.214 0.216)">
            <path id="Path_19377" data-name="Path 19377" class="cls-3" d="M68.869,75.718a28.32,28.32,0,0,1-29,28.351A28.959,28.959,0,0,1,11.3,74.852,28.455,28.455,0,0,1,40.3,46.5,29.1,29.1,0,0,1,68.869,75.718Z" transform="translate(-11.299 -46.499)"/>
          </g>
          <path id="Path_19378" data-name="Path 19378" class="cls-4" d="M39.867,87.867A29.111,29.111,0,0,1,11.3,59.3v.649A29.472,29.472,0,0,0,40.084,89.382a28.32,28.32,0,0,0,29-28.351v-.649A28.756,28.756,0,0,1,39.867,87.867Z" transform="translate(-11.084 -31.379)"/>
          <path id="Path_19379" data-name="Path 19379" class="cls-3" d="M40.416,48.133A29.22,29.22,0,0,1,68.984,76.484v-.649A29.472,29.472,0,0,0,40.2,46.4a28.455,28.455,0,0,0-29,28.351v.866A28.756,28.756,0,0,1,40.416,48.133Z" transform="translate(-11.2 -46.399)"/>
          <g id="Group_16104" data-name="Group 16104" transform="translate(6.06 6.059)">
            <path id="Path_19380" data-name="Path 19380" class="cls-17" d="M59.881,72.575A22.45,22.45,0,0,1,36.94,95.083,23.325,23.325,0,0,1,14,71.709,22.585,22.585,0,0,1,36.94,49.2,23.325,23.325,0,0,1,59.881,72.575Z" transform="translate(-14 -49.198)"/>
          </g>
          <path id="Path_19381" data-name="Path 19381" class="cls-4" d="M36.824,82.024A23.3,23.3,0,0,1,14.1,59.3v.649A23.237,23.237,0,0,0,36.824,83.106,22.45,22.45,0,0,0,59.764,60.6v-.649A22.629,22.629,0,0,1,36.824,82.024Z" transform="translate(-7.824 -31.379)"/>
          <g id="Group_16105" data-name="Group 16105" transform="translate(12.552 11.906)">
            <path id="Path_19382" data-name="Path 19382" class="cls-4" d="M33.448,86.311a16.658,16.658,0,0,1-14.5-9.09A18.609,18.609,0,0,1,17,68.781C17,59.258,24.142,51.9,33.448,51.9A17.186,17.186,0,0,1,50.328,69.43,16.539,16.539,0,0,1,33.881,86.311Z" transform="translate(-17 -51.9)"/>
            <path id="Path_19383" data-name="Path 19383" class="cls-6" d="M49.113,68.634A15.484,15.484,0,0,1,33.1,84.216,16.12,16.12,0,0,1,17.3,67.985,15.484,15.484,0,0,1,33.315,52.4,16.412,16.412,0,0,1,49.113,68.634Z" transform="translate(-16.651 -51.321)"/>
          </g>
          <path id="Path_19384" data-name="Path 19384" class="cls-4" d="M48.9,60.533h0c-.433,7.358-7.358,13.418-15.8,13.2S17.733,67.675,17.3,60.1h0A16.257,16.257,0,0,0,33.1,75.466,15.721,15.721,0,0,0,48.9,60.533Z" transform="translate(-4.098 -30.448)"/>
          <path id="Path_19385" data-name="Path 19385" class="cls-3" d="M33.215,53.7a15.989,15.989,0,0,1,15.8,15.582v-.649A16.265,16.265,0,0,0,33.215,52.4,15.616,15.616,0,0,0,17.2,67.985v.649A16.078,16.078,0,0,1,33.215,53.7Z" transform="translate(-4.215 -39.415)"/>
          <g id="Group_16106" data-name="Group 16106" transform="translate(23.59 15.585)">
            <path id="Path_19386" data-name="Path 19386" class="cls-18" d="M26,77.173a7.78,7.78,0,0,1-2.381-.433,10.55,10.55,0,0,1-1.515-.649l1.082-3.03a3.524,3.524,0,0,0,1.3.649c.433.216,1.082.216,1.731.433V67.867A6.576,6.576,0,0,1,24.7,66.785l-1.3-1.3a4.35,4.35,0,0,1-.866-1.731,6.4,6.4,0,0,1-.433-2.164,5.507,5.507,0,0,1,1.082-3.463,4.737,4.737,0,0,1,3.03-1.731V53.8h2.813v2.6a4.077,4.077,0,0,1,1.731.433c.433.216,1.082.216,1.515.649l-1.082,3.03c-.216-.216-.649-.216-1.082-.433a2.745,2.745,0,0,0-1.3-.216v5.627a6.576,6.576,0,0,1,1.515,1.082,7.345,7.345,0,0,1,1.3,1.3,4.35,4.35,0,0,1,.866,1.731,6.75,6.75,0,0,1-.649,6.06,6.157,6.157,0,0,1-3.03,1.948v2.6H26Zm1.3-17.746a1.965,1.965,0,0,0-1.515.649,3.076,3.076,0,0,0-.433,1.3,3.128,3.128,0,0,0,.433,1.515,5.738,5.738,0,0,0,1.3,1.082Zm.216,14.716a1.987,1.987,0,0,0,1.3-.866,3.679,3.679,0,0,0,0-3.463,5.738,5.738,0,0,0-1.3-1.082Z" transform="translate(-22.1 -53.367)"/>
            <path id="Path_19387" data-name="Path 19387" class="cls-4" d="M32.488,69.4c-.216-.649-.649-1.082-.866-1.731l-1.3-1.3c-.433-.433-1.082-.649-1.515-1.082V59.66c.433,0,.866.216,1.3.216.433.216.649.216,1.082.433l1.082-3.03a10.55,10.55,0,0,0-1.515-.649c-.433-.216-1.082-.216-1.731-.433V53.6H26.212v2.6a5.36,5.36,0,0,0-3.03,1.731A5.507,5.507,0,0,0,22.1,61.391a3.243,3.243,0,0,0,.433,2.164,4.35,4.35,0,0,0,.866,1.731l1.3,1.3a9.162,9.162,0,0,0,1.515,1.082v6.276a4.077,4.077,0,0,1-1.731-.433l-1.3-.649L22.1,75.891a10.553,10.553,0,0,0,1.515.649c.649.216,1.515.216,2.381.433v2.6h2.813v-2.6a4.208,4.208,0,0,0,3.03-1.948,6.426,6.426,0,0,0,1.082-3.9A2.91,2.91,0,0,0,32.488,69.4Zm-1.082,4.978a4.231,4.231,0,0,1-2.813,1.731H28.16v2.6h-1.3V76.324h-.649a7.78,7.78,0,0,1-2.381-.433c-.216,0-.433-.216-.649-.216l.216-.649c.216.216.433.216.866.216.433.216,1.082.216,1.731.433h.649V67.018l-1.948-1.3c-.433-.433-.866-.649-1.3-1.082l-.649-1.3a3.209,3.209,0,0,1-.216-1.515,2.956,2.956,0,0,1,.866-2.381A4.014,4.014,0,0,1,26,57.928l.649-.216v-2.6h1.3v2.6h.649c.649,0,1.3.216,1.731.216.216,0,.216,0,.433.216l-.216.433c.216.216,0,.216-.216.216a2.745,2.745,0,0,0-1.3-.216l-.649-.216v8.224l.433.216c.433.216.866.649,1.515,1.082.433.433.866.649,1.082,1.082a4.528,4.528,0,0,1,.866,1.3,2.745,2.745,0,0,1,.216,1.3A4.817,4.817,0,0,1,31.406,74.376Z" transform="translate(-22.1 -53.6)"/>
          </g>
        </g>
        <g id="Group_16109" data-name="Group 16109" transform="translate(0 0)">
          <g id="Group_16108" data-name="Group 16108">
            <path id="Path_19388" data-name="Path 19388" class="cls-19" d="M118.6,65.1a86.016,86.016,0,0,1-10.388,6.276c-7.358,3.246-13.851,10.172-25.537,7.358s-20.343-4.761-27.7-4.978c-3.463,0-14.5.866-13.851-6.493.649-6.709,12.119-4.761,14.933-4.978,2.6-.216,16.881-.649,16.881-.649s-18.612-3.246-24.022-6.709c0,0-13.634,4.978-20.776,5.843,0,0-14.933,20.993-21.642,16.231-4.761-3.463,7.358-15.149,7.358-15.149s5.41-8.224,12.552-12.336S40.474,41.3,40.474,41.3a16.793,16.793,0,0,1,10.6-2.381c6.276.866,41.552,3.9,41.552,3.9s9.09,0,12.552-1.082a50.1,50.1,0,0,0,7.575-3.03Z" transform="translate(-5.388 -38.7)"/>
          </g>
        </g>
        <g id="Group_16111" data-name="Group 16111" transform="translate(96.549)">
          <g id="Group_16110" data-name="Group 16110">
            <path id="Path_19389" data-name="Path 19389" class="cls-20" d="M58.224,38.7l-.216,39.172H50V38.7Z" transform="translate(-50 -38.7)"/>
          </g>
        </g>
        <g id="Group_16113" data-name="Group 16113" transform="translate(104.556)">
          <g id="Group_16112" data-name="Group 16112">
            <path id="Path_19390" data-name="Path 19390" class="cls-21" d="M70.364,38.7V77.872H53.7L53.916,38.7Z" transform="translate(-53.7 -38.7)"/>
          </g>
        </g>
        <g id="Group_16118" data-name="Group 16118" transform="translate(69.064 64.274)">
          <path id="Path_19391" data-name="Path 19391" class="cls-22" d="M66.4,68.5a28.455,28.455,0,0,0-29,28.351,29.472,29.472,0,0,0,28.784,29.433,28.32,28.32,0,0,0,29-28.351A29.331,29.331,0,0,0,66.4,68.5Z" transform="translate(-37.184 -68.282)"/>
          <g id="Group_16114" data-name="Group 16114" transform="translate(0.216 0.216)">
            <path id="Path_19392" data-name="Path 19392" class="cls-3" d="M95.184,97.718a28.32,28.32,0,0,1-29,28.351A29.142,29.142,0,0,1,37.4,96.852,28.455,28.455,0,0,1,66.4,68.5,29.283,29.283,0,0,1,95.184,97.718Z" transform="translate(-37.4 -68.499)"/>
          </g>
          <path id="Path_19393" data-name="Path 19393" class="cls-4" d="M66.067,109.867A29.111,29.111,0,0,1,37.5,81.3v.649a29.472,29.472,0,0,0,28.784,29.433,28.32,28.32,0,0,0,29-28.351v-.649A28.756,28.756,0,0,1,66.067,109.867Z" transform="translate(-37.067 -53.379)"/>
          <path id="Path_19394" data-name="Path 19394" class="cls-3" d="M66.516,70.133A29.22,29.22,0,0,1,95.084,98.484v-.649A29.472,29.472,0,0,0,66.3,68.4a28.455,28.455,0,0,0-29,28.351v.866A29.043,29.043,0,0,1,66.516,70.133Z" transform="translate(-37.3 -68.399)"/>
          <g id="Group_16115" data-name="Group 16115" transform="translate(6.276 6.275)">
            <path id="Path_19395" data-name="Path 19395" class="cls-23" d="M85.864,94.459a22.45,22.45,0,0,1-22.94,22.508A23.237,23.237,0,0,1,40.2,93.809,22.585,22.585,0,0,1,63.14,71.3C75.693,71.518,86.081,81.906,85.864,94.459Z" transform="translate(-40.2 -71.298)"/>
          </g>
          <path id="Path_19396" data-name="Path 19396" class="cls-4" d="M62.924,104.024A23.3,23.3,0,0,1,40.2,81.3v.649a23.237,23.237,0,0,0,22.724,23.157A22.45,22.45,0,0,0,85.864,82.6v-.649A22.492,22.492,0,0,1,62.924,104.024Z" transform="translate(-33.924 -53.379)"/>
          <g id="Group_16116" data-name="Group 16116" transform="translate(12.552 11.906)">
            <path id="Path_19397" data-name="Path 19397" class="cls-4" d="M59.548,108.311a16.658,16.658,0,0,1-14.5-9.09,18.609,18.609,0,0,1-1.948-8.44c0-9.522,7.142-16.881,16.448-16.881A17.186,17.186,0,0,1,76.428,91.43a16.539,16.539,0,0,1-16.448,16.881Z" transform="translate(-43.1 -73.9)"/>
            <path id="Path_19398" data-name="Path 19398" class="cls-6" d="M75.213,90.634A15.484,15.484,0,0,1,59.2,106.216,16.12,16.12,0,0,1,43.4,89.985,15.484,15.484,0,0,1,59.415,74.4,16.262,16.262,0,0,1,75.213,90.634Z" transform="translate(-42.751 -73.321)"/>
          </g>
          <path id="Path_19399" data-name="Path 19399" class="cls-4" d="M75.1,82.533h0c-.433,7.358-7.358,13.418-15.8,13.2S43.933,89.675,43.5,82.1h0A16.257,16.257,0,0,0,59.3,97.466,15.721,15.721,0,0,0,75.1,82.533Z" transform="translate(-30.082 -52.448)"/>
          <path id="Path_19400" data-name="Path 19400" class="cls-3" d="M59.415,75.7a15.989,15.989,0,0,1,15.8,15.582v-.649A16.265,16.265,0,0,0,59.415,74.4,15.616,15.616,0,0,0,43.4,89.985v.649A15.928,15.928,0,0,1,59.415,75.7Z" transform="translate(-30.198 -61.415)"/>
          <g id="Group_16117" data-name="Group 16117" transform="translate(24.888 16.018)">
            <path id="Path_19401" data-name="Path 19401" class="cls-24" d="M52.7,99.373a7.781,7.781,0,0,1-2.381-.433,10.549,10.549,0,0,1-1.515-.649l1.082-3.03a3.524,3.524,0,0,0,1.3.649c.433.216,1.082.216,1.731.433V90.067A6.577,6.577,0,0,1,51.4,88.985l-1.3-1.3a4.35,4.35,0,0,1-.866-1.731,6.4,6.4,0,0,1-.433-2.164,5.507,5.507,0,0,1,1.082-3.463,4.737,4.737,0,0,1,3.03-1.731V76h2.813v2.6a4.077,4.077,0,0,1,1.731.433c.433.216,1.082.216,1.515.649l-1.082,3.03c-.216-.216-.649-.216-1.082-.433a2.745,2.745,0,0,0-1.3-.216v5.627a6.577,6.577,0,0,1,1.515,1.082,7.347,7.347,0,0,1,1.3,1.3,4.35,4.35,0,0,1,.866,1.731,6.75,6.75,0,0,1-.649,6.06,6.157,6.157,0,0,1-3.03,1.948v2.6H52.7Zm1.3-17.746a1.965,1.965,0,0,0-1.515.649,3.076,3.076,0,0,0-.433,1.3,3.128,3.128,0,0,0,.433,1.515,5.738,5.738,0,0,0,1.3,1.082Zm.216,14.5a1.987,1.987,0,0,0,1.3-.866,3.679,3.679,0,0,0,0-3.463,5.738,5.738,0,0,0-1.3-1.082Z" transform="translate(-48.8 -75.567)"/>
            <path id="Path_19402" data-name="Path 19402" class="cls-4" d="M59.188,91.6c-.216-.649-.649-1.082-.866-1.731l-1.3-1.3c-.433-.433-1.082-.649-1.515-1.082V81.86c.433,0,.866.216,1.3.216.433.216.649.216,1.082.433l1.082-3.03a10.556,10.556,0,0,0-1.515-.649c-.433-.216-1.082-.216-1.731-.433V75.8H52.912v2.6a5.36,5.36,0,0,0-3.03,1.731A5.507,5.507,0,0,0,48.8,83.591a3.244,3.244,0,0,0,.433,2.164,4.35,4.35,0,0,0,.866,1.731l1.3,1.3a9.164,9.164,0,0,0,1.515,1.082v6.276a4.077,4.077,0,0,1-1.731-.433l-1.3-.649L48.8,98.091a10.555,10.555,0,0,0,1.515.649c.649.216,1.515.216,2.381.433v2.6h2.813v-2.6a4.208,4.208,0,0,0,3.03-1.948,6.426,6.426,0,0,0,1.082-3.9A5.093,5.093,0,0,0,59.188,91.6ZM58.106,96.36a4.231,4.231,0,0,1-2.813,1.731l-.649.216v2.6h-1.3V98.524H52.7a7.781,7.781,0,0,1-2.381-.433c-.216,0-.433-.216-.649-.216l.216-.649c.216.216.433.216.866.216.433.216,1.082.216,1.731.433h.649V89.218l-1.948-1.3c-.433-.433-.866-.649-1.3-1.082l-.649-1.3a3.209,3.209,0,0,1-.216-1.515,2.956,2.956,0,0,1,.866-2.381,4.014,4.014,0,0,1,2.6-1.515l.649-.216v-2.6h1.3v2.6h.649c.649,0,1.3.216,1.731.216.216,0,.216,0,.433.216l-.216.433c-.216,0-.433-.216-.649-.216a2.745,2.745,0,0,0-1.3-.216l-.649-.216v8.224l.433.216c.433.216.866.649,1.515,1.082.433.433.866.649,1.082,1.082a4.527,4.527,0,0,1,.866,1.3,2.745,2.745,0,0,1,.216,1.3A4.091,4.091,0,0,1,58.106,96.36Z" transform="translate(-48.8 -75.8)"/>
          </g>
        </g>
        <g id="Group_16120" data-name="Group 16120" transform="translate(28.81 98.895)">
          <g id="Group_16119" data-name="Group 16119">
            <path id="Path_19403" data-name="Path 19403" class="cls-25" d="M18.7,98.688a86.014,86.014,0,0,1,10.388-6.276c7.358-3.246,13.851-10.172,25.537-7.358s20.343,4.761,27.7,4.978c3.463,0,14.5-.866,13.851,6.493-.649,6.709-12.119,4.761-14.716,4.978s-16.881.649-16.881.649S83.193,105.4,88.6,108.86c0,0,13.634-4.978,20.776-5.843,0,0,14.933-20.993,21.642-16.231,4.761,3.463-7.358,15.149-7.358,15.149s-5.41,8.224-12.552,12.336-14.067,8.224-14.067,8.224a16.793,16.793,0,0,1-10.6,2.381c-6.276-.866-41.552-3.9-41.552-3.9s-9.09,0-12.552,1.082a50.1,50.1,0,0,0-7.575,3.03Z" transform="translate(-18.7 -84.396)"/>
          </g>
        </g>
        <g id="Group_16122" data-name="Group 16122" transform="translate(37.25 100.418)">
          <g id="Group_16121" data-name="Group 16121">
            <path id="Path_19404" data-name="Path 19404" class="cls-26" d="M22.6,124.272,22.816,85.1H31.04l-.216,39.172Z" transform="translate(-22.6 -85.1)"/>
          </g>
        </g>
        <g id="Group_16124" data-name="Group 16124" transform="translate(20.802 100.418)">
          <g id="Group_16123" data-name="Group 16123">
            <path id="Path_19405" data-name="Path 19405" class="cls-27" d="M15,124.272,15.216,85.1H31.664l-.216,39.172Z" transform="translate(-15 -85.1)"/>
          </g>
        </g>
      </g>
      <g id="Group_16140" data-name="Group 16140" transform="translate(172.376 31.565)">
        <path id="Path_19347" data-name="Path 19347" class="cls-28" d="M122.528,62.532c-.544-2-.907-3.991-1.451-6.349-2.9-13.968-5.624-14.15-7.075-14.875S97.312,32.6,97.312,32.6L90.6,36.228v26.3Z" transform="translate(-58.491 12.026)"/>
        <path id="Path_19348" data-name="Path 19348" class="cls-29" d="M104.828,62.451V36.328L98.116,32.7s-15.238,7.8-16.689,8.707c-1.451.726-4.172,1.088-7.075,14.875-.544,2.358-.907,4.354-1.451,6.349h31.928Z" transform="translate(-72.9 12.107)"/>
        <path id="Path_19349" data-name="Path 19349" class="cls-30" d="M87.263,28.607l6.168-.907,6.168.907s-.363,5.624.726,8.163c0,0-3.265,3.81-6.712,3.628C90.165,40.58,86.9,36.77,86.9,36.77,87.807,34.049,87.263,28.607,87.263,28.607Z" transform="translate(-61.503 8.037)"/>
        <path id="Path_19350" data-name="Path 19350" class="cls-31" d="M84.12,29.573H84.3c-.181-.907-.181-1.814-.363-2.721C83.395,22.5,82.125,9.8,97.363,9.8s13.968,12.7,13.424,17.052c-.181.907-.181,1.814-.363,2.721h.181c2.358-1.633,2.54,2.721,1.633,4.354a9.189,9.189,0,0,0-1.27,2.721c-.363,1.088-.907,1.088-1.451,1.088,0,.544-.181,1.088-.181,1.633-.181,2.358-5.805,7.075-7.075,8.526s-3.265.907-3.81.726H96.637c-.726,0-2.721.544-3.81-.726-1.27-1.451-6.893-6.168-7.075-8.526a6.249,6.249,0,0,0-.181-1.633c-.544.181-1.088,0-1.451-1.088a12.508,12.508,0,0,0-1.27-2.721C81.581,32.294,81.762,27.759,84.12,29.573Z" transform="translate(-65.435 -6.535)"/>
        <path id="Path_19351" data-name="Path 19351" class="cls-32" d="M83.663,20.047c0,.726,1.451,6.893,1.633,8.889.363,3.628,3.084,5.442,3.81,6.168.726.907,3.265,1.633,4.354,2a15.616,15.616,0,0,0,5.805,0c1.088-.363,3.628-1.27,4.354-2,.726-.907,3.447-2.54,3.81-6.168.181-2,1.633-7.982,1.633-8.889,0-.544.181-.363.363.181,0,.363-.181.726-.181,1.088,0,0-.726,8.163-.907,8.163,0,.544-.181,1.088-.181,1.633,0,.181-.181.363-.181.726a13.014,13.014,0,0,0-1.27,2c-1.814,2.177-4.717,4.9-5.624,5.8-1.27,1.451-3.265.907-3.81.726H95.454c-.726,0-2.721.544-3.81-.726-.907-1.088-3.81-3.628-5.624-5.8-.544-.907-1.088-1.633-1.27-2a1.091,1.091,0,0,1-.181-.726,6.249,6.249,0,0,0-.181-1.633c-.181,0-.907-8.163-.907-8.163,0-.363-.181-.726-.181-1.088C83.481,19.685,83.663,19.5,83.663,20.047Z" transform="translate(-64.434 1.54)"/>
        <path id="Path_19352" data-name="Path 19352" class="cls-32" d="M88.626,28a8.036,8.036,0,0,1,3.991-2,8.036,8.036,0,0,1,3.991,2c1.633,1.633,0,4.354,0,4.354l-.363-.544c1.814-3.81-3.628-3.991-3.628-3.991S87.174,28,88.988,31.8l-.363.544S86.993,29.447,88.626,28Z" transform="translate(-60.689 6.653)"/>
        <path id="Path_19353" data-name="Path 19353" class="cls-32" d="M90.641,29.476a1.421,1.421,0,0,1,1.27-.363,2.6,2.6,0,0,1,1.27.363c.544.544,1.633.181,1.633.181l-2.358,1.814-.544-.544-.544.544-2.358-1.814A1.814,1.814,0,0,0,90.641,29.476Z" transform="translate(-59.801 9.164)"/>
        <path id="Path_19354" data-name="Path 19354" class="cls-32" d="M86.112,8s-.544,1.633,12.336,1.633h.907c12.336.544,11.791,12.336,11.791,12.336h0c.181,2.9-.544,5.986-1.088,8.889l-.181-1.451a22.258,22.258,0,0,0-.726-3.265c0-.181,0-.181-.181-.363-.181-.544-.363-.907-.544-1.451C104.979,17.615,97,19.791,97,19.791s-7.982-2.177-11.429,4.535c-.181.544-.363.907-.544,1.451,0,.181,0,.181-.181.363a22.257,22.257,0,0,0-.726,3.265l-.181,1.451a52.02,52.02,0,0,1-.907-5.624h0A27.968,27.968,0,0,1,86.112,8Z" transform="translate(-64.888 -8)"/>
        <path id="Path_19355" data-name="Path 19355" class="cls-33" d="M90.5,36.328l4.717,5.442,4.535-7.8-2.54-1.27A21.5,21.5,0,0,1,90.5,36.328Z" transform="translate(-58.572 12.107)"/>
        <path id="Path_19356" data-name="Path 19356" class="cls-34" d="M94.652,36.328,89.935,41.77,85.4,33.97l2.54-1.27S91.749,35.6,94.652,36.328Z" transform="translate(-62.724 12.107)"/>
        <path id="Path_19357" data-name="Path 19357" class="cls-35" d="M92.71,40.142l1.451-2.9L91.8,34.7l-2.358,2.54,1.633,2.9L88.9,53.566l2.9,4.717,2.9-4.717Z" transform="translate(-59.875 13.735)"/>
      </g>
      <path id="Path_19461" data-name="Path 19461" class="cls-36" d="M111.462,64.151a.666.666,0,0,0-.544.181h-.181C106.745,65.6,90.6,73.765,90.6,73.765V57.8l13.061-23.4h.544c3.81,2,8.889,4.717,10.159,5.442a13.393,13.393,0,0,1,3.447,3.991c1.088,1.633,2.54,3.81,4.717,6.893A162.5,162.5,0,0,1,132.505,67.6s5.442,7.619,0,11.247a92.8,92.8,0,0,1-8.889,4.717c-5.442,2.54-10.884,4.9-11.61,5.079h0l-.544-2.9-.907-5.261-.907-5.8a3.175,3.175,0,0,0,.907-.181q1.088-.272,2.721-.544c2.177-.544,4.535-1.451,4.172-2.177C116.723,70.137,113.276,64.151,111.462,64.151Z" transform="translate(113.885 45.056)"/>
      <path id="Path_19462" data-name="Path 19462" class="cls-37" d="M89.529,64.151a.666.666,0,0,1,.544.181h.181c3.991,1.27,20.136,9.433,20.136,9.433V57.8L97.329,34.4h-.544c-3.81,2-8.889,4.717-10.159,5.442a13.393,13.393,0,0,0-3.447,3.991c-1.088,1.633-2.54,3.81-4.717,6.893A162.493,162.493,0,0,0,68.485,67.6s-5.442,7.619,0,11.247a92.8,92.8,0,0,0,8.889,4.717c5.442,2.54,10.884,4.9,11.61,5.079h0l.544-2.9.907-5.261.907-5.8a3.175,3.175,0,0,1-.907-.181q-1.088-.272-2.721-.544c-2.177-.544-4.535-1.451-4.354-2.177C84.086,70.137,87.715,64.151,89.529,64.151Z" transform="translate(93.914 45.056)"/>
      <path id="Path_19463" data-name="Path 19463" class="cls-38" d="M122.663,65.3a2.013,2.013,0,0,1-2,2H80.4a2.013,2.013,0,0,1-2-2h0a2.013,2.013,0,0,1,2-2h40.272a2.013,2.013,0,0,1,2,2Z" transform="translate(103.954 68.582)"/>
      <path id="Path_19464" data-name="Path 19464" class="cls-39" d="M122.745,74.974a2.013,2.013,0,0,1-2,2H80.3a2.013,2.013,0,0,1-2-2V49.4a2.013,2.013,0,0,1,2-2h40.454a2.013,2.013,0,0,1,2,2V74.974Z" transform="translate(103.872 55.639)"/>
      <g id="Group_16141" data-name="Group 16141" transform="translate(197.773 111.202)">
        <path id="Path_19362" data-name="Path 19362" class="cls-40" d="M93.779,60.312c.907-1.451,1.451-1.814,1.451-3.265v-.181a3.265,3.265,0,0,0-6.531,0v.181c0,1.451.726,1.814,1.633,3.265a1.972,1.972,0,0,1,.181.907h-.363v.907h.363v.181c0,.181,0,.181.181.363-.181,0-.181.181-.181.363s0,.181.181.363a.633.633,0,0,0-.181.363.39.39,0,0,0,.363.363,1.225,1.225,0,0,0,1.088.726,1,1,0,0,0,1.088-.726.39.39,0,0,0,.363-.363c0-.181,0-.181-.181-.363a.633.633,0,0,0,.181-.363c0-.181,0-.181-.181-.363.181,0,.181-.181.181-.363v-.181h.363v-.907h-.363C93.6,61.038,93.6,60.675,93.779,60.312Z" transform="translate(-85.435 -50.516)"/>
        <path id="Path_19363" data-name="Path 19363" class="cls-40" d="M91.126,54.077c0,.181-.181.544-.363.544h0c-.181,0-.363-.181-.363-.544V52.444c0-.181.181-.544.363-.544h0c.181,0,.363.181.363.544Z" transform="translate(-84.051 -51.9)"/>
        <path id="Path_19364" data-name="Path 19364" class="cls-40" d="M90.131,54.066c.181.181.181.544,0,.544h0c-.181.181-.363,0-.544-.181l-.726-1.451c-.181-.181-.181-.544,0-.544h0c.181-.181.363,0,.544.181Z" transform="translate(-85.414 -51.527)"/>
        <path id="Path_19365" data-name="Path 19365" class="cls-40" d="M89.348,54.305c.181.181.363.363.181.544h0a.34.34,0,0,1-.544,0l-1.27-.544c-.181-.181-.363-.363-.181-.544h0a.34.34,0,0,1,.544,0Z" transform="translate(-86.445 -50.496)"/>
        <path id="Path_19366" data-name="Path 19366" class="cls-40" d="M89.077,55.2c.181,0,.544.181.544.363h0c0,.181-.181.363-.544.363H87.444c-.363,0-.544-.181-.544-.363h0c0-.181.181-.363.544-.363Z" transform="translate(-86.9 -49.214)"/>
        <path id="Path_19367" data-name="Path 19367" class="cls-40" d="M88.966,56.561c.181-.181.544-.181.544,0h0c.181.181,0,.363-.181.544l-1.451.726c-.181.181-.544.181-.544,0h0c-.181-.181,0-.363.181-.544Z" transform="translate(-86.608 -48.216)"/>
        <path id="Path_19368" data-name="Path 19368" class="cls-40" d="M89.126,57.481a.666.666,0,0,1,.544-.181h0a.666.666,0,0,1,.181.544l-.726,1.088a.666.666,0,0,1-.544.181h0a.666.666,0,0,1-.181-.544Z" transform="translate(-85.679 -47.504)"/>
        <path id="Path_19369" data-name="Path 19369" class="cls-40" d="M91.661,54.066c-.181.181-.181.544,0,.544h0c.181.181.363,0,.544-.181l.726-1.451c.181-.181.181-.544,0-.544h0c-.181-.181-.363,0-.544.181Z" transform="translate(-83.135 -51.527)"/>
        <path id="Path_19370" data-name="Path 19370" class="cls-40" d="M92.715,54.387c-.181.181-.363.363-.181.544h0a.34.34,0,0,0,.544,0l1.451-.726c.181-.181.363-.363.181-.544h0a.34.34,0,0,0-.544,0Z" transform="translate(-82.375 -50.577)"/>
        <path id="Path_19371" data-name="Path 19371" class="cls-40" d="M93.344,55.2c-.181,0-.544.181-.544.363h0c0,.181.181.363.544.363h1.633c.363,0,.544-.181.544-.363h0c0-.181-.181-.363-.544-.363Z" transform="translate(-82.097 -49.214)"/>
        <path id="Path_19372" data-name="Path 19372" class="cls-40" d="M93.178,56.561c-.181-.181-.544-.181-.544,0h0c-.181.181,0,.363.181.544l1.451.726c.181.181.544.181.544,0h0c.181-.181,0-.363-.181-.544Z" transform="translate(-82.294 -48.216)"/>
        <path id="Path_19373" data-name="Path 19373" class="cls-40" d="M92.626,57.481a.666.666,0,0,0-.544-.181h0a.666.666,0,0,0-.181.544l.726,1.088a.666.666,0,0,0,.544.181h0a.666.666,0,0,0,.181-.544Z" transform="translate(-82.83 -47.504)"/>
      </g>
      <g id="Group_16142" data-name="Group 16142" transform="translate(183.167 203.898)">
        <g id="Group_16134" data-name="Group 16134" transform="translate(39.23 0)">
          <path id="Path_19423" data-name="Path 19423" class="cls-41" d="M15.2,35.074h0V30.917h0V23.123h0V11.431C15.2,4.936,25.073,0,37.283,0S59.367,5.456,59.367,11.691v7.794h0V25.2h0v3.9h0v5.975h0v7.794c0,6.5-9.873,9.873-22.083,9.873S15.2,48.843,15.2,42.608Z" transform="translate(-14.94 0)"/>
          <g id="Group_16128" data-name="Group 16128" transform="translate(0.26)">
            <path id="Path_19424" data-name="Path 19424" class="cls-3" d="M59.367,11.691c0,6.5-9.873,11.431-22.083,11.431S15.2,17.667,15.2,11.431C15.2,4.936,25.073,0,37.283,0,49.754,0,59.626,5.456,59.367,11.691Z" transform="translate(-15.2 0)"/>
          </g>
          <path id="Path_19425" data-name="Path 19425" class="cls-4" d="M37.124,15.731c-11.951,0-21.564-5.2-21.824-11.431v.26c0,6.5,9.873,11.691,22.083,11.691S59.467,11.315,59.467,4.82V4.56C58.947,10.8,49.075,15.731,37.124,15.731Z" transform="translate(-14.78 6.872)"/>
          <path id="Path_19426" data-name="Path 19426" class="cls-3" d="M37.543.62c11.951,0,21.564,5.2,21.824,11.431v-.26C59.367,5.3,49.494.1,37.283.1S15.2,5.036,15.2,11.531v.26C15.72,5.3,25.592.36,37.543.62Z" transform="translate(-14.94 0.16)"/>
          <g id="Group_16129" data-name="Group 16129" transform="translate(4.936 2.338)">
            <path id="Path_19427" data-name="Path 19427" class="cls-42" d="M52.074,10.253c0,5.2-7.794,9.093-17.667,9.093C24.794,19.346,17,15.189,17,9.993S24.794.9,34.667.9C44.279,1.16,52.074,5.317,52.074,10.253Z" transform="translate(-17 -0.9)"/>
          </g>
          <path id="Path_19428" data-name="Path 19428" class="cls-4" d="M34.667,1.42c9.613,0,17.147,4.157,17.407,9.093v-.26C52.074,5.317,44.279.9,34.667.9S17.26,4.8,17,9.993v.26C17.52,5.317,25.054,1.42,34.667,1.42Z" transform="translate(-12.064 1.438)"/>
          <path id="Path_19429" data-name="Path 19429" class="cls-4" d="M34.407,13.393C24.794,13.393,17.26,9.236,17,4.3v.26c0,5.2,7.794,9.353,17.407,9.353s17.407-3.9,17.667-9.093V4.56C51.554,9.5,44.02,13.393,34.407,13.393Z" transform="translate(-12.064 6.872)"/>
          <g id="Group_16130" data-name="Group 16130" transform="translate(9.613 4.676)">
            <path id="Path_19430" data-name="Path 19430" class="cls-4" d="M31.53,15.57c-4.676,0-8.833-1.559-11.172-3.637A4.573,4.573,0,0,1,18.8,8.555c0-3.9,5.456-6.755,12.471-6.755,7.275,0,12.99,3.118,12.99,7.015S38.8,15.57,31.53,15.57Z" transform="translate(-18.8 -1.8)"/>
            <path id="Path_19431" data-name="Path 19431" class="cls-6" d="M43.422,8.5c0,3.637-5.456,6.235-12.211,6.235S19,11.873,19,8.235,24.456,2,31.211,2C38.225,2,43.422,4.858,43.422,8.5Z" transform="translate(-18.48 -1.48)"/>
          </g>
          <path id="Path_19432" data-name="Path 19432" class="cls-4" d="M43.262,4.76h0c-.26,3.118-5.716,5.456-12.211,5.2-6.5,0-11.691-2.6-11.951-5.456h0c.26,3.377,5.456,5.975,11.951,6.235C37.546,10.735,43,8.137,43.262,4.76Z" transform="translate(-8.708 7.191)"/>
          <path id="Path_19433" data-name="Path 19433" class="cls-3" d="M31.471,2.52c6.5,0,11.951,2.858,11.951,6.235V8.5c0-3.637-5.456-6.5-12.211-6.5S19,4.858,19,8.235V8.5C19.52,5.118,24.716,2.52,31.471,2.52Z" transform="translate(-8.868 3.196)"/>
          <g id="Group_16131" data-name="Group 16131" transform="translate(18.186 6.495)">
            <path id="Path_19434" data-name="Path 19434" class="cls-43" d="M25.218,11.853a3.852,3.852,0,0,1-1.819-.26c-.52,0-.779-.26-1.3-.26l.779-1.3c.26,0,.52.26,1.039.26a2.342,2.342,0,0,1,1.3.26v-2.6a1.97,1.97,0,0,1-1.039-.52c-.26-.26-.779-.26-1.039-.52l-.779-.779a.954.954,0,0,1-.26-.779,1.429,1.429,0,0,1,.779-1.3,7.586,7.586,0,0,1,2.338-.52V2.5H27.3V3.539a1.947,1.947,0,0,1,1.3.26c.52-.26,1.039,0,1.3,0l-.779,1.3a.954.954,0,0,1-.779-.26H27.3V7.176a1.97,1.97,0,0,1,1.039.52c.26.26.779.26,1.039.52L30.154,9a.954.954,0,0,1,.26.779,1.571,1.571,0,0,1-.779,1.559c-.52,0-1.3.26-2.338.26v1.039H25.218Zm1.039-7.275c-.52,0-.779,0-1.039.26s-.26.26-.26.52,0,.52.26.52c.26.26.52.26,1.039.52Zm.26,5.975c.52,0,.779-.26,1.039-.26a.954.954,0,0,0,.26-.779c0-.26,0-.52-.52-.779-.26-.26-.52-.26-1.039-.52Z" transform="translate(-22.1 -2.5)"/>
            <path id="Path_19435" data-name="Path 19435" class="cls-4" d="M29.994,8.475,29.215,7.7c-.26-.26-.52-.26-1.039-.52-.26-.26-.779-.26-1.039-.52V4.319h1.039a.954.954,0,0,1,.779.26l.779-.779c-.26,0-.779-.26-1.039-.26a2.825,2.825,0,0,1-1.3-.26V2.5H25.318V3.539a3.176,3.176,0,0,0-2.338.779,1.429,1.429,0,0,0-.779,1.3.954.954,0,0,0,.26.779l.779.779c.26.26.52.26,1.039.52.26.26.779.26,1.039.52v2.6a1.947,1.947,0,0,1-1.3-.26c-.52,0-.779-.26-1.039-.26l-.779,1.3a11.252,11.252,0,0,0,1.3.26,5.072,5.072,0,0,1,1.819.26v1.039H27.4V12.113a3.176,3.176,0,0,0,2.338-.779,1.571,1.571,0,0,0,.779-1.559A1.527,1.527,0,0,0,29.994,8.475Zm-.779,2.078a17.9,17.9,0,0,1-2.078.779h-.52v1.039H25.577V11.333h-.52a3.852,3.852,0,0,1-1.819-.26h-.52l.26-.26c.26,0,.26,0,.52.26a2.342,2.342,0,0,1,1.3.26h.52V7.956a4.389,4.389,0,0,1-1.3-.52c-.26-.26-.779-.26-1.039-.52,0-.52,0-.52-.26-.779,0-.26-.26-.26-.26-.52a1.35,1.35,0,0,1,.52-1.039,4.025,4.025,0,0,1,2.078-.52h.52V3.02h1.039V4.059H28.7l-.26.26h-.52a1.964,1.964,0,0,1-1.039-.26h-.52V7.436h.26a1.97,1.97,0,0,1,1.039.52c.52.26.779.26.779.52.26.26.52.26.52.52s.26.26.26.52A.541.541,0,0,1,29.215,10.554Z" transform="translate(-21.94 -2.5)"/>
          </g>
          <g id="Group_16132" data-name="Group 16132" transform="translate(0.255 35.074)">
            <path id="Path_19436" data-name="Path 19436" class="cls-44" d="M37.027,25.191c-12.211,0-22.083-5.456-21.824-11.691v7.794c0,6.5,9.873,10.132,22.083,10.132S59.37,28.049,59.37,21.554V13.76C59.11,20.255,49.237,25.451,37.027,25.191Z" transform="translate(-15.198 -13.5)"/>
          </g>
          <path id="Path_19437" data-name="Path 19437" class="cls-4" d="M59.267,20.615c0,6.5-9.873,10.132-22.083,10.132S15.1,26.59,15.1,20.355v.779c0,6.5,9.873,10.132,22.083,10.132s22.083-3.377,22.083-9.873V13.6h0Z" transform="translate(-15.1 21.733)"/>
          <path id="Path_19438" data-name="Path 19438" class="cls-45" d="M37.127,22.891c-12.211,0-22.083-5.456-21.824-11.691v5.975c0,6.5,9.873,11.691,21.824,11.691,12.211,0,22.083-4.936,22.083-11.431v1.559h0V11.2C59.21,17.955,49.078,22.891,37.127,22.891Z" transform="translate(-14.783 17.898)"/>
          <path id="Path_19439" data-name="Path 19439" class="cls-46" d="M37.283,20.591C25.073,20.591,15.2,15.135,15.2,8.9v7.794h0V14.875c0,6.5,9.873,11.691,21.824,11.691,12.211,0,22.083-4.936,22.083-11.431v1.819h0V9.16C59.367,15.655,49.494,20.851,37.283,20.591Z" transform="translate(-14.94 14.223)"/>
          <path id="Path_19440" data-name="Path 19440" class="cls-47" d="M37.127,18.391C24.916,18.391,15.043,12.935,15.3,6.7v5.975c0,6.5,9.873,11.691,21.824,11.691,12.211,0,22.083-4.936,22.083-11.431v1.819h0V6.96C59.21,13.455,49.337,18.391,37.127,18.391Z" transform="translate(-14.783 10.707)"/>
          <path id="Path_19441" data-name="Path 19441" class="cls-48" d="M37.283,16.091C25.073,16.091,15.2,10.635,15.2,4.4v5.975c0,6.5,9.873,11.691,21.824,11.691,12.211,0,22.083-4.936,22.083-11.431v1.819h0V4.66C59.367,11.155,49.494,16.351,37.283,16.091Z" transform="translate(-14.94 7.031)"/>
          <path id="Path_19442" data-name="Path 19442" class="cls-4" d="M59.21,16.756c-.26,6.235-10.132,11.431-22.083,11.431-12.211,0-22.083-5.456-21.824-11.691V11.3h0v5.975c0,6.5,9.873,11.691,21.824,11.691,12.211,0,22.083-4.936,22.083-11.431v-.779Z" transform="translate(-14.783 18.058)"/>
          <g id="Group_16133" data-name="Group 16133" transform="translate(0.26 23.123)">
            <path id="Path_19443" data-name="Path 19443" class="cls-4" d="M15.2,8.9h0v7.534h0V14.616h0Z" transform="translate(-15.2 -8.9)"/>
            <path id="Path_19444" data-name="Path 19444" class="cls-4" d="M37.127,22.591c-12.211,0-22.083-5.456-21.824-11.691v.779c0,6.5,9.873,11.691,21.824,11.691,12.211,0,22.083-4.936,22.083-11.431v1.819h0V11.42C58.95,17.655,49.078,22.851,37.127,22.591Z" transform="translate(-15.043 -5.704)"/>
          </g>
          <path id="Path_19445" data-name="Path 19445" class="cls-4" d="M37.283,23.587C25.073,23.587,15.2,18.131,15.2,11.9V6.7h0v5.975c0,6.5,9.873,11.691,21.824,11.691,12.211,0,22.083-4.936,22.083-11.431v1.819h0V12.416C59.367,18.651,49.494,23.587,37.283,23.587Z" transform="translate(-14.94 10.707)"/>
          <path id="Path_19446" data-name="Path 19446" class="cls-4" d="M37.127,21.287C24.916,21.287,15.043,15.831,15.3,9.6V4.4h0v5.975c0,6.5,9.873,11.691,21.824,11.691,12.211,0,22.083-4.936,22.083-11.431v1.819h0V10.116C59.21,16.351,49.337,21.547,37.127,21.287Z" transform="translate(-14.783 7.031)"/>
        </g>
        <path id="Path_19447" data-name="Path 19447" class="cls-49" d="M22.083,8.5C10.132,8.5.26,13.7,0,20.451H0v6.5C0,33.7,9.873,39.417,21.824,39.417c12.211,0,22.083-5.2,22.083-12.211v2.078h0V20.971C44.167,14.216,34.294,8.5,22.083,8.5Z" transform="translate(0 13.583)"/>
        <g id="Group_16135" data-name="Group 16135" transform="translate(0 22.083)">
          <path id="Path_19448" data-name="Path 19448" class="cls-3" d="M44.167,20.971c0,6.755-9.873,12.211-22.083,12.211S0,27.466,0,20.711,9.873,8.5,22.083,8.5,44.167,14.216,44.167,20.971Z" transform="translate(0 -8.5)"/>
        </g>
        <path id="Path_19449" data-name="Path 19449" class="cls-4" d="M21.924,25.211C9.973,25.211.36,19.755.1,13v.26C.1,20.015,9.973,25.73,22.183,25.73s22.083-5.2,22.083-12.211v-.26C43.487,20.275,33.875,25.471,21.924,25.211Z" transform="translate(0.16 20.775)"/>
        <path id="Path_19450" data-name="Path 19450" class="cls-3" d="M22.083,9.141c11.951,0,21.564,5.456,21.824,12.211v-.26c0-6.755-9.873-12.471-22.083-12.471C10.132,8.1,0,13.557,0,20.572v.52C.52,14.337,10.132,8.881,22.083,9.141Z" transform="translate(0 13.722)"/>
        <g id="Group_16136" data-name="Group 16136" transform="translate(4.417 24.681)">
          <path id="Path_19451" data-name="Path 19451" class="cls-50" d="M36.774,19.373c0,5.456-7.794,9.613-17.667,9.613C9.494,28.985,1.7,24.569,1.7,19.113S9.494,9.5,19.367,9.5C28.979,9.5,36.774,13.917,36.774,19.373Z" transform="translate(-1.7 -9.5)"/>
        </g>
        <path id="Path_19452" data-name="Path 19452" class="cls-4" d="M19.207,22.713C9.594,22.713,2.06,18.3,1.8,13.1v.26c0,5.456,7.794,9.873,17.407,9.873s17.407-4.157,17.667-9.613v-.26C36.354,18.556,28.56,22.713,19.207,22.713Z" transform="translate(2.876 20.934)"/>
        <g id="Group_16137" data-name="Group 16137" transform="translate(9.353 27.02)">
          <path id="Path_19453" data-name="Path 19453" class="cls-4" d="M16.33,25.209c-4.676,0-8.833-1.559-11.172-3.9A5.129,5.129,0,0,1,3.6,17.675c0-4.157,5.456-7.275,12.471-7.275,7.275,0,12.99,3.377,12.99,7.534,0,3.9-5.456,7.275-12.73,7.275Z" transform="translate(-3.6 -10.4)"/>
          <path id="Path_19454" data-name="Path 19454" class="cls-6" d="M28.222,17.615c0,3.637-5.456,6.755-12.211,6.755S3.8,21.252,3.8,17.355c0-3.637,5.456-6.755,12.211-6.755C22.766,10.86,28.222,13.718,28.222,17.615Z" transform="translate(-3.28 -10.08)"/>
        </g>
        <path id="Path_19455" data-name="Path 19455" class="cls-4" d="M28.062,13.56h0c-.26,3.118-5.716,5.716-12.211,5.716S4.16,16.677,3.9,13.3h0c.26,3.637,5.456,6.5,11.951,6.5C22.346,20.055,27.542,17.2,28.062,13.56Z" transform="translate(6.232 21.254)"/>
        <path id="Path_19456" data-name="Path 19456" class="cls-3" d="M16.171,11.279c6.5,0,11.951,3.118,11.951,6.5v-.26c0-3.637-5.456-6.755-12.211-7.015C9.156,10.5,3.7,13.358,3.7,17.255v.26C4.22,14.137,9.675,11.279,16.171,11.279Z" transform="translate(5.913 16.779)"/>
        <g id="Group_16138" data-name="Group 16138" transform="translate(17.926 28.838)">
          <path id="Path_19457" data-name="Path 19457" class="cls-51" d="M10.018,21.232a3.852,3.852,0,0,1-1.819-.26c-.52,0-.779-.26-1.3-.26l.779-1.3c.26,0,.52.26,1.039.26s.779.26,1.3.26v-2.6c-.26-.26-.779-.26-1.039-.52s-.779-.26-1.039-.52l-.779-.779c-.26-.26-.26-.52-.26-1.039a2.246,2.246,0,0,1,.779-1.559,12.078,12.078,0,0,1,2.338-.779V11.1H12.1v1.039a1.947,1.947,0,0,1,1.3.26c.52,0,.779.26,1.039.26l-.779,1.3c-.26,0-.52-.26-.779-.26H11.836v2.338a1.97,1.97,0,0,1,1.039.52c.26.26.779.26,1.039.52l.779.779c.26.26.26.52.26,1.039a1.571,1.571,0,0,1-.779,1.559,3.176,3.176,0,0,1-2.338.779v1.039H9.758Zm1.039-7.794c-.52,0-.779.26-1.039.26-.26.26-.26.26-.26.52a.954.954,0,0,0,.26.779c.26.26.52.26,1.039.52Zm0,6.235c.52,0,.779-.26,1.039-.26.26-.26.52-.52.52-.779a.954.954,0,0,0-.26-.779c-.26-.26-.52-.26-1.039-.52Z" transform="translate(-6.9 -11.1)"/>
          <path id="Path_19458" data-name="Path 19458" class="cls-4" d="M14.954,17.6l-.779-.779a1.35,1.35,0,0,0-1.039-.52c-.26,0-.779-.26-1.039-.26V13.7h1.039a.954.954,0,0,1,.779.26l.779-1.3c-.26,0-.779-.26-1.039-.26a2.825,2.825,0,0,1-1.3-.26V11.1H10.277v1.039a3.176,3.176,0,0,0-2.338.779c-.779.52-1.039.779-1.039,1.559a1.562,1.562,0,0,0,.26,1.039c.26.26.52.52.779.52.26.26.52.26,1.039.52.26.26.779.26,1.039.52v2.6a1.947,1.947,0,0,1-1.3-.26c-.52,0-.779-.26-1.039-.26l-.779,1.3a11.252,11.252,0,0,0,1.3.26,5.072,5.072,0,0,1,1.819.26v1.039H12.1V20.973a4.932,4.932,0,0,0,2.338-.779,2.246,2.246,0,0,0,.779-1.559C15.214,18.115,15.214,17.855,14.954,17.6Zm-.779,2.078a17.9,17.9,0,0,1-2.078.779h-.52v1.039H10.537V20.453h-.52a3.852,3.852,0,0,1-1.819-.26h-.52l.26-.26h.52c.52,0,.779.26,1.3.26h.52V16.556a6.668,6.668,0,0,0-1.3-.52c-.26-.26-.779-.26-1.039-.52s-.52-.26-.52-.52c-.26-.26-.26-.26-.26-.52a1.35,1.35,0,0,1,.52-1.039,4.894,4.894,0,0,1,2.078-.52h.52V11.879h1.039v1.039h.52a1.947,1.947,0,0,1,1.3.26h.26l-.26.26h-.52a1.964,1.964,0,0,1-1.039-.26h-.52v3.377h.26a1.97,1.97,0,0,1,1.039.52c.52.26.779.26.779.52.26.26.52.26.52.52s.26.26.26.52C14.694,19.154,14.434,19.414,14.175,19.674Z" transform="translate(-6.9 -11.1)"/>
        </g>
        <path id="Path_19459" data-name="Path 19459" class="cls-52" d="M22.083,25.671C9.873,25.671,0,19.955,0,13.2v6.235C0,26.19,9.873,31.906,21.824,31.906c12.211,0,22.083-5.2,22.083-12.211v2.078h0V13.46C44.167,20.215,34.294,25.671,22.083,25.671Z" transform="translate(0 21.094)"/>
        <path id="Path_19460" data-name="Path 19460" class="cls-4" d="M21.927,31.126C9.716,31.126-.157,25.411.1,18.656V13.2h0v6.235c0,6.755,9.873,12.471,21.824,12.471,12.211,0,22.083-5.2,22.083-12.211v2.078h0v-2.6C43.75,25.93,33.878,31.126,21.927,31.126Z" transform="translate(0.157 21.094)"/>
      </g>
      <g id="Group_16143" data-name="Group 16143" transform="translate(150.35 150.943)">
        <path id="Path_19406" data-name="Path 19406" class="cls-53" d="M48.422,2.319s-3.8-3.8-11.4-.237C31.09,4.694,5.21,32.71,9.246,43.394c0,0,2.374.237,4.986-6.885S18.506,25.35,24.442,18.227,38.925,3.744,42.249,6.356Z" transform="translate(12.229 0.829)"/>
        <path id="Path_19407" data-name="Path 19407" class="cls-54" d="M47.363,1,41.428,5.036C38.1,2.425,29.556,9.785,23.621,16.908s-7.6,11.159-10.209,18.282C11.512,40.413,9.85,41.6,8.9,42.075c0,.237.237.712.237.95,0,0,2.374.237,4.986-6.885S18.4,24.98,24.333,17.857,38.816,3.374,42.14,5.986L48.313,1.95C48.313,1.712,47.838,1.237,47.363,1Z" transform="translate(12.338 1.436)"/>
        <path id="Path_19408" data-name="Path 19408" class="cls-55" d="M42.756,58.707C27.8,83.162,8.091,104.768,2.393,101.206c-5.936-3.561,4.274-30.866,19.232-55.321C36.345,21.43,57.714-3.262,63.65.3S57.476,34.252,42.756,58.707Z" transform="translate(1.038 0)"/>
        <path id="Path_19409" data-name="Path 19409" class="cls-56" d="M14.054,36.424A25.985,25.985,0,0,0,5.032,33.1C.758,44.734-.9,53.756,2.42,55.656c3.087,1.9,10.447-3.561,18.757-12.821A26.49,26.49,0,0,0,14.054,36.424Z" transform="translate(1.011 45.551)"/>
        <path id="Path_19410" data-name="Path 19410" class="cls-54" d="M62.931.237A.829.829,0,0,1,62.457,0c4.749,4.986-6.885,34.19-21.369,57.933S7.611,102.807,1.2,100.67l.475.475c5.936,3.561,25.4-18.045,40.363-42.5C56.758,34.19,68.867,3.8,62.931.237Z" transform="translate(1.756 0.062)"/>
        <path id="Path_19411" data-name="Path 19411" class="cls-57" d="M22.338,46.249C36.821,22.506,57.715-1.474,64.125.663c-.237-.237-.237-.237-.475-.237-5.936-3.8-27.3,20.894-42.262,45.349C6.668,70.229-3.542,97.533,2.394,101.095c.237,0,.237.237.475.237C-2.117,96.821,7.855,70.229,22.338,46.249Z" transform="translate(1.037 0.112)"/>
        <path id="Path_19412" data-name="Path 19412" class="cls-58" d="M32.158,36.09c-1.425,2.137-2.849,3.8-5.223,2.374L9.365,27.78c-2.612-1.425-1.662-3.561-.475-5.7h0c1.425-2.137,2.849-3.8,5.223-2.374l17.57,10.684c2.612,1.425,1.9,3.324.475,5.7Z" transform="translate(10.686 26.416)"/>
        <path id="Path_19413" data-name="Path 19413" class="cls-59" d="M20.032,36.9C11.722,46.16,5.074,51.621,1.987,49.721A3.028,3.028,0,0,1,.8,48.059a3.419,3.419,0,0,0,1.425,2.374c3.087,1.9,10.447-3.561,18.757-12.821C20.744,37.375,20.269,36.9,20.032,36.9Z" transform="translate(1.206 50.773)"/>
        <path id="Path_19414" data-name="Path 19414" class="cls-60" d="M5.982,33.575a24.837,24.837,0,0,1,8.547,3.087c-.237,0-.237-.237-.475-.237A25.985,25.985,0,0,0,5.032,33.1C.758,44.734-.9,53.756,2.42,55.656c.237,0,.237.237.475.237C.283,53.519,1.708,44.734,5.982,33.575Z" transform="translate(1.011 45.551)"/>
        <path id="Path_19415" data-name="Path 19415" class="cls-61" d="M4.718,42.287A8.3,8.3,0,0,0,1.631,41.1c-1.662,4.036-2.137,7.36-.95,8.073s3.561-1.187,6.648-4.511A8.214,8.214,0,0,0,4.718,42.287Z" transform="translate(0.137 56.545)"/>
        <path id="Path_19416" data-name="Path 19416" class="cls-62" d="M2.481,41.575a8.505,8.505,0,0,1,2.612.95c-.237,0-.237-.237-.475-.237A8.3,8.3,0,0,0,1.531,41.1c-1.662,4.036-2.137,7.36-.95,8.073.237,0,.237.237.475.237C.582,47.985,1.294,45.136,2.481,41.575Z" transform="translate(0 56.545)"/>
        <path id="Path_19417" data-name="Path 19417" class="cls-63" d="M6.648,42.3C3.8,45.387,1.425,47.049.237,46.574c0-.237-.237-.475-.237-.712a2.007,2.007,0,0,0,.475,1.425C1.662,48,4.036,46.1,7.123,42.775Z" transform="translate(0.107 58.194)"/>
        <path id="Path_19418" data-name="Path 19418" class="cls-64" d="M35.563,52.652c-13.533,22.081-29.679,42.5-33,40.363s7.123-25.88,20.656-47.961S54.557-.057,57.881,2.08C61.2,3.979,49.1,30.571,35.563,52.652Z" transform="translate(2.77 2.73)"/>
        <path id="Path_19419" data-name="Path 19419" class="cls-64" d="M28.319,47.706C16.923,66.7,4.1,84.745,2.677,83.8S11.462,63.376,23.1,44.382C34.493,25.388,48.738,4.969,50.163,5.918,51.35,6.868,39.716,28.712,28.319,47.706Z" transform="translate(3.603 8.152)"/>
        <path id="Path_19420" data-name="Path 19420" class="cls-58" d="M32.158,36.09c-1.425,2.137-2.849,3.8-5.223,2.374L9.365,27.78c-2.612-1.425-1.662-3.561-.475-5.7h0c1.425-2.137,2.849-3.8,5.223-2.374l17.57,10.684c2.612,1.425,1.9,3.324.475,5.7Z" transform="translate(10.686 26.416)"/>
        <path id="Path_19421" data-name="Path 19421" class="cls-59" d="M21.1,24.212l-.95-.712c2.612,1.425,1.662,3.561.475,5.7C19.2,31.335,17.774,33,15.4,31.573l.95.712c2.612,1.425,4.036,0,5.223-2.374C23,27.774,23.71,25.874,21.1,24.212Z" transform="translate(21.271 32.358)"/>
        <path id="Path_19422" data-name="Path 19422" class="cls-60" d="M14.214,19.789l.95.712c-2.612-1.425-4.036,0-5.223,2.374-1.425,2.137-2.137,4.274.475,5.7l-.95-.712C6.853,26.437,7.8,24.3,8.99,22.163,10.177,19.789,11.6,18.127,14.214,19.789Z" transform="translate(10.823 26.334)"/>
      </g>
    </g>
  </g>
</svg>
