<svg xmlns="http://www.w3.org/2000/svg" width="96.797" height="96.801" viewBox="0 0 96.797 96.801">
  <g id="user_7_" data-name="user (7)" transform="translate(0 0)">
    <path id="Path_33586" data-name="Path 33586" d="M26.2,69.28,11.755,77.157a12.978,12.978,0,0,0-2.318,1.649,48.369,48.369,0,0,0,62.148.161,12.811,12.811,0,0,0-2.546-1.706L53.574,69.53a5.9,5.9,0,0,1-3.26-5.275V58.188a23.356,23.356,0,0,0,1.463-1.881,35.584,35.584,0,0,0,4.807-9.687A4.857,4.857,0,0,0,60.029,42V35.522a4.835,4.835,0,0,0-1.618-3.589V22.57S60.334,8,40.6,8,22.8,22.57,22.8,22.57v9.362a4.828,4.828,0,0,0-1.618,3.589V42a4.856,4.856,0,0,0,2.239,4.075,32.139,32.139,0,0,0,5.856,12.115v5.918A5.9,5.9,0,0,1,26.2,69.28Z" transform="translate(7.799 6.612)" fill="#fff"/>
    <g id="Group_24388" data-name="Group 24388" transform="translate(0 0)">
      <path id="Path_33587" data-name="Path 33587" d="M49.228.007A48.37,48.37,0,0,0,17.256,85.4a12.86,12.86,0,0,1,2.3-1.633l14.442-7.877a5.9,5.9,0,0,0,3.074-5.178V64.8a32.109,32.109,0,0,1-5.856-12.115,4.857,4.857,0,0,1-2.239-4.075V42.132a4.835,4.835,0,0,1,1.618-3.589V29.181S28.668,14.611,48.4,14.611,66.206,29.181,66.206,29.181v9.362a4.828,4.828,0,0,1,1.618,3.589v6.477A4.857,4.857,0,0,1,64.38,53.23a35.583,35.583,0,0,1-4.807,9.687A23.356,23.356,0,0,1,58.11,64.8v6.067a5.9,5.9,0,0,0,3.26,5.275l15.464,7.731a12.877,12.877,0,0,1,2.539,1.7A48.389,48.389,0,0,0,49.228.007Z" transform="translate(0 0)" fill="#8c8c8c"/>
    </g>
  </g>
</svg>
