<svg xmlns="http://www.w3.org/2000/svg" viewBox="0 0 35.889 34.947">
  <defs>
    <style>
      .cls-1 {
        fill: #53b847;
      }

      .cls-2 {
        fill: #fff;
      }
    </style>
  </defs>
  <g id="Group_1" data-name="Group 1" transform="translate(-443.975 -313.064)">
    <path id="Path_1" data-name="Path 1" class="cls-1" d="M35.805,17.382h0l-.011-.092v-.008l-.042-.346-.029-.239-.009-.072-.018,0a13.631,13.631,0,0,0-3.5-6.87,17.858,17.858,0,0,0-6.965-4.584,21.136,21.136,0,0,0-7.3-1.28A20.494,20.494,0,0,0,8.334,6.216C2.819,9.146-.434,14.532.047,19.938a14.16,14.16,0,0,0,3.169,7.7,17.093,17.093,0,0,0,6.718,4.921,25.541,25.541,0,0,0,5,1.345l.2.04c.475.094.6.223.635.274a.594.594,0,0,1,0,.385c-.023.1-.046.19-.069.285a5.674,5.674,0,0,0-.226,2.4,1.67,1.67,0,0,0,1.695,1.556h0a6.279,6.279,0,0,0,2.812-1.084l.1-.057c1.747-1.026,3.393-2.184,4.632-3.077a40.275,40.275,0,0,0,8.087-7.04A13.908,13.908,0,0,0,35.805,17.382ZM11.176,22.855H8.08a.847.847,0,0,1-.847-.847v-6.5a.847.847,0,0,1,1.694,0V21.16h2.249a.847.847,0,0,1,0,1.694Zm3.23-.87a.847.847,0,0,1-1.694,0v-6.5a.847.847,0,1,1,1.694,0Zm7.658,0a.847.847,0,0,1-1.533.5l-3.051-4.2v3.7a.847.847,0,1,1-1.694,0V15.672a.847.847,0,0,1,1.533-.5l3.051,4.2v-3.89a.847.847,0,1,1,1.694,0Zm6.173.714H24.045a.847.847,0,0,1-.847-.847v-6.5a.847.847,0,0,1,.847-.847h4.063a.847.847,0,0,1,0,1.694H24.892v1.555H27.5a.847.847,0,0,1,0,1.694h-2.61V21h3.346a.847.847,0,0,1,0,1.694Z" transform="translate(443.975 309.171)"/>
    <path id="Path_2" data-name="Path 2" class="cls-2" d="M12.21,24.371h-3.1a.847.847,0,0,1-.847-.847v-6.5a.847.847,0,1,1,1.694,0v5.652H12.21a.847.847,0,0,1,0,1.694Zm3.23-.87a.847.847,0,1,1-1.694,0V17a.847.847,0,1,1,1.694,0Zm7.658,0a.847.847,0,0,1-1.533.5l-3.051-4.2v3.7a.847.847,0,0,1-1.694,0V17.188a.847.847,0,0,1,1.533-.5l3.051,4.2V17A.847.847,0,1,1,23.1,17Zm6.173.714H25.078a.847.847,0,0,1-.847-.847v-6.5a.847.847,0,0,1,.847-.847h4.063a.847.847,0,0,1,0,1.694H25.925V19.27h2.61a.847.847,0,1,1,0,1.694h-2.61V22.52h3.346a.847.847,0,0,1,0,1.694Z" transform="translate(442.942 307.655)"/>
  </g>
</svg>
