<svg xmlns="http://www.w3.org/2000/svg" viewBox="0 0 56.36 50">
  <defs>
    <style>
      .cls-1 {
        fill: #53b847;
      }

      .cls-2 {
        fill: #10a200;
      }

      .cls-3 {
        fill: #706f72;
      }

      .cls-4 {
        fill: #b9b9b9;
      }

      .cls-5 {
        fill: #999797;
      }

      .cls-6 {
        fill: #e2e2e3;
      }

      .cls-7 {
        fill: #c4c4c4;
      }
    </style>
  </defs>
  <g id="login" transform="translate(-18.667 -19.445)">
    <path id="Path_1679" data-name="Path 1679" class="cls-1" d="M113.778,247.165a20.649,20.649,0,0,1,41.3,0Z" transform="translate(-95.111 -185.771)"/>
    <path id="Path_1680" data-name="Path 1680" class="cls-2" d="M220.086,226.557V247.2h20.331A20.645,20.645,0,0,0,220.086,226.557Z" transform="translate(-180.452 -185.804)"/>
    <ellipse id="Ellipse_54" data-name="Ellipse 54" class="cls-1" cx="9.302" cy="9.302" rx="9.302" ry="9.302" transform="translate(30.347 19.446)"/>
    <path id="Path_1681" data-name="Path 1681" class="cls-2" d="M220.1,118.519h-.015v18.6h.015a9.3,9.3,0,1,0,0-18.6Z" transform="translate(-180.452 -99.074)"/>
    <path id="Path_1682" data-name="Path 1682" class="cls-3" d="M301.5,201.276h-3.06V185.389a6.413,6.413,0,1,0-12.827,0v15.887h-3.06V185.389a9.473,9.473,0,1,1,18.947,0Z" transform="translate(-230.596 -145.15)"/>
    <path id="Path_1683" data-name="Path 1683" class="cls-4" d="M330.449,175.914h-.033v3.061l.033,0a6.421,6.421,0,0,1,6.413,6.413v15.887h3.06V185.387A9.484,9.484,0,0,0,330.449,175.914Z" transform="translate(-269.022 -145.149)"/>
    <path id="Path_1684" data-name="Path 1684" class="cls-3" d="M286.42,279.769H264.027a2.4,2.4,0,0,1-2.4-2.4V259.505a2.4,2.4,0,0,1,2.4-2.4H286.42a2.4,2.4,0,0,1,2.4,2.4v17.859A2.4,2.4,0,0,1,286.42,279.769Z" transform="translate(-213.797 -210.324)"/>
    <g id="Group_1135" data-name="Group 1135" transform="translate(58.197 46.777)">
      <path id="Path_1685" data-name="Path 1685" class="cls-5" d="M341.645,257.1H330.416V279.77h11.229a2.4,2.4,0,0,0,2.4-2.4V259.507A2.4,2.4,0,0,0,341.645,257.1Z" transform="translate(-327.218 -257.103)"/>
      <path id="Path_1686" data-name="Path 1686" class="cls-6" d="M320.664,291.031a3.23,3.23,0,1,0-4.845,2.795v3.617a1.615,1.615,0,0,0,3.23,0v-3.617A3.227,3.227,0,0,0,320.664,291.031Z" transform="translate(-314.204 -281.746)"/>
    </g>
    <path id="Path_1687" data-name="Path 1687" class="cls-7" d="M330.449,287.8l-.033,0v11.251c.011,0,.022,0,.033,0a1.615,1.615,0,0,0,1.615-1.615v-3.617a3.228,3.228,0,0,0-1.615-6.025Z" transform="translate(-269.022 -234.969)"/>
  </g>
</svg>
