<?xml version="1.0" encoding="utf-8"?>
<!-- Generator: Adobe Illustrator 16.0.0, SVG Export Plug-In . SVG Version: 6.00 Build 0)  -->
<!DOCTYPE svg PUBLIC "-//W3C//DTD SVG 1.1//EN" "http://www.w3.org/Graphics/SVG/1.1/DTD/svg11.dtd">
<svg version="1.1" id="Layer_1" xmlns="http://www.w3.org/2000/svg" xmlns:xlink="http://www.w3.org/1999/xlink" x="0px" y="0px"
	 width="98.693px" height="91.482px" viewBox="0 0 98.693 91.482" enable-background="new 0 0 98.693 91.482" xml:space="preserve">
<g id="_x36_xfQBO_1_">
	<g>
		<path fill-rule="evenodd" clip-rule="evenodd" fill="#808285" d="M78.4,80.912c1.841-4.329,3.62-8.516,5.459-12.84
			c-5.415-2.442-10.329-6.006-16.59-6.057c-2.564-0.02-5.03,0.197-7.465,1.118c-5.025,1.906-10.104,3.677-15.161,5.504
			c-0.334,0.119-0.671,0.23-1.003,0.359c-1.04,0.4-1.819,1.036-1.541,2.272c0.29,1.29,1.295,1.569,2.466,1.492
			c4.562-0.294,9.125-0.589,13.687-0.885c0.151-0.01,0.303-0.042,0.453-0.039c1.086,0.029,1.897,0.436,2.004,1.635
			c0.101,1.171-0.518,1.853-1.65,1.957c-2.021,0.19-4.049,0.325-6.074,0.443c-2.891,0.17-5.784,0.29-8.674,0.457
			c-2.875,0.165-5.105-1.4-5.789-4.104c-0.679-2.687,0.65-5.365,3.312-6.439c1.974-0.798,4.007-1.444,6.011-2.168
			c3.721-1.345,7.43-2.729,11.162-4.037c6.111-2.143,12.131-1.611,17.906,1.087c6.711,3.135,13.313,6.498,19.962,9.767
			c1.988,0.979,2.222,1.615,1.298,3.591c-2.447,5.239-4.904,10.475-7.365,15.707c-0.924,1.965-1.733,2.205-3.563,1.065
			c-3.404-2.122-6.829-4.214-10.192-6.397c-2.248-1.46-4.55-1.758-7.108-0.979c-7.082,2.159-14.197,4.22-21.281,6.382
			c-3.957,1.207-7.715,0.852-11.332-1.114C25.914,82.488,14.497,76.285,3.09,70.062c-2.89-1.577-3.802-4.216-2.529-7.059
			c1.16-2.589,3.832-3.645,6.776-2.667c8.52,2.831,17.039,5.667,25.557,8.505c0.432,0.144,1.032,0.204,1.239,0.514
			c0.411,0.614,0.993,1.543,0.785,2.037c-0.252,0.597-1.208,1.047-1.943,1.238c-0.504,0.132-1.16-0.264-1.736-0.456
			c-8.085-2.695-16.17-5.397-24.255-8.097c-0.384-0.129-0.821-0.417-1.152-0.327c-0.703,0.191-1.707,0.429-1.923,0.933
			c-0.211,0.493,0.201,1.654,0.694,1.975c1.825,1.185,3.796,2.145,5.715,3.185c9.416,5.103,18.864,10.146,28.232,15.334
			c3.109,1.72,6.184,1.991,9.519,0.974c6.357-1.939,12.764-3.71,19.091-5.742C70.978,79.181,74.654,78.644,78.4,80.912z
			 M94.48,73.345c-2.527-1.229-4.879-2.375-7.349-3.577c-1.883,4.439-3.711,8.748-5.561,13.11c2.237,1.414,4.318,2.728,6.491,4.102
			C90.218,82.401,92.307,77.961,94.48,73.345z"/>
		<path fill-rule="evenodd" clip-rule="evenodd" fill="#808285" d="M4.135,29.315C4.225,13.073,17.415-0.054,33.592,0
			c16.255,0.054,29.504,13.42,29.342,29.598c-0.163,16.32-13.394,29.354-29.693,29.253C17.203,58.75,4.045,45.4,4.135,29.315z
			 M59.297,29.614C59.329,15.108,47.906,3.731,33.231,3.655C19.441,3.583,7.827,15.31,7.803,29.33
			C7.779,43.769,19.298,55.159,33.96,55.196C47.702,55.23,59.264,43.557,59.297,29.614z"/>
		<path fill-rule="evenodd" clip-rule="evenodd" fill="#808285" d="M33.672,38.785c0,1.041,0.042,1.998-0.012,2.948
			c-0.048,0.836,0.358,2.111-1.038,2.095c-1.275-0.016-0.916-1.218-0.951-2.021c-0.041-0.954-0.01-1.911-0.01-3.087
			c-1.255,0-2.403,0.036-3.549-0.009c-1.668-0.065-2.21-0.58-2.217-2.216c-0.025-5.481-0.025-10.962,0.003-16.443
			c0.009-1.531,0.6-2.066,2.156-2.106c1.112-0.029,2.226-0.006,3.61-0.006c0-1.021-0.1-1.974,0.041-2.89
			c0.073-0.481,0.566-0.896,0.87-1.34c0.363,0.44,0.945,0.838,1.042,1.332c0.172,0.868,0.048,1.796,0.048,2.929
			c0.961,0,1.754-0.041,2.543,0.008c2.59,0.159,4.454,1.583,4.958,3.746c0.574,2.459-0.288,4.149-2.833,5.563
			c-0.175,0.097-0.34,0.21-0.74,0.459c3.249,1.041,5.472,2.82,4.586,6.44C41.098,38.613,37.366,38.633,33.672,38.785z
			 M33.749,36.202c3.592-0.043,5.207-1.386,4.977-3.987c-0.191-2.167-2.142-3.302-4.977-2.837
			C33.749,31.619,33.749,33.874,33.749,36.202z M33.747,26.671c2.798,0.022,4.121-1.236,4.128-3.443
			c0.006-1.737-2.264-3.245-4.128-2.633C33.747,22.579,33.747,24.58,33.747,26.671z M28.85,29.226c0,2.397,0,4.688,0,6.983
			c0.963,0,1.806,0,2.688,0c0-2.369,0-4.658,0-6.983C30.578,29.226,29.741,29.226,28.85,29.226z M31.554,26.758
			c0-2.175,0-4.225,0-6.301c-0.953,0-1.798,0-2.732,0c0,2.127,0,4.177,0,6.301C29.747,26.758,30.592,26.758,31.554,26.758z"/>
	</g>
</g>
</svg>
