<?xml version="1.0" encoding="utf-8"?>
<!-- Generator: Adobe Illustrator 22.1.0, SVG Export Plug-In . SVG Version: 6.00 Build 0)  -->
<svg version="1.1" id="Layer_1" xmlns="http://www.w3.org/2000/svg" xmlns:xlink="http://www.w3.org/1999/xlink" x="0px" y="0px"
	 viewBox="0 0 25.6 14.5" style="enable-background:new 0 0 25.6 14.5;" xml:space="preserve">
<style type="text/css">
	.st0{fill:#FFFFFF;}
	.st1{fill:#D4D4D4;}
</style>
<g transform="matrix(1, 0, 0, 1, 0, 0)">
	<g id="Path_1-2" transform="translate(29.14 15) rotate(45)">
		<path class="st0" d="M-21.7,1.6l1.7,17.7c0,0,0.1-0.1,0.1-0.1c0,0,0.1-0.1,0.1-0.1c0,0,0.1-0.1,0.1-0.1c0,0,0,0,0.1-0.1
			c0-0.1,0.1-0.1,0.1-0.2c0,0,0,0,0,0c0-0.3,0-0.5,0-0.8c-0.1-1.2,0.3-2.5,1.4-3.6c0.9-0.9,2-1.4,3-1.5c0.2-0.6,0.6-1.2,1.2-1.7
			c0.6-0.6,1.2-1,1.9-1.2c0.2-0.3,0.4-0.6,0.7-0.9c0.4-0.4,0.8-0.7,1.3-0.9C-9.8,8.1-9.8,8-9.7,8C-9.6,7-9.1,6.1-8.3,5.2
			C-7.1,4-5.7,3.7-4.5,3.8c0.1-0.1,0.2-0.3,0.4-0.4c0,0,0.1-0.1,0.1-0.1L-21.7,1.6z"/>
		<path class="st1" d="M-22.2,1l1.8,18.8c0,0,0,0,0.1,0c0,0,0,0,0,0c0.1-0.1,0.1-0.1,0.2-0.2c0.1-0.1,0.1-0.1,0.2-0.2
			c0.1-0.1,0.1-0.1,0.2-0.2c0,0,0.1-0.1,0.1-0.1c0,0,0.1-0.1,0.1-0.1c0,0,0,0,0.1-0.1c0-0.1,0.1-0.1,0.1-0.2c0,0,0,0,0-0.1
			c0,0,0,0,0,0l-0.1,0.1l-1.6-16.7l16.8,1.6c0.1-0.1,0.2-0.2,0.2-0.3C-4,3.4-4,3.3-3.9,3.3C-3.8,3.1-3.7,3-3.6,2.9
			c0.1-0.1,0.1-0.1,0.2-0.2L-22.2,1z"/>
	</g>
</g>
</svg>
