<svg xmlns="http://www.w3.org/2000/svg" width="25.456" height="25.456" viewBox="0 0 25.456 25.456">
  <rect id="Rectangle_1" data-name="Rectangle 1" width="18" height="18" transform="translate(0 12.728) rotate(-45)" fill="rgba(101,204,89,0.7)"/>
</svg>
