<svg xmlns="http://www.w3.org/2000/svg" xmlns:xlink="http://www.w3.org/1999/xlink" viewBox="0 0 94.004 4.004">
  <defs>
    <style>
      .cls-1 {
        fill: url(#linear-gradient);
      }
    </style>
    <linearGradient id="linear-gradient" x1="1.089" y1="0.5" x2="0.039" y2="0.5" gradientUnits="objectBoundingBox">
      <stop offset="0" stop-color="#a8a8a8"/>
      <stop offset="1" stop-color="#a8a8a8"/>
    </linearGradient>
  </defs>
  <path id="Union_1" data-name="Union 1" class="cls-1" d="M90.094,2a2,2,0,1,1,2,2A2,2,0,0,1,90.094,2Zm-11,0a2,2,0,1,1,2,2A2,2,0,0,1,79.094,2Zm-11,0a2,2,0,1,1,2,2A2,2,0,0,1,68.094,2Zm-12,0a2,2,0,1,1,2,2A2,2,0,0,1,56.094,2Zm-11,0a2,2,0,1,1,2,2A2,2,0,0,1,45.095,2Zm-11,0a2,2,0,1,1,2,2A2,2,0,0,1,34.094,2Zm-11,0a2,2,0,1,1,2,2A2,2,0,0,1,23.093,2Zm-12,0a2,2,0,1,1,2,2A2,2,0,0,1,11.093,2Zm-11,0a2,2,0,1,1,2,2A2,2,0,0,1,.095,2Z" transform="translate(-0.094 -0.001)"/>
</svg>
