<svg xmlns="http://www.w3.org/2000/svg" xmlns:xlink="http://www.w3.org/1999/xlink" width="2" height="65" viewBox="0 0 2 65">
  <defs>
    <clipPath id="clip-path">
      <rect width="65" height="2" fill="none"/>
    </clipPath>
  </defs>
  <g id="Repeat_Grid_1" data-name="Repeat Grid 1" transform="translate(2) rotate(90)" clip-path="url(#clip-path)">
    <g transform="translate(22505 3053)">
      <g id="Symbol_3_1329" data-name="Symbol 3 – 1329" transform="translate(7)">
        <rect id="Rectangle_3179" data-name="Rectangle 3179" width="5" height="1" transform="translate(-22512 -3053)" fill="#e5e5e5"/>
      </g>
    </g>
    <g transform="translate(22513 3053)">
      <g id="Symbol_3_1330" data-name="Symbol 3 – 1330" transform="translate(7)">
        <rect id="Rectangle_3179-2" data-name="Rectangle 3179" width="5" height="1" transform="translate(-22512 -3053)" fill="#e5e5e5"/>
      </g>
    </g>
    <g transform="translate(22521 3053)">
      <g id="Symbol_3_1331" data-name="Symbol 3 – 1331" transform="translate(7)">
        <rect id="Rectangle_3179-3" data-name="Rectangle 3179" width="5" height="1" transform="translate(-22512 -3053)" fill="#e5e5e5"/>
      </g>
    </g>
    <g transform="translate(22529 3053)">
      <g id="Symbol_3_1332" data-name="Symbol 3 – 1332" transform="translate(7)">
        <rect id="Rectangle_3179-4" data-name="Rectangle 3179" width="5" height="1" transform="translate(-22512 -3053)" fill="#e5e5e5"/>
      </g>
    </g>
    <g transform="translate(22537 3053)">
      <g id="Symbol_3_1333" data-name="Symbol 3 – 1333" transform="translate(7)">
        <rect id="Rectangle_3179-5" data-name="Rectangle 3179" width="5" height="1" transform="translate(-22512 -3053)" fill="#e5e5e5"/>
      </g>
    </g>
    <g transform="translate(22545 3053)">
      <g id="Symbol_3_1334" data-name="Symbol 3 – 1334" transform="translate(7)">
        <rect id="Rectangle_3179-6" data-name="Rectangle 3179" width="5" height="1" transform="translate(-22512 -3053)" fill="#e5e5e5"/>
      </g>
    </g>
    <g transform="translate(22553 3053)">
      <g id="Symbol_3_1335" data-name="Symbol 3 – 1335" transform="translate(7)">
        <rect id="Rectangle_3179-7" data-name="Rectangle 3179" width="5" height="1" transform="translate(-22512 -3053)" fill="#e5e5e5"/>
      </g>
    </g>
    <g transform="translate(22561 3053)">
      <g id="Symbol_3_1336" data-name="Symbol 3 – 1336" transform="translate(7)">
        <rect id="Rectangle_3179-8" data-name="Rectangle 3179" width="5" height="1" transform="translate(-22512 -3053)" fill="#e5e5e5"/>
      </g>
    </g>
    <g transform="translate(22569 3053)">
      <g id="Symbol_3_1337" data-name="Symbol 3 – 1337" transform="translate(7)">
        <rect id="Rectangle_3179-9" data-name="Rectangle 3179" width="5" height="1" transform="translate(-22512 -3053)" fill="#e5e5e5"/>
      </g>
    </g>
  </g>
</svg>
