<svg xmlns="http://www.w3.org/2000/svg" width="37.761" height="35.108" viewBox="0 0 37.761 35.108">
  <g id="Group_1" data-name="Group 1" transform="translate(-870 -283)">
    <g id="Group_10079" data-name="Group 10079" transform="translate(12064 949.01)">
      <path id="Path_16008" data-name="Path 16008" d="M37.761,313.013a.213.213,0,0,0-.008-.069.225.225,0,0,0-.015-.069c-.008-.023-.008-.046-.015-.062a347.521,347.521,0,0,1-.062-.123.138.138,0,0,0-.039-.054c-.015-.015-.023-.039-.039-.054a.336.336,0,0,0-.054-.046l-.046-.046a.43.43,0,0,0-.062-.039.33.33,0,0,0-.054-.031l-8.494-4.189a.229.229,0,0,0-.077-.031c-.146-.054-3.65-1.278-6.515.008l-6.322,2.287c-.015.008-.039.015-.054.023a2.111,2.111,0,0,0,.77,4.027h.015c.062,0,.339-.015,3.219-.2,1.255-.077,2.549-.162,2.664-.169a.7.7,0,0,0-.015-1.394c-.039,0-.039,0-2.734.169-1.348.085-2.857.185-3.111.2a.716.716,0,0,1-.246-1.355l6.315-2.287a.379.379,0,0,1,.054-.023c2.218-1.009,5.113-.1,5.46.008l3.781,1.864L30,316.263a4.222,4.222,0,0,0-3.427-.454l-8.486,2.549a3.994,3.994,0,0,1-3.057-.316l-13.292-7.2a.615.615,0,0,1-.285-.809.585.585,0,0,1,.732-.377L12.51,313.1a.7.7,0,0,0,.447-1.325l-10.35-3.458a.07.07,0,0,0-.039-.008,2.036,2.036,0,0,0-1.494,3.758l13.3,7.223a5.375,5.375,0,0,0,4.12.424l8.486-2.549a2.789,2.789,0,0,1,2.3.316l4.328,2.726a.228.228,0,0,0,.062.031c.008,0,.008.008.015.008h.008c.008.008.015.008.031.008s.039.015.054.023.023.008.031.008.039.008.054.015a.046.046,0,0,1,.031.008c.031,0,.054.008.085.008h0a.375.375,0,0,0,.092-.008.046.046,0,0,0,.031-.008.182.182,0,0,0,.062-.015c.008,0,.023-.008.031-.008s.039-.015.054-.023.023-.008.031-.015a.431.431,0,0,0,.054-.031.059.059,0,0,1,.031-.015c.015-.008.031-.023.046-.031s.023-.015.031-.023l.039-.039.031-.031a.161.161,0,0,0,.031-.046c.008-.008.015-.023.023-.031a.008.008,0,0,1,.008-.008.027.027,0,0,1,.008-.015.457.457,0,0,0,.031-.062l3.08-6.561c.008-.023.015-.039.023-.062a.53.53,0,0,1,.023-.062.213.213,0,0,0,.008-.069c0-.023.008-.046.008-.069A.213.213,0,0,0,37.761,313.013Zm-1.617.354L33.687,318.6,31.2,317.025l2.133-5.036Z" transform="translate(-11194 -951.215)" fill="#a8a8a8"/>
      <g id="money" transform="translate(-11185 -665.506)">
        <g id="Path_15982" data-name="Path 15982" transform="translate(0 0)" fill="#a8a8a8">
          <path d="M 12.63849544525146 20.99546432495117 C 12.33171558380127 20.99546432495117 12.03600597381592 20.92233467102051 11.8058557510376 20.7895450592041 L 11.57702541351318 20.65879440307617 L 11.41110610961914 20.56338500976562 L -0.03504417091608047 13.95271492004395 C -0.3281841576099396 13.78459453582764 -0.4940841794013977 13.51872444152832 -0.4889141619205475 13.22403430938721 C -0.483674168586731 12.9252347946167 -0.3031541705131531 12.66017436981201 0.006345830392092466 12.49682426452637 C 0.2010658234357834 12.39510440826416 0.4347558319568634 12.34185409545898 0.6840258240699768 12.34185409545898 C 0.6996544003486633 12.34185409545898 0.715272068977356 12.34206390380859 0.7308433055877686 12.34248065948486 L -0.04722417145967484 11.8935546875 C -0.3414541780948639 11.72229480743408 -0.5057541728019714 11.45575428009033 -0.4996441602706909 11.16133403778076 C -0.4934641718864441 10.863694190979 -0.3135441839694977 10.59989452362061 -0.006024169735610485 10.43757438659668 C 0.1886958330869675 10.33585453033447 0.4223958253860474 10.2826042175293 0.6716658473014832 10.2826042175293 C 0.6984086036682129 10.2826042175293 0.7250878214836121 10.28321838378906 0.7516451478004456 10.28443336486816 L -0.03504417091608047 9.830084800720215 C -0.3281841576099396 9.661964416503906 -0.4940941631793976 9.39609432220459 -0.4889141619205475 9.101394653320312 C -0.483674168586731 8.802594184875488 -0.3031541705131531 8.537544250488281 0.0063558304682374 8.374194145202637 C 0.2010558247566223 8.27248477935791 0.4347558319568634 8.219234466552734 0.6840258240699768 8.219234466552734 C 0.6996724605560303 8.219234466552734 0.7152724266052246 8.219444274902344 0.730861485004425 8.219861030578613 L -0.04722417145967484 7.77092456817627 L -0.05045416951179504 7.769064426422119 L -0.05364416912198067 7.767154216766357 C -0.3463341593742371 7.592424392700195 -0.5088141560554504 7.322844505310059 -0.4994341731071472 7.027544498443604 C -0.4900141656398773 6.730964660644531 -0.3084041774272919 6.470314502716064 -0.001174169592559338 6.312424659729004 C 0.1858200877904892 6.21473217010498 0.4153163433074951 6.161603927612305 0.6603252291679382 6.160011768341064 L 0.2616358399391174 5.929934501647949 C -0.2002741694450378 5.66124439239502 -0.4640841782093048 5.260544300079346 -0.4636341631412506 4.829694271087646 C -0.4631941616535187 4.401864528656006 -0.2020741701126099 4.005464553833008 0.2527858316898346 3.742124557495117 L 6.10420560836792 0.3366844654083252 C 6.487555980682373 0.1161844506859779 6.983215808868408 -0.004545545671135187 7.502095699310303 -0.004545545671135187 C 8.020746231079102 -0.004545545671135187 8.514676094055176 0.1166244521737099 8.892886161804199 0.3366244435310364 L 19.81792640686035 6.645394325256348 C 20.27550506591797 6.908584594726562 20.53932571411133 7.305874347686768 20.54098510742188 7.734974384307861 C 20.54265594482422 8.164554595947266 20.28155517578125 8.564364433288574 19.82463645935059 8.831904411315918 L 19.23310470581055 9.175750732421875 C 19.24856567382812 9.175321578979492 19.26405715942383 9.175104141235352 19.27958488464355 9.175104141235352 C 19.55084609985352 9.175104141235352 19.81305503845215 9.241064071655273 20.01791572570801 9.360824584960938 C 20.30319595336914 9.525064468383789 20.4690055847168 9.785384178161621 20.46995544433594 10.07335472106934 C 20.47090530395508 10.36078453063965 20.30763626098633 10.62140464782715 20.02202606201172 10.78836441040039 L 19.24681663513184 11.23898887634277 C 19.2606372833252 11.23864650726318 19.27447128295898 11.23847484588623 19.28834533691406 11.23847484588623 C 19.55878639221191 11.23847484588623 19.82125663757324 11.3038444519043 20.02741622924805 11.42254447937012 C 20.31657600402832 11.59157466888428 20.48077583312988 11.85259437561035 20.48077583312988 12.14032459259033 C 20.48077583312988 12.42659473419189 20.31807518005371 12.68589401245117 20.03438568115234 12.85173416137695 L 19.26704978942871 13.2977819442749 C 19.2712345123291 13.29775047302246 19.2753963470459 13.29773426055908 19.27958488464355 13.29773426055908 C 19.55084609985352 13.29773426055908 19.81305503845215 13.363694190979 20.01791572570801 13.48345470428467 C 20.30319595336914 13.64769458770752 20.46899604797363 13.90800476074219 20.46995544433594 14.19596481323242 C 20.47090530395508 14.4834041595459 20.30764579772949 14.74401473999023 20.02203559875488 14.91099452972412 L 19.25404167175293 15.35742473602295 C 19.26682472229004 15.35713195800781 19.27962684631348 15.35698413848877 19.29245567321777 15.35698413848877 C 19.56290626525879 15.35698413848877 19.82537651062012 15.42235469818115 20.03153610229492 15.54105472564697 L 20.03691673278809 15.54415416717529 L 20.0422248840332 15.54739475250244 C 20.32384490966797 15.71900463104248 20.48386573791504 15.98165416717529 20.48125648498535 16.26800537109375 C 20.47865676879883 16.55240440368652 20.31578636169434 16.80986404418945 20.03438568115234 16.974365234375 L 13.47253608703613 20.78872489929199 C 13.24097537994385 20.92233467102051 12.9452657699585 20.99546432495117 12.63849544525146 20.99546432495117 Z M 12.18931007385254 12.55382442474365 L 12.61911869049072 12.80191040039062 L 13.069260597229 12.5403528213501 C 12.91088199615479 12.56467914581299 12.74689483642578 12.57722473144531 12.58031558990479 12.57722473144531 C 12.44790649414062 12.57722473144531 12.31709384918213 12.56930351257324 12.18931007385254 12.55382442474365 Z M 12.42535591125488 9.640494346618652 C 12.94792556762695 9.640494346618652 13.44803619384766 9.762984275817871 13.83355617523193 9.985404014587402 C 13.84530067443848 9.992254257202148 13.85690021514893 9.999161720275879 13.86833953857422 10.0061149597168 L 16.39890670776367 8.535612106323242 C 16.17966270446777 8.304135322570801 16.05918884277344 8.027565002441406 16.05878639221191 7.737364292144775 C 16.05838584899902 7.45065450668335 16.17525863647461 7.17728328704834 16.38947105407715 6.947493553161621 L 13.88237953186035 5.4997878074646 C 14.00838375091553 5.751796245574951 14.07375526428223 6.019689559936523 14.07393550872803 6.296804428100586 C 14.07417011260986 6.661440372467041 13.96123886108398 7.00985050201416 13.74560546875 7.326694011688232 C 14.07209777832031 7.335543632507324 14.38404083251953 7.417705535888672 14.62962627410889 7.560294628143311 C 14.97170543670654 7.75892448425293 15.16789627075195 8.06374454498291 15.16789627075195 8.396594047546387 C 15.16789627075195 8.727984428405762 14.97320556640625 9.031094551086426 14.63373565673828 9.228204727172852 C 14.3769359588623 9.378934860229492 14.04188537597656 9.462594032287598 13.69231605529785 9.462594032287598 C 13.34356594085693 9.462594032287598 13.0081262588501 9.379354476928711 12.74779605865479 9.228204727172852 C 12.42605209350586 9.041382789611816 12.23336696624756 8.760618209838867 12.211594581604 8.450950622558594 C 11.57412338256836 8.701733589172363 10.82739067077637 8.836584091186523 10.04898548126221 8.836584091186523 C 9.738245010375977 8.836584091186523 9.432273864746094 8.815088272094727 9.136178970336914 8.773313522338867 L 11.1320915222168 9.926292419433594 C 11.49716377258301 9.741421699523926 11.95109844207764 9.640494346618652 12.42535591125488 9.640494346618652 Z M 3.582982301712036 5.565396308898926 L 6.191168785095215 7.072068691253662 C 6.067185401916504 6.821708679199219 6.002974510192871 6.556000232696533 6.002925872802734 6.28141450881958 C 6.002860546112061 5.915696620941162 6.116722106933594 5.566250801086426 6.334058284759521 5.248416900634766 C 6.008590698242188 5.238831520080566 5.698181629180908 5.156786918640137 5.453915596008301 5.014954566955566 C 5.111045837402344 4.817994594573975 4.912816047668457 4.513034343719482 4.912035942077637 4.179434299468994 C 4.911275863647461 3.847814559936523 5.105775833129883 3.544424533843994 5.445675849914551 3.34706449508667 C 5.706006050109863 3.195904493331909 6.041075706481934 3.112654447555542 6.389175891876221 3.112654447555542 C 6.736465930938721 3.112654447555542 7.071915626525879 3.195494413375854 7.333745956420898 3.345904350280762 C 7.65768575668335 3.533990859985352 7.850542545318604 3.815187454223633 7.87200927734375 4.125217437744141 C 8.507847785949707 3.876442432403564 9.251384735107422 3.742794513702393 10.02632617950439 3.742794513702393 C 10.34178447723389 3.742794513702393 10.65225887298584 3.764939546585083 10.95254802703857 3.807974100112915 L 8.86578369140625 2.602984189987183 C 8.487730026245117 2.810888051986694 8.003609657287598 2.924984455108643 7.496625900268555 2.924984455108643 C 6.995341777801514 2.924984455108643 6.516754627227783 2.812941551208496 6.141536712646484 2.608611345291138 L 3.582459926605225 4.094622135162354 C 3.76581072807312 4.313627243041992 3.865288734436035 4.568150997161865 3.864645719528198 4.834054470062256 C 3.864005088806152 5.097596168518066 3.764971256256104 5.349132537841797 3.582982301712036 5.565396308898926 Z" stroke="none"/>
          <path d="M 7.502099990844727 0.4954547882080078 C 7.086977958679199 0.4954357147216797 6.671693801879883 0.5870780944824219 6.355706214904785 0.7688236236572266 L 0.5033054351806641 4.174835205078125 C -0.1227035522460938 4.537263870239258 -0.1185932159423828 5.130324363708496 0.5115451812744141 5.496874809265137 L 11.43794536590576 11.80231475830078 C 11.75301074981689 11.9855842590332 12.16692066192627 12.07721900939941 12.5803165435791 12.07721900939941 C 12.99371147155762 12.07721900939941 13.40659141540527 11.9855842590332 13.71959590911865 11.80231475830078 L 19.57199668884277 8.400424003601074 C 20.1980152130127 8.03387451171875 20.1980152130127 7.440814018249512 19.56788635253906 7.078384399414062 L 8.641475677490234 0.7688236236572266 C 8.327333450317383 0.5860862731933594 7.914795875549316 0.4954738616943359 7.502099990844727 0.4954547882080078 M 13.83491516113281 10.60382461547852 C 13.76490592956543 10.53792476654053 13.68253517150879 10.47615432739258 13.58368587493896 10.41849422454834 C 13.2624454498291 10.23315906524658 12.84338855743408 10.1404914855957 12.42535972595215 10.1404914855957 C 12.00733089447021 10.1404914855957 11.59033107757568 10.23315906524658 11.27320575714111 10.41849422454834 C 11.22378540039062 10.44732475280762 11.18259620666504 10.47615432739258 11.1414155960083 10.50910472869873 L 2.657285690307617 5.608074188232422 C 2.739656448364258 5.575124740600586 2.817905426025391 5.538054466247559 2.88792610168457 5.496874809265137 C 3.526285171508789 5.130324363708496 3.522176742553711 4.529024124145508 2.883806228637695 4.158353805541992 C 2.813785552978516 4.11717414855957 2.739656448364258 4.084224700927734 2.661405563354492 4.051275253295898 L 6.158016204833984 2.020854949951172 C 6.211555480957031 2.066154479980469 6.273335456848145 2.107343673706055 6.343356132507324 2.148525238037109 C 6.661640167236328 2.333339691162109 7.079257965087891 2.424983978271484 7.496628761291504 2.424983978271484 C 7.916349411010742 2.424983978271484 8.335820198059082 2.332313537597656 8.653836250305176 2.148525238037109 C 8.727965354919434 2.107343673706055 8.789746284484863 2.062034606933594 8.84328556060791 2.012615203857422 L 17.35212516784668 6.925994873046875 C 17.2368049621582 6.967184066772461 17.13384628295898 7.012484550476074 17.03499603271484 7.070144653320312 C 16.39662551879883 7.440814018249512 16.4007453918457 8.037994384765625 17.04323577880859 8.408664703369141 C 17.14208602905273 8.466314315795898 17.24915504455566 8.511624336242676 17.36447525024414 8.552803993225098 L 13.83491516113281 10.60382461547852 M 6.38917064666748 3.612653732299805 C 6.138455390930176 3.612653732299805 5.888256072998047 3.668254852294922 5.696745872497559 3.779455184936523 C 5.313725471496582 4.001853942871094 5.317846298217773 4.360164642333984 5.704985618591309 4.582565307617188 C 5.896495819091797 4.693763732910156 6.147723197937012 4.749364852905273 6.398435592651367 4.749364852905273 C 6.649147987365723 4.749364852905273 6.899345397949219 4.693763732910156 7.08879566192627 4.582565307617188 C 7.47182559967041 4.360164642333984 7.467705726623535 4.001853942871094 7.084686279296875 3.779455184936523 C 6.891116142272949 3.668254852294922 6.639885902404785 3.612653732299805 6.38917064666748 3.612653732299805 M 10.02632999420166 4.242782592773438 C 9.121288299560547 4.242782592773438 8.217275619506836 4.442529678344727 7.529485702514648 4.842023849487305 C 6.153895378112793 5.641024589538574 6.162136077880859 6.934234619140625 7.545955657958984 7.737344741821289 C 8.237865447998047 8.136839866638184 9.143938064575195 8.336586952209473 10.04898071289062 8.336586952209473 C 10.95402336120605 8.336586952209473 11.85803604125977 8.136839866638184 12.54582595825195 7.737344741821289 C 13.9255256652832 6.9383544921875 13.91316604614258 5.641024589538574 12.52934646606445 4.842023849487305 C 11.83744049072266 4.442529678344727 10.93137073516846 4.242782592773438 10.02632999420166 4.242782592773438 M 11.43743228912354 6.23189640045166 C 11.41817569732666 6.23189640045166 11.40227603912354 6.228609085083008 11.38852596282959 6.221734046936035 C 11.37204551696777 6.20937442779541 11.35557556152344 6.192904472351074 11.33909606933594 6.168194770812988 C 11.26084613800049 6.04051399230957 11.1414155960083 5.93343448638916 10.98078536987305 5.838714599609375 C 10.96019554138184 5.826354026794434 10.93548583984375 5.813994407653809 10.91077613830566 5.801644325256348 C 10.8572359085083 5.776934623718262 10.80781555175781 5.752224922180176 10.74191570281982 5.735744476318359 C 10.69502449035645 5.724859237670898 10.64931011199951 5.719760894775391 10.60649871826172 5.719760894775391 C 10.4387378692627 5.719760894775391 10.31533718109131 5.798001289367676 10.33830547332764 5.912844657897949 C 10.3506555557251 5.986974716186523 10.391845703125 6.052874565124512 10.44126605987549 6.1187744140625 C 10.52363586425781 6.234084129333496 10.61012554168701 6.349404335021973 10.67189598083496 6.468844413757324 C 10.86547565460205 6.855984687805176 10.44538593292236 7.234884262084961 9.774065971374512 7.271954536437988 C 9.737641334533691 7.273805618286133 9.701458930969238 7.27473258972168 9.665616989135742 7.27473258972168 C 9.462356567382812 7.27473258972168 9.268950462341309 7.244979858398438 9.090395927429199 7.185464859008789 C 9.052717208862305 7.173476219177246 9.018589019775391 7.167183876037598 8.98625659942627 7.167183876037598 C 8.940835952758789 7.167183876037598 8.898945808410645 7.179592132568359 8.855635643005371 7.2060546875 C 8.785625457763672 7.251364707946777 8.707375526428223 7.292544364929199 8.637355804443359 7.333734512329102 C 8.602583885192871 7.353288650512695 8.566662788391113 7.363673210144043 8.530811309814453 7.363673210144043 C 8.498717308044434 7.363673210144043 8.466678619384766 7.355354309082031 8.435555458068848 7.337844848632812 C 8.386125564575195 7.31313419342041 8.340826034545898 7.284304618835449 8.29140567779541 7.259594917297363 C 8.258456230163574 7.239004135131836 8.225505828857422 7.2225341796875 8.19255542755127 7.201934814453125 C 8.122546195983887 7.160754203796387 8.130775451660156 7.119564056396484 8.196676254272461 7.078384399414062 C 8.250215530395508 7.04543399810791 8.303755760192871 7.016604423522949 8.353176116943359 6.983654022216797 C 8.472616195678711 6.913644790649414 8.472616195678711 6.909524917602539 8.373775482177734 6.831274032592773 C 8.250215530395508 6.732424736022949 8.139016151428223 6.629464149475098 8.069005966186523 6.514144897460938 C 8.02370548248291 6.423534393310547 8.036055564880371 6.402944564819336 8.180206298828125 6.353524208068848 C 8.287285804748535 6.320574760437012 8.39024543762207 6.283514022827148 8.493215560913086 6.250564575195312 C 8.540168762207031 6.235737800598145 8.575260162353516 6.228323936462402 8.602935791015625 6.228323936462402 C 8.621384620666504 6.228323936462402 8.636536598205566 6.231616973876953 8.649715423583984 6.238204002380371 C 8.670306205749512 6.250564575195312 8.682665824890137 6.267034530639648 8.699135780334473 6.295864105224609 C 8.769155502319336 6.427654266357422 8.884475708007812 6.542974472045898 9.028615951538086 6.650053977966309 C 9.053325653076172 6.670654296875 9.078045845031738 6.687124252319336 9.106865882873535 6.703594207763672 C 9.185126304626465 6.748904228210449 9.271615982055664 6.781844139099121 9.378695487976074 6.806564331054688 C 9.429722785949707 6.81755542755127 9.479743003845215 6.822712898254395 9.527021408081055 6.822712898254395 C 9.727773666381836 6.822712898254395 9.879770278930664 6.729852676391602 9.856435775756836 6.596514701843262 C 9.84820556640625 6.538854598999023 9.819375991821289 6.489434242248535 9.782305717468262 6.435894012451172 C 9.691696166992188 6.299983978271484 9.576385498046875 6.172314643859863 9.514605522155762 6.032284736633301 C 9.415756225585938 5.801644325256348 9.461066246032715 5.595714569091797 9.778185844421387 5.430974006652832 C 9.987494468688965 5.323944091796875 10.20922374725342 5.275976181030273 10.44167041778564 5.275968551635742 C 10.61171913146973 5.275962829589844 10.78747653961182 5.301624298095703 10.9684362411499 5.348604202270508 C 11.04503345489502 5.370492935180664 11.08771419525146 5.382688522338867 11.12329483032227 5.382688522338867 C 11.16806697845459 5.382688522338867 11.20159816741943 5.363380432128906 11.27732563018799 5.319774627685547 C 11.3226261138916 5.295064926147461 11.36793613433838 5.266234397888184 11.41323566436768 5.241524696350098 C 11.4647159576416 5.21269416809082 11.49972343444824 5.19827938079834 11.53473091125488 5.19827938079834 C 11.56973838806152 5.19827938079834 11.60474586486816 5.21269416809082 11.65622615814209 5.241524696350098 C 11.68917560577393 5.258004188537598 11.7180061340332 5.278594017028809 11.75095558166504 5.295064926147461 C 11.96511554718018 5.418624877929688 11.96511554718018 5.418624877929688 11.75507545471191 5.546294212341309 C 11.60268592834473 5.632784843444824 11.60268592834473 5.632784843444824 11.73035621643066 5.735744476318359 C 11.82920551300049 5.813994407653809 11.90333557128906 5.896374702453613 11.96511554718018 5.986974716186523 C 11.99806594848633 6.036404609680176 11.97746562957764 6.073464393615723 11.89921569824219 6.098174095153809 C 11.77978610992432 6.135244369506836 11.66034603118896 6.176424026489258 11.54090595245361 6.213494300842285 C 11.49771881103516 6.225489616394043 11.4643087387085 6.23189640045166 11.43743228912354 6.23189640045166 M 0.6716670989990234 6.659977912902832 C 0.5113487243652344 6.659977912902832 0.3530921936035156 6.691460609436035 0.2273654937744141 6.757134437561035 C -0.06916427612304688 6.909524917602539 -0.07328414916992188 7.173104286193848 0.2026557922363281 7.337844848632812 L 11.65210628509521 13.94393444061279 L 11.81272602081299 14.03866386413574 L 12.04336547851562 14.17045402526855 C 12.2039852142334 14.26311874389648 12.41506099700928 14.30945205688477 12.62613582611084 14.30945205688477 C 12.8372106552124 14.30945205688477 13.04828643798828 14.26311874389648 13.20890617370605 14.17045402526855 L 19.76968574523926 10.35671424865723 C 20.03739547729492 10.20021438598633 20.03739547729492 9.948984146118164 19.76556587219238 9.792474746704102 C 19.63172149658203 9.714224815368652 19.45565605163574 9.67509937286377 19.27958869934082 9.67509937286377 C 19.10352325439453 9.67509937286377 18.92745590209961 9.714224815368652 18.79360580444336 9.792474746704102 L 12.61995601654053 13.37970447540283 L 1.203454971313477 6.790084838867188 C 1.057722091674805 6.704890251159668 0.8632125854492188 6.659977912902832 0.6716670989990234 6.659977912902832 M 13.68665218353271 7.825894355773926 C 13.43645286560059 7.825894355773926 13.18625640869141 7.881494522094727 12.9947452545166 7.992694854736328 C 12.61172580718994 8.215094566345215 12.61583518981934 8.573404312133789 12.99885559082031 8.795804023742676 C 13.19037055969238 8.906999588012695 13.44160079956055 8.962596893310547 13.69231414794922 8.962596893310547 C 13.94302845001221 8.962596893310547 14.1932258605957 8.906999588012695 14.38267517089844 8.795804023742676 C 14.76570606231689 8.573404312133789 14.7615852355957 8.215094566345215 14.37856578826904 7.992694854736328 C 14.18705081939697 7.881494522094727 13.93685150146484 7.825894355773926 13.68665218353271 7.825894355773926 M 0.6840286254882812 8.719230651855469 C 0.5237102508544922 8.719236373901367 0.3654518127441406 8.750716209411621 0.2397251129150391 8.816394805908203 C -0.05681419372558594 8.972894668579102 -0.06504440307617188 9.236484527587891 0.2150058746337891 9.397104263305664 L 11.66034603118896 16.00731468200684 L 11.82508563995361 16.10203552246094 L 12.05572605133057 16.23382377624512 C 12.21634578704834 16.32649421691895 12.42741775512695 16.37282943725586 12.63849067687988 16.37282943725586 C 12.84956359863281 16.37282943725586 13.06063652038574 16.32649421691895 13.22125625610352 16.23382377624512 L 19.78204536437988 12.42008399963379 C 20.04975509643555 12.26358413696289 20.04563522338867 12.01235485076904 19.77792549133301 11.85585403442383 C 19.64201545715332 11.7775993347168 19.46492004394531 11.73847198486328 19.2883415222168 11.73847198486328 C 19.11176109313965 11.73847198486328 18.93569564819336 11.7775993347168 18.80184555053711 11.85585403442383 L 12.63231563568115 15.43895435333252 L 1.215805053710938 8.849344253540039 C 1.070077896118164 8.764144897460938 0.8755741119384766 8.719223976135254 0.6840286254882812 8.719230651855469 M 0.6716709136962891 10.78260040283203 C 0.5113506317138672 10.78260040283203 0.3530921936035156 10.81408596038818 0.2273654937744141 10.87976455688477 C -0.06916427612304688 11.03627490997314 -0.07328414916992188 11.29985427856445 0.2026557922363281 11.46047401428223 L 11.65210628509521 18.06656455993652 L 11.81272602081299 18.16128540039062 L 12.04336547851562 18.2930850982666 C 12.2039852142334 18.38574981689453 12.41506099700928 18.43208122253418 12.62613582611084 18.43208122253418 C 12.8372106552124 18.43208122253418 13.04828643798828 18.38574981689453 13.20890617370605 18.2930850982666 L 19.76968574523926 14.47934436798096 C 20.03739547729492 14.32283401489258 20.03739547729492 14.07161426544189 19.76556587219238 13.91510391235352 C 19.63172149658203 13.83685493469238 19.45565605163574 13.7977294921875 19.27958869934082 13.7977294921875 C 19.10352325439453 13.7977294921875 18.92745590209961 13.83685493469238 18.79360580444336 13.91510391235352 L 12.61995601654053 17.50644493103027 L 1.203454971313477 10.9127140045166 C 1.057722091674805 10.8275146484375 0.8632164001464844 10.78260040283203 0.6716709136962891 10.78260040283203 M 0.6840267181396484 12.84185791015625 C 0.5237083435058594 12.84186363220215 0.3654518127441406 12.87334060668945 0.2397251129150391 12.93901443481445 C -0.05681419372558594 13.09552383422852 -0.06504440307617188 13.35911464691162 0.2150058746337891 13.51973438262939 L 11.66034603118896 20.12993431091309 L 11.82508563995361 20.22466468811035 L 12.05572605133057 20.35645484924316 C 12.21634578704834 20.44912528991699 12.42741775512695 20.49545860290527 12.63849067687988 20.49545860290527 C 12.84956359863281 20.49545860290527 13.06063652038574 20.44912528991699 13.22125625610352 20.35645484924316 L 19.78204536437988 16.54271507263184 C 20.04975509643555 16.38621520996094 20.04563522338867 16.13498497009277 19.78204536437988 15.9743537902832 C 19.6461353302002 15.89610481262207 19.46903991699219 15.85697937011719 19.29245948791504 15.85697937011719 C 19.11587905883789 15.85697937011719 18.93981170654297 15.89610481262207 18.80595588684082 15.9743537902832 L 12.63231563568115 19.56158447265625 L 1.215805053710938 12.97196388244629 C 1.070077896118164 12.88677024841309 0.8755702972412109 12.84185123443604 0.6840267181396484 12.84185791015625 M 7.501955986022949 -0.5045452117919922 L 7.502145767211914 -0.5045452117919922 C 8.107775688171387 -0.5045146942138672 8.690976142883301 -0.3592662811279297 9.144306182861328 -0.0955657958984375 L 20.06795501708984 6.212404251098633 C 20.68341636657715 6.566394805908203 21.03861618041992 7.120954513549805 21.04098510742188 7.733044624328613 C 21.04288101196289 8.222740173339844 20.81881141662598 8.677407264709473 20.41471099853516 9.024026870727539 C 20.76402473449707 9.28223705291748 20.96859931945801 9.663130760192871 20.96994590759277 10.07170486450195 C 20.97126197814941 10.47044658660889 20.7790470123291 10.84381866455078 20.44705390930176 11.10306167602539 C 20.78441429138184 11.36252880096436 20.98077583312988 11.73861885070801 20.98077583312988 12.14032459259033 C 20.98077583312988 12.54083728790283 20.7855224609375 12.91548252105713 20.45006561279297 13.17359447479248 C 20.77777290344238 13.43096351623535 20.9686450958252 13.79974174499512 20.96994590759277 14.19431495666504 C 20.97126579284668 14.59157752990723 20.78045654296875 14.96368885040283 20.45071792602539 15.22281551361084 C 20.7894401550293 15.48691272735596 20.98492622375488 15.86849498748779 20.98123550415039 16.27258491516113 C 20.9770450592041 16.73053359985352 20.71741485595703 17.15424346923828 20.2867259979248 17.40602493286133 L 13.72380638122559 21.22100448608398 C 13.33016586303711 21.44812393188477 12.91659545898438 21.49545478820801 12.6384859085083 21.49545478820801 C 12.36037635803223 21.49545478820801 11.94681549072266 21.44812393188477 11.55598545074463 21.22262382507324 L 11.32895565032959 21.09291458129883 L 11.16185569763184 20.99683380126953 L -0.2851238250732422 14.38568496704102 C -0.7331447601318359 14.12873458862305 -0.9971847534179688 13.69063377380371 -0.9888439178466797 13.21525382995605 C -0.9819908142089844 12.82505226135254 -0.7920742034912109 12.46502494812012 -0.4689712524414062 12.21119022369385 C -0.8135871887207031 11.94519233703613 -1.008056640625 11.5614185333252 -0.9995346069335938 11.150954246521 C -0.9913616180419922 10.75705337524414 -0.7966098785400391 10.39415740966797 -0.4671421051025391 10.14107036590576 C -0.8036041259765625 9.879018783569336 -0.9959907531738281 9.49946117401123 -0.9888439178466797 9.09261417388916 C -0.9819812774658203 8.702287673950195 -0.7919330596923828 8.342158317565918 -0.4686470031738281 8.088318824768066 C -0.8168525695800781 7.818408966064453 -1.012384414672852 7.427394866943359 -0.9991836547851562 7.011664390563965 C -0.9866485595703125 6.617166519165039 -0.7873439788818359 6.256173133850098 -0.4542579650878906 6.007505416870117 C -0.7836494445800781 5.677257537841797 -0.9640941619873047 5.267342567443848 -0.9636440277099609 4.829195022583008 C -0.9630146026611328 4.218374252319336 -0.6109542846679688 3.664434432983398 0.00226593017578125 3.309413909912109 L 5.852705955505371 -0.09546470642089844 L 5.85490608215332 -0.09674644470214844 L 5.857115745544434 -0.09801483154296875 C 6.312906265258789 -0.3601646423339844 6.897046089172363 -0.5045452117919922 7.501955986022949 -0.5045452117919922 Z M 9.083098411560059 3.305839538574219 L 8.843612670898438 3.167549133300781 C 8.61644458770752 3.262493133544922 8.367907524108887 3.332586288452148 8.107639312744141 3.375461578369141 C 8.135516166687012 3.413690567016602 8.161283493041992 3.452873229980469 8.184955596923828 3.493019104003906 C 8.471999168395996 3.410709381103516 8.772943496704102 3.347932815551758 9.083098411560059 3.305839538574219 Z M 5.603264808654785 5.625102996826172 C 5.460405349731445 5.578227996826172 5.32563591003418 5.518650054931641 5.202845573425293 5.447354316711426 C 4.706292152404785 5.162112236022949 4.417136192321777 4.703868865966797 4.412099838256836 4.191041946411133 L 4.263959884643555 4.277065277099609 C 4.33061408996582 4.454748153686523 4.365104675292969 4.642282485961914 4.364635467529297 4.835254669189453 C 4.364180564880371 5.024374961853027 4.330142021179199 5.208057403564453 4.265213966369629 5.382060050964355 L 5.510322570800781 6.101322174072266 C 5.52365779876709 5.939671516418457 5.554925918579102 5.780475616455078 5.603264808654785 5.625102996826172 Z M 15.68539810180664 7.118298530578613 L 14.56697082519531 6.472469329833984 C 14.55407238006592 6.633750915527344 14.52336406707764 6.792478561401367 14.47566223144531 6.947498321533203 C 14.61910438537598 6.994515419006348 14.75484657287598 7.054830551147461 14.88068580627441 7.127894401550293 C 15.20558166503906 7.316549301147461 15.44049453735352 7.577722549438477 15.56527328491211 7.87891674041748 C 15.5610294342041 7.832337379455566 15.55885124206543 7.785369873046875 15.55878639221191 7.738064765930176 C 15.55848407745361 7.522575378417969 15.60199356079102 7.313940048217773 15.68539810180664 7.118298530578613 Z M 11.95434474945068 9.170003890991211 C 11.93486309051514 9.141792297363281 11.91650009155273 9.113080978393555 11.899245262146 9.083849906921387 C 11.61199760437012 9.166682243347168 11.31052780151367 9.229973793029785 10.99990367889404 9.272490501403809 L 11.16262149810791 9.366487503051758 C 11.40758037567139 9.271772384643555 11.67530632019043 9.20530891418457 11.95434474945068 9.170003890991211 Z" stroke="none" fill="#fff"/>
        </g>
      </g>
    </g>
    <path id="Path_16017" data-name="Path 16017" d="M899.532,315.533l3.466-7.2,4,1.867-2.4,7.2Z" fill="#a8a8a8"/>
  </g>
</svg>
