<svg xmlns="http://www.w3.org/2000/svg" xmlns:xlink="http://www.w3.org/1999/xlink" width="32.367" height="30" viewBox="0 0 32.367 30">
  <defs>
    <clipPath id="clip-path">
      <rect width="32.367" height="30" fill="none"/>
    </clipPath>
  </defs>
  <g id="money_1_" data-name="money (1)" clip-path="url(#clip-path)">
    <g id="money_1_2" data-name="money (1)" transform="translate(0 -17.929)">
      <g id="Group_9908" data-name="Group 9908" transform="translate(0 17.929)">
        <ellipse id="Ellipse_609" data-name="Ellipse 609" cx="9.049" cy="9.05" rx="9.049" ry="9.05" transform="translate(1.951 0.601)" fill="none" stroke="#7a7a7a" stroke-width="1"/>
        <path id="Path_15969" data-name="Path 15969" d="M32.366,312.243a.183.183,0,0,0-.007-.059.193.193,0,0,0-.013-.059c-.007-.02-.007-.04-.013-.053a1021.3,1021.3,0,0,0-.053-.106.118.118,0,0,0-.033-.046c-.013-.013-.02-.033-.033-.046a.289.289,0,0,0-.046-.04l-.04-.04a.369.369,0,0,0-.053-.033.285.285,0,0,0-.046-.026l-7.281-3.591a.2.2,0,0,0-.066-.026,8.442,8.442,0,0,0-5.584.007l-5.419,1.96-.046.02a1.809,1.809,0,0,0,.66,3.452h.013c.053,0,.29-.013,2.759-.172,1.076-.066,2.185-.139,2.284-.145a.6.6,0,0,0-.013-1.195c-.033,0-.033,0-2.343.145-1.155.073-2.449.158-2.667.172a.614.614,0,0,1-.211-1.162l5.413-1.96a.325.325,0,0,1,.046-.02,7.312,7.312,0,0,1,4.68.007l3.241,1.6-1.782,4.2a3.619,3.619,0,0,0-2.937-.389L15.5,316.824a3.424,3.424,0,0,1-2.62-.271L1.489,310.381a.527.527,0,0,1-.244-.693.5.5,0,0,1,.627-.323l8.851,2.951a.6.6,0,1,0,.383-1.135l-8.871-2.964a.06.06,0,0,0-.033-.007,1.745,1.745,0,0,0-1.281,3.221l11.4,6.191a4.607,4.607,0,0,0,3.531.363l7.274-2.185a2.39,2.39,0,0,1,1.974.271l3.71,2.337a.2.2,0,0,0,.053.026c.007,0,.007.007.013.007h.007c.007.007.013.007.026.007l.046.02c.007,0,.02.007.026.007s.033.007.046.013a.04.04,0,0,1,.026.007c.026,0,.046.007.073.007h0a.322.322,0,0,0,.079-.007.04.04,0,0,0,.026-.007.156.156,0,0,0,.053-.013c.007,0,.02-.007.026-.007l.046-.02c.007-.007.02-.007.026-.013a.372.372,0,0,0,.046-.026.05.05,0,0,1,.026-.013c.013-.007.026-.02.04-.026s.02-.013.026-.02l.033-.033.026-.026a.137.137,0,0,0,.026-.04c.007-.007.013-.02.02-.026a.006.006,0,0,1,.007-.007.023.023,0,0,1,.007-.013.393.393,0,0,0,.026-.053l2.64-5.624c.007-.02.013-.033.02-.053a.454.454,0,0,1,.02-.053.183.183,0,0,0,.007-.059c0-.02.007-.04.007-.059A.183.183,0,0,0,32.366,312.243Zm-1.386.3-2.106,4.482-2.132-1.347,1.828-4.317Z" transform="translate(0 -288.5)" fill="#fff"/>
        <path id="Path_15971" data-name="Path 15971" d="M30.108,37.223a9.647,9.647,0,1,0-9.65-9.644A9.655,9.655,0,0,0,30.108,37.223Zm0-18.092a8.449,8.449,0,1,1-8.449,8.449A8.457,8.457,0,0,1,30.108,19.13Z" transform="translate(-19.108 -17.929)" fill="#fff"/>
        <path id="Path_15972" data-name="Path 15972" d="M131.162,4.733l-.341-.1.324-.154a1.493,1.493,0,0,0,.985-1.433,1.573,1.573,0,0,0-.093-.541,1.553,1.553,0,0,0-.271-.467,1.622,1.622,0,0,0-.41-.35,1.755,1.755,0,0,0-.62-.225,5.287,5.287,0,0,0-.858-.061h-.258V.336a.336.336,0,0,0-.671,0V1.4h-1.163a.792.792,0,0,0-.568.165.808.808,0,0,0-.165.577V7.478a.825.825,0,0,0,.162.575.776.776,0,0,0,.57.168h1.163V9.59a.336.336,0,0,0,.671,0V8.22h.127a7.471,7.471,0,0,0,.965-.055,2.79,2.79,0,0,0,.71-.182,1.7,1.7,0,0,0,.76-.651,1.821,1.821,0,0,0,.283-1A1.6,1.6,0,0,0,131.162,4.733Zm-.626-2.344A.837.837,0,0,1,131,3.23a1.014,1.014,0,0,1-.141.527.927.927,0,0,1-.522.448,2.459,2.459,0,0,1-.718.107v-2.1A2.536,2.536,0,0,1,130.536,2.389ZM128,2.2h.944V4.314H128Zm0,5.219V5.067h.944V7.419Zm1.684,0h-.069V5.067h.021a2.223,2.223,0,0,1,1.2.264.991.991,0,0,1,.442.9C131.286,6.771,131.009,7.419,129.688,7.419Z" transform="translate(-118.575 4.476)" fill="#fff"/>
      </g>
    </g>
  </g>
</svg>
