<svg xmlns="http://www.w3.org/2000/svg" xmlns:xlink="http://www.w3.org/1999/xlink" width="27.153" height="30.2" viewBox="0 0 27.153 30.2">
  <defs>
    <clipPath id="clip-path">
      <rect width="27.153" height="30.2" fill="none"/>
    </clipPath>
  </defs>
  <g id="budget" clip-path="url(#clip-path)">
    <g id="budget-2" data-name="budget" transform="translate(-25.9 0.1)">
      <g id="Group_11688" data-name="Group 11688" transform="translate(40.063 14.238)">
        <g id="Group_11687" data-name="Group 11687">
          <path id="Path_16128" data-name="Path 16128" d="M266.586,243a.586.586,0,1,0,.586.586A.586.586,0,0,0,266.586,243Z" transform="translate(-266 -243)" fill="#7a7a7a" stroke="#fff" stroke-width="0.2"/>
        </g>
      </g>
      <g id="Group_11690" data-name="Group 11690" transform="translate(28.306 2.344)">
        <g id="Group_11689" data-name="Group 11689">
          <path id="Path_16129" data-name="Path 16129" d="M67.155,43.516a.586.586,0,0,1,0-1.172.941.941,0,0,1,.634.306.586.586,0,1,0,.815-.842,2.264,2.264,0,0,0-.863-.539v-.683a.586.586,0,0,0-1.172,0v.687a1.758,1.758,0,0,0,.586,3.415.586.586,0,0,1,0,1.172,1.061,1.061,0,0,1-.761-.443.586.586,0,1,0-.9.754,2.429,2.429,0,0,0,1.072.763v.684a.586.586,0,1,0,1.172,0V46.93a1.758,1.758,0,0,0-.586-3.415Z" transform="translate(-65.36 -40)" fill="#7a7a7a" stroke="#fff" stroke-width="0.2"/>
        </g>
      </g>
      <g id="Group_11692" data-name="Group 11692" transform="translate(37.719 19.277)">
        <g id="Group_11691" data-name="Group 11691">
          <path id="Path_16130" data-name="Path 16130" d="M228.93,329h-2.344a.586.586,0,0,0-.586.586v2.344a.586.586,0,0,0,.586.586h2.344a.586.586,0,0,0,.586-.586v-2.344A.586.586,0,0,0,228.93,329Zm-.586,2.344h-1.172v-1.172h1.172Z" transform="translate(-226 -329)" fill="#7a7a7a" stroke="#fff" stroke-width="0.2"/>
        </g>
      </g>
      <g id="Group_11694" data-name="Group 11694" transform="translate(42.406 19.277)">
        <g id="Group_11693" data-name="Group 11693">
          <path id="Path_16131" data-name="Path 16131" d="M308.93,329h-2.344a.586.586,0,0,0-.586.586v2.344a.586.586,0,0,0,.586.586h2.344a.586.586,0,0,0,.586-.586v-2.344A.586.586,0,0,0,308.93,329Zm-.586,2.344h-1.172v-1.172h1.172Z" transform="translate(-306 -329)" fill="#7a7a7a" stroke="#fff" stroke-width="0.2"/>
        </g>
      </g>
      <g id="Group_11696" data-name="Group 11696" transform="translate(37.719 23.965)">
        <g id="Group_11695" data-name="Group 11695">
          <path id="Path_16132" data-name="Path 16132" d="M228.93,409h-2.344a.586.586,0,0,0-.586.586v2.344a.586.586,0,0,0,.586.586h2.344a.586.586,0,0,0,.586-.586v-2.344A.586.586,0,0,0,228.93,409Zm-.586,2.344h-1.172v-1.172h1.172Z" transform="translate(-226 -409)" fill="#7a7a7a" stroke="#fff" stroke-width="0.2"/>
        </g>
      </g>
      <g id="Group_11698" data-name="Group 11698" transform="translate(42.406 23.965)">
        <g id="Group_11697" data-name="Group 11697">
          <path id="Path_16133" data-name="Path 16133" d="M308.93,409h-2.344a.586.586,0,0,0-.586.586v2.344a.586.586,0,0,0,.586.586h2.344a.586.586,0,0,0,.586-.586v-2.344A.586.586,0,0,0,308.93,409Zm-.586,2.344h-1.172v-1.172h1.172Z" transform="translate(-306 -409)" fill="#7a7a7a" stroke="#fff" stroke-width="0.2"/>
        </g>
      </g>
      <g id="Group_11700" data-name="Group 11700" transform="translate(47.094 19.277)">
        <g id="Group_11699" data-name="Group 11699">
          <path id="Path_16134" data-name="Path 16134" d="M388.93,329h-2.344a.586.586,0,0,0-.586.586v7.031a.586.586,0,0,0,.586.586h2.344a.586.586,0,0,0,.586-.586v-7.031A.586.586,0,0,0,388.93,329Zm-.586,7.031h-1.172v-5.859h1.172Z" transform="translate(-386 -329)" fill="#7a7a7a" stroke="#fff" stroke-width="0.2"/>
        </g>
      </g>
      <g id="Group_11702" data-name="Group 11702" transform="translate(37.719 11.895)">
        <g id="Group_11701" data-name="Group 11701">
          <path id="Path_16135" data-name="Path 16135" d="M238.3,203H226.586a.586.586,0,0,0-.586.586v5.039a.586.586,0,0,0,.586.586H238.3a.586.586,0,0,0,.586-.586v-5.039A.586.586,0,0,0,238.3,203Zm-.586,5.039H227.172v-3.867h10.547Z" transform="translate(-226 -203)" fill="#7a7a7a" stroke="#fff" stroke-width="0.2"/>
        </g>
      </g>
      <g id="Group_11704" data-name="Group 11704" transform="translate(26)">
        <g id="Group_11703" data-name="Group 11703">
          <path id="Path_16136" data-name="Path 16136" d="M51.2,9.375H45.922V5.835a1.748,1.748,0,0,0-.494-1.222L41.489.536a1.762,1.762,0,0,0-.6-.405l-.024-.01h0A1.744,1.744,0,0,0,40.224,0H27.758A1.76,1.76,0,0,0,26,1.758V24.551a1.76,1.76,0,0,0,1.758,1.758h7.617v1.934A1.76,1.76,0,0,0,37.133,30H51.2a1.76,1.76,0,0,0,1.758-1.758V11.133A1.76,1.76,0,0,0,51.2,9.375ZM41.234,1.959l3.351,3.469a.582.582,0,0,1,.164.407v.024H41.82a.587.587,0,0,1-.586-.586Zm-5.859,9.173v14H27.758a.587.587,0,0,1-.586-.586V1.758a.587.587,0,0,1,.586-.586h12.3v4.1A1.76,1.76,0,0,0,41.82,7.031h2.93V9.375H37.133A1.76,1.76,0,0,0,35.375,11.133ZM51.781,28.242a.587.587,0,0,1-.586.586H37.133a.587.587,0,0,1-.586-.586V11.133a.587.587,0,0,1,.586-.586H51.2a.587.587,0,0,1,.586.586Z" transform="translate(-26 0)" fill="#7a7a7a" stroke="#fff" stroke-width="0.2"/>
        </g>
      </g>
      <g id="Group_11706" data-name="Group 11706" transform="translate(42.406 14.238)">
        <g id="Group_11705" data-name="Group 11705">
          <path id="Path_16137" data-name="Path 16137" d="M311.273,243h-4.687a.586.586,0,0,0,0,1.172h4.688a.586.586,0,0,0,0-1.172Z" transform="translate(-306 -243)" fill="#7a7a7a" stroke="#fff" stroke-width="0.2"/>
        </g>
      </g>
      <g id="Group_11708" data-name="Group 11708" transform="translate(33.031 7.031)">
        <g id="Group_11707" data-name="Group 11707">
          <path id="Path_16138" data-name="Path 16138" d="M151.273,120h-4.687a.586.586,0,0,0,0,1.172h4.688a.586.586,0,0,0,0-1.172Z" transform="translate(-146 -120)" fill="#7a7a7a" stroke="#fff" stroke-width="0.2"/>
        </g>
      </g>
      <g id="Group_11710" data-name="Group 11710" transform="translate(33.031 4.688)">
        <g id="Group_11709" data-name="Group 11709">
          <path id="Path_16139" data-name="Path 16139" d="M151.273,80h-4.687a.586.586,0,0,0,0,1.172h4.688a.586.586,0,0,0,0-1.172Z" transform="translate(-146 -80)" fill="#7a7a7a" stroke="#fff" stroke-width="0.2"/>
        </g>
      </g>
      <g id="Group_11712" data-name="Group 11712" transform="translate(28.344 11.895)">
        <g id="Group_11711" data-name="Group 11711">
          <path id="Path_16140" data-name="Path 16140" d="M71.273,203H66.586a.586.586,0,0,0,0,1.172h4.688a.586.586,0,1,0,0-1.172Z" transform="translate(-66 -203)" fill="#7a7a7a" stroke="#fff" stroke-width="0.2"/>
        </g>
      </g>
      <g id="Group_11714" data-name="Group 11714" transform="translate(28.344 14.238)">
        <g id="Group_11713" data-name="Group 11713">
          <path id="Path_16141" data-name="Path 16141" d="M67.758,243H66.586a.586.586,0,0,0,0,1.172h1.172a.586.586,0,0,0,0-1.172Z" transform="translate(-66 -243)" fill="#7a7a7a" stroke="#fff" stroke-width="0.2"/>
        </g>
      </g>
      <g id="Group_11716" data-name="Group 11716" transform="translate(31.859 14.238)">
        <g id="Group_11715" data-name="Group 11715">
          <path id="Path_16142" data-name="Path 16142" d="M127.758,243h-1.172a.586.586,0,0,0,0,1.172h1.172a.586.586,0,0,0,0-1.172Z" transform="translate(-126 -243)" fill="#7a7a7a" stroke="#fff" stroke-width="0.2"/>
        </g>
      </g>
      <g id="Group_11718" data-name="Group 11718" transform="translate(28.344 16.934)">
        <g id="Group_11717" data-name="Group 11717">
          <path id="Path_16143" data-name="Path 16143" d="M67.758,289H66.586a.586.586,0,0,0,0,1.172h1.172a.586.586,0,0,0,0-1.172Z" transform="translate(-66 -289)" fill="#7a7a7a" stroke="#fff" stroke-width="0.2"/>
        </g>
      </g>
      <g id="Group_11720" data-name="Group 11720" transform="translate(31.859 16.934)">
        <g id="Group_11719" data-name="Group 11719">
          <path id="Path_16144" data-name="Path 16144" d="M127.758,289h-1.172a.586.586,0,0,0,0,1.172h1.172a.586.586,0,0,0,0-1.172Z" transform="translate(-126 -289)" fill="#7a7a7a" stroke="#fff" stroke-width="0.2"/>
        </g>
      </g>
      <g id="Group_11722" data-name="Group 11722" transform="translate(28.344 19.277)">
        <g id="Group_11721" data-name="Group 11721">
          <path id="Path_16145" data-name="Path 16145" d="M67.758,329H66.586a.586.586,0,0,0,0,1.172h1.172a.586.586,0,0,0,0-1.172Z" transform="translate(-66 -329)" fill="#7a7a7a" stroke="#fff" stroke-width="0.2"/>
        </g>
      </g>
      <g id="Group_11724" data-name="Group 11724" transform="translate(31.859 19.277)">
        <g id="Group_11723" data-name="Group 11723">
          <path id="Path_16146" data-name="Path 16146" d="M127.758,329h-1.172a.586.586,0,0,0,0,1.172h1.172a.586.586,0,0,0,0-1.172Z" transform="translate(-126 -329)" fill="#7a7a7a" stroke="#fff" stroke-width="0.2"/>
        </g>
      </g>
      <g id="Group_11726" data-name="Group 11726" transform="translate(28.344 21.621)">
        <g id="Group_11725" data-name="Group 11725">
          <path id="Path_16147" data-name="Path 16147" d="M67.758,369H66.586a.586.586,0,0,0,0,1.172h1.172a.586.586,0,0,0,0-1.172Z" transform="translate(-66 -369)" fill="#7a7a7a" stroke="#fff" stroke-width="0.2"/>
        </g>
      </g>
      <g id="Group_11728" data-name="Group 11728" transform="translate(31.859 21.621)">
        <g id="Group_11727" data-name="Group 11727">
          <path id="Path_16148" data-name="Path 16148" d="M127.758,369h-1.172a.586.586,0,0,0,0,1.172h1.172a.586.586,0,0,0,0-1.172Z" transform="translate(-126 -369)" fill="#7a7a7a" stroke="#fff" stroke-width="0.2"/>
        </g>
      </g>
    </g>
  </g>
</svg>
