<svg xmlns="http://www.w3.org/2000/svg" viewBox="0 0 30.471 30.508">
  <defs>
    <style>
      .cls-1 {
        fill: #7a7a7a;
        stroke: #fff;
        stroke-width: 0.5px;
      }
    </style>
  </defs>
  <g id="Group_1" data-name="Group 1" transform="translate(0.25 0.258)">
    <path id="Path_16855" data-name="Path 16855" class="cls-1" d="M35.308,32.151a1.059,1.059,0,0,0-1.5,1.5l4.881,4.881a1.034,1.034,0,0,0,.749.31h.052a1.18,1.18,0,0,0,.775-.387L52.48,23.81a1.063,1.063,0,0,0-1.627-1.369L39.362,36.205Z" transform="translate(-26.515 -18.032)"/>
    <path id="Path_16856" data-name="Path 16856" class="cls-1" d="M29.342,8.717a15.01,15.01,0,1,0,4.751,4.751,1.05,1.05,0,0,0-1.782,1.11,12.855,12.855,0,1,1-4.08-4.08,1.05,1.05,0,0,0,1.11-1.782Z" transform="translate(-6.45 -6.426)"/>
  </g>
</svg>
