<svg xmlns="http://www.w3.org/2000/svg" xmlns:xlink="http://www.w3.org/1999/xlink" width="23" height="30" viewBox="0 0 23 30">
  <defs>
    <clipPath id="clip-path">
      <rect width="23" height="30" fill="none"/>
    </clipPath>
  </defs>
  <g id="Repeat_Grid_1" data-name="Repeat Grid 1" clip-path="url(#clip-path)">
    <g id="Group_1" data-name="Group 1" transform="translate(15218 461)">
      <path id="Path_16111" data-name="Path 16111" d="M78.562,4.364,74.647.44A1.51,1.51,0,0,0,73.585,0H57.5A1.5,1.5,0,0,0,56,1.5v27A1.5,1.5,0,0,0,57.5,30h20A1.5,1.5,0,0,0,79,28.5V5.423A1.491,1.491,0,0,0,78.562,4.364ZM78,28.5a.5.5,0,0,1-.5.5h-20a.5.5,0,0,1-.5-.5V1.5a.5.5,0,0,1,.5-.5h16V4.5A1.5,1.5,0,0,0,75,6h2V5H75a.5.5,0,0,1-.5-.5V1.709L77.854,5.07A.5.5,0,0,1,78,5.423Z" transform="translate(-15274 -461)" fill="#58595b"/>
      <path id="Path_16112" data-name="Path 16112" d="M104,48h1v1h-1Z" transform="translate(-15319 -506)" fill="#58595b"/>
      <path id="Path_16113" data-name="Path 16113" d="M136,48h10v1H136Z" transform="translate(-15349 -506)" fill="#58595b"/>
      <path id="Path_16114" data-name="Path 16114" d="M104,80h12v1H104Z" transform="translate(-15319 -536)" fill="#58595b"/>
      <path id="Path_16115" data-name="Path 16115" d="M255.5,304h-7a.5.5,0,0,0-.5.5v6a.5.5,0,0,0,.5.5h7a.5.5,0,0,0,.5-.5v-6A.5.5,0,0,0,255.5,304Zm-.5,6h-6v-5h6Z" transform="translate(-15454 -746)" fill="#58595b"/>
      <path id="Path_16116" data-name="Path 16116" d="M248,152h1v1h-1Z" transform="translate(-15454 -603.5)" fill="#58595b"/>
      <path id="Path_16117" data-name="Path 16117" d="M280,152h6v1h-6Z" transform="translate(-15484 -603.5)" fill="#58595b"/>
      <path id="Path_16118" data-name="Path 16118" d="M248,184h8v1h-8Z" transform="translate(-15454 -633.5)" fill="#58595b"/>
      <path id="Path_16119" data-name="Path 16119" d="M248,216h8v1h-8Z" transform="translate(-15454 -663.5)" fill="#58595b"/>
      <path id="Path_16120" data-name="Path 16120" d="M248,248h8v1h-8Z" transform="translate(-15454 -693.5)" fill="#58595b"/>
      <path id="Path_16121" data-name="Path 16121" d="M104,304h1v1h-1Z" transform="translate(-15319 -746)" fill="#58595b"/>
      <path id="Path_16122" data-name="Path 16122" d="M136,304h6v1h-6Z" transform="translate(-15349 -746)" fill="#58595b"/>
      <path id="Path_16123" data-name="Path 16123" d="M104,336h8v1h-8Z" transform="translate(-15319 -776)" fill="#58595b"/>
      <path id="Path_16124" data-name="Path 16124" d="M104,368h8v1h-8Z" transform="translate(-15319 -806)" fill="#58595b"/>
      <path id="Path_16125" data-name="Path 16125" d="M104,400h8v1h-8Z" transform="translate(-15319 -836)" fill="#58595b"/>
      <path id="Path_16126" data-name="Path 16126" d="M120,194.5v3a.5.5,0,0,0,.5.5h5a.5.5,0,0,0,.5-.5v-3a2.5,2.5,0,0,0-2.5-2.5h-1A2.5,2.5,0,0,0,120,194.5Zm1,0a1.5,1.5,0,0,1,1.5-1.5h1a1.5,1.5,0,0,1,1.5,1.5V197h-4Z" transform="translate(-15334 -641)" fill="#58595b"/>
      <path id="Path_16127" data-name="Path 16127" d="M147,130v-.5a1.5,1.5,0,0,0-3,0v.5a1.5,1.5,0,0,0,3,0Zm-2,0v-.5a.5.5,0,0,1,1,0v.5a.5.5,0,1,1-1,0Z" transform="translate(-15356.5 -581)" fill="#58595b"/>
    </g>
  </g>
</svg>
