<svg xmlns="http://www.w3.org/2000/svg" viewBox="0 0 23.091 25.819">
  <defs>
    <style>
      .cls-1 {
        fill: none;
        stroke: #706f72;
        stroke-miterlimit: 10;
        stroke-width: 1.5px;
      }

      .cls-2 {
        fill: #706f72;
      }
    </style>
  </defs>
  <g id="Group_1" data-name="Group 1" transform="translate(-9.131 -7.334)">
    <g id="Group_11381" data-name="Group 11381" transform="translate(7.222 7.334)">
      <g id="Group_11380" data-name="Group 11380" transform="translate(0 0)">
        <g id="Group_11375" data-name="Group 11375" transform="translate(0 0)">
          <g id="Group_8409" data-name="Group 8409" transform="translate(6.743 23.099)">
            <line id="Line_38" data-name="Line 38" class="cls-1" x2="14.193" transform="translate(0 1.97)"/>
            <line id="Line_39" data-name="Line 39" class="cls-1" x2="14.193" transform="translate(4.065 0)"/>
          </g>
          <g id="pen" transform="translate(0 6.179) rotate(-19)">
            <path id="Path_13582" data-name="Path 13582" class="cls-2" d="M15.654,3.216,3.216,15.654,0,12.438,12.437,0Z" transform="translate(1.303 2.079)"/>
            <path id="Path_13583" data-name="Path 13583" class="cls-2" d="M4.177,3.216,0,4.187.961,0Z" transform="translate(0 14.859)"/>
            <path id="Path_13584" data-name="Path 13584" class="cls-2" d="M7.935.033A3.624,3.624,0,0,0,7.363.5L7.05.189c-.208-.208-.7-.057-1.09.337L.43,6.055c-.394.394-.545.882-.337,1.09L.1,7.153a1.853,1.853,0,0,1,.2-.234L5.83,1.389c.365-.365.81-.521,1.039-.377-.323.353-.57.657-.57.657L9.515,4.886A4.619,4.619,0,0,0,11.151,3.25C11.533,2.359,8.534-.329,7.935.033Z" transform="translate(7.793 0)"/>
          </g>
        </g>
      </g>
    </g>
  </g>
</svg>
