<svg xmlns="http://www.w3.org/2000/svg" width="17" height="17" viewBox="0 0 17 17">
  <g id="Group_1" data-name="Group 1" transform="translate(-979 -865.999)">
    <g id="question" transform="translate(979 865.999)">
      <path id="Path_13248" data-name="Path 13248" d="M17,8.5A8.5,8.5,0,1,0,8.5,17,8.5,8.5,0,0,0,17,8.5Z" transform="translate(0 -0.003)" fill="#53b847"/>
    </g>
    <g id="information" transform="translate(985.8 869.399)">
      <g id="Group_8996" data-name="Group 8996" transform="translate(0 0)">
        <g id="Group_8995" data-name="Group 8995">
          <path id="Path_13822" data-name="Path 13822" d="M192.083,107.136a1.8,1.8,0,0,0,.1.182c.033.05.083.1.116.149a1.493,1.493,0,0,0,.165.149.556.556,0,0,0,.2.1.818.818,0,0,0,.215.066,1.015,1.015,0,0,0,.215.017.941.941,0,0,0,.215-.017.592.592,0,0,0,.182-.066h.017a1.232,1.232,0,0,0,.2-.116,1.069,1.069,0,0,0,.149-.132l.017-.017a.909.909,0,0,0,.116-.149.517.517,0,0,0,.083-.165c0-.017,0-.017.017-.033a1.071,1.071,0,0,0,.066-.215,1.408,1.408,0,0,0,0-.43,1.539,1.539,0,0,0-.066-.215.937.937,0,0,0-.2-.3l-.033-.033a1.443,1.443,0,0,0-.165-.132c-.066-.033-.116-.066-.182-.1a.931.931,0,0,0-.2-.066,1.016,1.016,0,0,0-.215-.017.942.942,0,0,0-.215.017.931.931,0,0,0-.2.066h-.017a1.8,1.8,0,0,0-.182.1,1.44,1.44,0,0,0-.165.132,1.07,1.07,0,0,0-.132.149,1.8,1.8,0,0,0-.1.182.931.931,0,0,0-.066.2,1.017,1.017,0,0,0-.017.215.942.942,0,0,0,.017.215A1.5,1.5,0,0,0,192.083,107.136Z" transform="translate(-191.405 -105.6)" fill="#fff"/>
          <path id="Path_13823" data-name="Path 13823" d="M180.573,185.277h-.38V181.23a.427.427,0,0,0-.429-.43H178.03a.427.427,0,0,0-.43.43v.892a.427.427,0,0,0,.43.43h.347v2.742h-.347a.427.427,0,0,0-.43.43v.892a.427.427,0,0,0,.43.429h2.544a.427.427,0,0,0,.43-.429v-.892A.441.441,0,0,0,180.573,185.277Z" transform="translate(-177.6 -177.694)" fill="#fff"/>
        </g>
      </g>
    </g>
  </g>
</svg>
