<svg xmlns="http://www.w3.org/2000/svg" viewBox="0 0 56.889 40">
  <defs>
    <style>
      .cls-1 {
        fill: #505050;
      }
    </style>
  </defs>
  <g id="mail" transform="translate(0 -76)">
    <g id="Group_12422" data-name="Group 12422" transform="translate(39.135 78.858)">
      <g id="Group_12421" data-name="Group 12421" transform="translate(0 0)">
        <path id="Path_16220" data-name="Path 16220" class="cls-1" d="M369.464,101.721l-17.253,17.142,17.253,17.142a4.942,4.942,0,0,0,.5-2.142v-30A4.942,4.942,0,0,0,369.464,101.721Z" transform="translate(-352.211 -101.721)"/>
      </g>
    </g>
    <g id="Group_12424" data-name="Group 12424" transform="translate(2.858 76)">
      <g id="Group_12423" data-name="Group 12423" transform="translate(0 0)">
        <path id="Path_16221" data-name="Path 16221" class="cls-1" d="M74.752,76H27.863a4.942,4.942,0,0,0-2.142.5l22.051,21.94a5,5,0,0,0,7.07,0L76.894,76.5A4.942,4.942,0,0,0,74.752,76Z" transform="translate(-25.721 -76)"/>
      </g>
    </g>
    <g id="Group_12426" data-name="Group 12426" transform="translate(0 78.858)">
      <g id="Group_12425" data-name="Group 12425" transform="translate(0 0)">
        <path id="Path_16222" data-name="Path 16222" class="cls-1" d="M.5,101.721a4.942,4.942,0,0,0-.5,2.142v30a4.941,4.941,0,0,0,.5,2.142l17.253-17.142Z" transform="translate(0 -101.721)"/>
      </g>
    </g>
    <g id="Group_12428" data-name="Group 12428" transform="translate(2.858 98.357)">
      <g id="Group_12427" data-name="Group 12427">
        <path id="Path_16223" data-name="Path 16223" class="cls-1" d="M59.641,277.211,57.2,279.652a8.342,8.342,0,0,1-11.784,0l-2.441-2.441L25.721,294.353a4.942,4.942,0,0,0,2.142.5H74.752a4.942,4.942,0,0,0,2.142-.5Z" transform="translate(-25.721 -277.211)"/>
      </g>
    </g>
  </g>
</svg>
