<svg xmlns="http://www.w3.org/2000/svg" xmlns:xlink="http://www.w3.org/1999/xlink" viewBox="0 0 17.667 19">
  <defs>
    <style>
      .cls-1 {
        fill: #505050;
      }

      .cls-2 {
        filter: url(#Union_3);
      }
    </style>
    <filter id="Union_3" x="0" y="0" width="17.667" height="19" filterUnits="userSpaceOnUse">
      <feOffset dy="1" input="SourceAlpha"/>
      <feGaussianBlur stdDeviation="0.5" result="blur"/>
      <feFlood flood-opacity="0.161"/>
      <feComposite operator="in" in2="blur"/>
      <feComposite in="SourceGraphic"/>
    </filter>
  </defs>
  <g id="trash" transform="translate(1.5 0.5)">
    <g id="Group_2444" data-name="Group 2444" transform="translate(0 0)">
      <g class="cls-2" transform="matrix(1, 0, 0, 1, -1.5, -0.5)">
        <path id="Union_3-2" data-name="Union 3" class="cls-1" d="M3,16a1.468,1.468,0,0,1-1.178-.609,2.282,2.282,0,0,1-.489-1.475V4h-1A.32.32,0,0,1,0,3.666V3a.321.321,0,0,1,.094-.239.325.325,0,0,1,.24-.094H3.552L4.281.927A1.444,1.444,0,0,1,4.844.271,1.472,1.472,0,0,1,5.667,0H9a1.469,1.469,0,0,1,.823.271,1.443,1.443,0,0,1,.562.656l.729,1.74h3.219A.321.321,0,0,1,14.667,3v.667A.32.32,0,0,1,14.334,4h-1v9.876a2.367,2.367,0,0,1-.489,1.495,1.454,1.454,0,0,1-1.177.63Zm-.334-2.125a1.18,1.18,0,0,0,.073.422.92.92,0,0,0,.151.281c.052.059.089.089.11.089h8.667c.021,0,.057-.03.109-.089a.939.939,0,0,0,.151-.281A1.2,1.2,0,0,0,12,13.875V4H2.666ZM5.51,1.447,5,2.666H9.667l-.5-1.219a.3.3,0,0,0-.178-.114h-3.3A.3.3,0,0,0,5.51,1.447Zm4.157,11.22a.322.322,0,0,1-.333-.333v-6a.328.328,0,0,1,.094-.24A.324.324,0,0,1,9.667,6h.667a.321.321,0,0,1,.333.333v6a.322.322,0,0,1-.333.333ZM7,12.667a.322.322,0,0,1-.333-.333v-6A.321.321,0,0,1,7,6h.667a.328.328,0,0,1,.24.094A.324.324,0,0,1,8,6.333v6a.321.321,0,0,1-.333.333Zm-2.667,0A.321.321,0,0,1,4,12.334v-6A.32.32,0,0,1,4.333,6H5a.321.321,0,0,1,.333.333v6A.322.322,0,0,1,5,12.667Z" transform="translate(1.5 0.5)"/>
      </g>
    </g>
  </g>
</svg>
