<svg xmlns="http://www.w3.org/2000/svg" width="146.902" height="15" viewBox="0 0 146.902 15">
  <g id="Group_1" data-name="Group 1" transform="translate(137.301 11.216) rotate(180)">
    <g id="Group_10028" data-name="Group 10028">
      <line id="Line_468" data-name="Line 468" x1="133" y1="0.3" transform="translate(3.8 3.8)" stroke-dasharray="1.985 2.977" stroke="#17ae06" stroke-linecap="round" stroke-linejoin="round" stroke-width="1" fill="none"/>
      <g id="Group_10027" data-name="Group 10027" transform="translate(-9.601 -3.784)">
        <path id="Path_15999" data-name="Path 15999" d="M7.7,15A21.581,21.581,0,0,0,0,7.5,21.581,21.581,0,0,0,7.7,0H9.474A28.652,28.652,0,0,1,2.368,7.5,23.414,23.414,0,0,1,9.474,15Z" fill="#17ae06"/>
        <path id="Path_16000" data-name="Path 16000" d="M10,15C8.221,11.842,5.261,9.474,2.3,7.5A21.58,21.58,0,0,0,10,0h1.776A23.414,23.414,0,0,1,4.668,7.5,23.414,23.414,0,0,1,11.774,15Z" transform="translate(2.239)" fill="#17ae06"/>
      </g>
    </g>
  </g>
</svg>
