<svg xmlns="http://www.w3.org/2000/svg" viewBox="0 0 58.101 46">
  <defs>
    <style>
      .cls-1, .cls-2 {
        fill: #53b847;
      }

      .cls-1 {
        stroke: #53b847;
      }

      .cls-3 {
        fill: #fff;
      }

      .cls-4 {
        stroke: none;
      }

      .cls-5 {
        fill: none;
      }
    </style>
  </defs>
  <g id="Group_1" data-name="Group 1" transform="translate(-1055 -373)">
    <g id="Rectangle_1206" data-name="Rectangle 1206" class="cls-1" transform="translate(1055 373)">
      <rect class="cls-4" width="58.101" height="39.81" rx="6"/>
      <rect class="cls-5" x="0.5" y="0.5" width="57.101" height="38.81" rx="5.5"/>
    </g>
    <path id="Path_3483" data-name="Path 3483" class="cls-2" d="M0,0H25.157L0,25.015H0Z" transform="translate(1083.712 419) rotate(-135)"/>
    <g id="Group_2356" data-name="Group 2356" transform="translate(1067.678 389.482)">
      <path id="Path_2444" data-name="Path 2444" class="cls-3" d="M49.937,31.14a2.863,2.863,0,0,1-2.8,2.869h-.072A2.877,2.877,0,0,1,44.2,31.14v-.072A2.877,2.877,0,0,1,47.069,28.2h.072a2.817,2.817,0,0,1,2.8,2.869Z" transform="translate(-30.932 -28.2)"/>
      <path id="Path_2445" data-name="Path 2445" class="cls-3" d="M68.337,31.14a2.877,2.877,0,0,1-2.869,2.869H65.4a2.817,2.817,0,0,1-2.8-2.869v-.072A2.863,2.863,0,0,1,65.4,28.2h.072a2.877,2.877,0,0,1,2.869,2.869Z" transform="translate(-36.136 -28.2)"/>
      <path id="Path_2446" data-name="Path 2446" class="cls-3" d="M31.509,31.14a2.877,2.877,0,0,1-2.869,2.869h-.072A2.877,2.877,0,0,1,25.7,31.14v-.072A2.877,2.877,0,0,1,28.569,28.2h.072a2.877,2.877,0,0,1,2.869,2.869Z" transform="translate(-25.7 -28.2)"/>
    </g>
  </g>
</svg>
