<svg id="Group_1" data-name="Group 1" xmlns="http://www.w3.org/2000/svg" viewBox="0 0 22.222 15.829">
  <defs>
    <style>
      .cls-1 {
        fill: #53b847;
      }
    </style>
  </defs>
  <path id="Path_13235" data-name="Path 13235" class="cls-1" d="M84.7,90.775,73.174,102.3,67.906,97.03a1.591,1.591,0,0,0-2.25,2.25l6.393,6.393a1.591,1.591,0,0,0,2.25,0L86.947,93.025a1.591,1.591,0,0,0-2.25-2.25Z" transform="translate(-65.19 -90.309)"/>
</svg>
