<svg id="Group_1" data-name="Group 1" xmlns="http://www.w3.org/2000/svg" viewBox="0 0 19.399 24.369">
  <defs>
    <style>
      .cls-1 {
        fill: #53b847;
      }
    </style>
  </defs>
  <g id="Group_8412" data-name="Group 8412">
    <path id="Path_13232" data-name="Path 13232" class="cls-1" d="M19.4,104.755v-2.369a2.353,2.353,0,0,0-2.425-2.286H2.425A2.359,2.359,0,0,0,0,102.386v10.532A2.359,2.359,0,0,0,2.425,115.2H16.974a2.359,2.359,0,0,0,2.425-2.286V112.2H16.224v-1.268H19.4v-1.74H16.224v-1.268H19.4v-1.9H16.224v-1.268Zm-8.848,4.119v1.592a.774.774,0,0,1-.851.666.774.774,0,0,1-.851-.666v-1.592a1.962,1.962,0,1,1,1.7,0Z" transform="translate(0 -90.836)"/>
    <path id="Path_13233" data-name="Path 13233" class="cls-1" d="M23.7,6.034a3.816,3.816,0,0,1,3.822-3.813H30a3.824,3.824,0,0,1,3.822,3.822V8.718H36.53V5.229A5.23,5.23,0,0,0,31.3,0H26.22A5.228,5.228,0,0,0,21,5.229v3.48h2.7Z" transform="translate(-19.056)"/>
  </g>
</svg>
