<svg id="Group_1" data-name="Group 1" xmlns="http://www.w3.org/2000/svg" viewBox="0 0 20.921 13">
  <defs>
    <style>
      .cls-1 {
        fill: #505050;
      }
    </style>
  </defs>
  <path id="Path_3463" data-name="Path 3463" class="cls-1" d="M20.839,122.675a.676.676,0,0,0,0-.644,11.807,11.807,0,0,0-20.757,0,.676.676,0,0,0,0,.644,11.807,11.807,0,0,0,20.757,0Zm-10.379,4.664a4.986,4.986,0,1,1,4.986-4.986A4.986,4.986,0,0,1,10.461,127.339Z" transform="translate(0 -115.853)"/>
  <path id="Path_3464" data-name="Path 3464" class="cls-1" d="M234.21,231.67a2.548,2.548,0,0,0-.608.073,1.318,1.318,0,0,1-1.859,1.859,2.541,2.541,0,1,0,2.467-1.933Z" transform="translate(-223.75 -227.711)"/>
</svg>
